Place,Name,CyrillicName,Country,BirthDate,BodyweightKg,Bench1Kg,Bench2Kg,Bench3Kg,Bench4Kg,TotalKg,WeightClassKg,Division,Sex,Event,Equipment,Tested,Best3BenchKg,BirthYear
1,Makar Semkovich,Макар Семкович,Ukraine,2010-02-19,46.7,22.5,27.5,-30,,27.5,48,Amateur Children 9,M,B,Raw,Yes,27.5,2010
1,Volodimir Labenskiy,Володимир Лабенський,Ukraine,2008-06-04,33.4,25,27.5,30,,30,44,Amateur Children 10,M,B,Raw,Yes,30,2008
1,Volodimir Galiga,Володимир Галига,Ukraine,2005-08-16,47.6,37.5,-40,40,,40,48,Amateur Teen 13-15,M,B,Raw,Yes,40,2005
1,Volodimir Visochanskiy,Володимир Височанський,Ukraine,2003-07-28,60.6,65,-70,70,,70,67.5,Amateur Teen 13-15,M,B,Raw,Yes,70,2003
1,Sergiy Moroz,Сергій Мороз,Ukraine,1999-12-01,81.6,95,-105,-105,,95,82.5,Amateur Teen 18-19,M,B,Raw,Yes,95,1999
1,Bogdan Petrinyak,Богдан Петриняк,Ukraine,1996-04-07,59.1,50,57.5,62.5,,62.5,60,Amateur Juniors 20-23,M,B,Raw,Yes,62.5,1996
1,Petro Kalinovskiy,Петро Калиновський,Ukraine,1996-05-28,67.5,120,130,132.5,,132.5,67.5,Amateur Juniors 20-23,M,B,Raw,Yes,132.5,1996
1,Evgen Ambrozyak,Євген Амброзяк,Ukraine,1998-10-12,74.1,90,95,-105,,95,75,Amateur Juniors 20-23,M,B,Raw,Yes,95,1998
1,Stepan Savchuk,Степан Савчук,Ukraine,1996-04-18,82.5,140,-150,-150,,140,82.5,Amateur Juniors 20-23,M,B,Raw,Yes,140,1996
2,Oleg Balabash,Олег Балабаш,Ukraine,1997-10-22,80.5,137.5,-142.5,-142.5,,137.5,82.5,Amateur Juniors 20-23,M,B,Raw,Yes,137.5,1997
3,Roman Vinnik,Роман Винник,Ukraine,1998-03-31,80.5,100,110,-117.5,,110,82.5,Amateur Juniors 20-23,M,B,Raw,Yes,110,1998
1,Bogdan Kalinovskiy,Богдан Калиновський,Ukraine,1997-02-10,90,140,145,-150,,145,90,Amateur Juniors 20-23,M,B,Raw,Yes,145,1997
1,Bogdan Petrinyak,Богдан Петриняк,Ukraine,1996-04-07,59.1,50,57.5,62.5,,62.5,60,Amateur Open,M,B,Raw,Yes,62.5,1996
1,Stepan Savchuk,Степан Савчук,Ukraine,1996-04-18,82.5,140,-150,-150,,140,82.5,Amateur Open,M,B,Raw,Yes,140,1996
2,Yuriy Yastremskiy,Юрій Ястремський,Ukraine,1988-05-06,81.7,-130,130,132.5,,132.5,82.5,Amateur Open,M,B,Raw,Yes,132.5,1988
3,Roman Vinnik,Роман Винник,Ukraine,1998-03-31,80.5,100,110,-117.5,,110,82.5,Amateur Open,M,B,Raw,Yes,110,1998
1,Vitaliy Meserenko,Віталій Месеренко,Ukraine,1976-11-06,94.2,150,160,-170,,160,100,Amateur Open,M,B,Raw,Yes,160,1976
2,Dmitro Derzhetskiy,Дмитро Держецький,Ukraine,1982-07-25,90,140,150,-157.5,,150,100,Amateur Open,M,B,Raw,Yes,150,1982
1,Sergiy Lazutchenkov,Сергій Лазутченков,Ukraine,1980-09-05,99.2,172.5,-177.5,,,172.5,100,Amateur Open,M,B,Raw,Yes,172.5,1980
2,Yaroslav Oleksin,Ярослав Олексин,Ukraine,1986-09-11,97.6,115,-120,-120,,115,100,Amateur Open,M,B,Raw,Yes,115,1986
1,Viktor Feshchin,Віктор Фещин,Ukraine,1981-07-20,109.2,-150,150,,,150,110,Amateur Open,M,B,Raw,Yes,150,1981
2,Lyubomir Tyun,Любомир Тюн,Ukraine,1993-08-13,106.9,140,147.5,-167.5,,147.5,110,Amateur Open,M,B,Raw,Yes,147.5,1993
1,Volodimir Kukhar,Володимир Кухар,Ukraine,1985-03-30,111.9,175,180,182.5,,182.5,125,Amateur Open,M,B,Raw,Yes,182.5,1985
2,Pavlo Semkovich,Павло Семкович,Ukraine,1980-05-12,112,162.5,172.5,177.5,,177.5,125,Amateur Open,M,B,Raw,Yes,177.5,1980
1,Dmitro Derzhetskiy,Дмитро Держецький,Ukraine,1982-07-25,90,140,150,-157.5,,150,90,Amateur Submasters 33-39,M,B,Raw,Yes,150,1982
1,Taras Mashtaler,Тарас Машталер,Ukraine,1974-08-18,82.5,115,127.5,-132.5,,127.5,82.5,Amateur Masters 40-44,M,B,Raw,Yes,127.5,1974
1,Vitaliy Meserenko,Віталій Месеренко,Ukraine,1976-11-06,94.2,150,160,-170,,160,100,Amateur Masters 40-44,M,B,Raw,Yes,160,1976
1,Andriy Petruk,Андрій Петрук,Ukraine,1975-01-15,97.7,190,-200,-200,,190,100,Amateur Masters 40-44,M,B,Raw,Yes,190,1975
1,Kseniya Sholina,Ксенія Шоліна,Ukraine,1999-08-10,48,40,45,-47.5,,45,48,Amateur Teen 18-19,F,B,Raw,Yes,45,1999
1,Lyudmila Vasilishin,Людмила Василишин,Ukraine,1974-07-13,60,47.5,50,-52.5,,50,60,Amateur Open,F,B,Raw,Yes,50,1974
2,Svitlana Oleksin,Світлана Олексин,Ukraine,1986-04-29,60,40,-42.5,42.5,,42.5,60,Amateur Open,F,B,Raw,Yes,42.5,1986
1,Lyudmila Vasilishin,Людмила Василишин,Ukraine,1974-07-13,60,47.5,50,-52.5,,50,60,Amateur Masters 40-44,F,B,Raw,Yes,50,1974
1,Ruslan Aleksander,Руслан Александер,Ukraine,2001-05-02,99.5,-150,157.5,160,,160,100,Pro Teen 16-17,M,B,Raw,No,160,2001
1,Nazariy Levitskiy,Назарій Левицький,Ukraine,2000-04-28,83.8,125,135,-140,,135,90,Pro Teen 18-19,M,B,Raw,No,135,2000
1,Roman Bordun,Роман Бордун,Ukraine,1996-04-07,110,160,170,-180,,170,110,Pro Juniors 20-23,M,B,Raw,No,170,1996
1,Ruslan Ruban,Руслан Рубан,Ukraine,1990-07-09,75,152.5,162.5,170,,170,75,Pro Open,M,B,Raw,No,170,1990
1,Igor Melnik,Ігор Мельник,Ukraine,1982-10-17,100,175,180,185,,185,100,Pro Open,M,B,Raw,No,185,1982
2,Vladislav Katsebo,Владислав Кацебо,Ukraine,1985-07-29,100,160,170,-175,,170,100,Pro Open,M,B,Raw,No,170,1985
DQ,Petro Partatus,Петро Партатус,Ukraine,1991-03-09,97.8,-180,-180,-180,,,100,Pro Open,M,B,Raw,No,,1991
DQ,Volodimir Galiga,Володимир Галига,Ukraine,1983-08-12,95,-200,,,,,100,Pro Open,M,B,Raw,No,,1983
1,Roman Bordun,Роман Бордун,Ukraine,1996-04-07,110,160,170,-180,,170,110,Pro Open,M,B,Raw,No,170,1996
1,Oleg Palamarchuk,Олег Паламарчук,Ukraine,1972-11-23,115.7,190,200,210,,210,125,Pro Open,M,B,Raw,No,210,1972
2,Andriy Tarnovskiy,Андрій Тарновський,Ukraine,1989-03-29,113.8,180,190,-195,,190,125,Pro Open,M,B,Raw,No,190,1989
1,Igor Melnik,Ігор Мельник,Ukraine,1982-10-17,100,175,180,185,,185,100,Pro Submasters 33-39,M,B,Raw,No,185,1982
2,Vladislav Katsebo,Владислав Кацебо,Ukraine,1985-07-29,100,160,170,-175,,170,100,Pro Submasters 33-39,M,B,Raw,No,170,1985
DQ,Volodimir Galiga,Володимир Галига,Ukraine,1983-08-12,95,-200,,,,,100,Pro Submasters 33-39,M,B,Raw,No,,1983
1,Volodimir Timkovich,Володимир Тимкович,Ukraine,1974-10-25,99.3,180,190,-197.5,,190,100,Pro Masters 40-44,M,B,Raw,No,190,1974
1,Oleg Palamarchuk,Олег Паламарчук,Ukraine,1972-11-23,115.7,190,200,210,,210,125,Pro Masters 45-49,M,B,Raw,No,210,1972
DQ,Andriy Gimbarov,Андрій Гімбаров,Ukraine,1966-10-01,108,-200,,,,,110,Pro Masters 50-54,M,B,Raw,No,,1966
1,Andriy Levitskiy,Андрій Левицький,Ukraine,1988-06-04,97.9,-210,210,220,,220,100,Pro Open,M,B,Multi-ply,No,220,1988
1,Andriy Levitskiy,Андрій Левицький,Ukraine,1988-06-04,97.9,-210,210,220,,220,100,Pro Military/Fire/Police,M,B,Multi-ply,No,220,1988
