Place,Name,CyrillicName,Country,BirthDate,BodyweightKg,Bench1Kg,Bench2Kg,Bench3Kg,Bench4Kg,TotalKg,WeightClassKg,Division,Sex,Event,Equipment,Tested,Best3BenchKg,BirthYear
1,Makar Semkovich,Макар Семкович,Ukraine,2010-02-19,41,20,22.5,25,,25,44,Amateur Children 8,M,B,Raw,Yes,25,2010
1,Ostap Chemeris,Остап Чемерис,Ukraine,2006-11-14,35.8,32.5,-35,-35,,32.5,44,Amateur Children 11-12,M,B,Raw,Yes,32.5,2006
1,Volodimir Galiga,Володимир Галига,Ukraine,2005-08-16,48,32.5,35,37.5,,37.5,48,Amateur Children 11-12,M,B,Raw,Yes,37.5,2005
1,Oleg Fesyuk,Олег Фесюк,Ukraine,2003-04-30,65.1,90,-95,-95,,90,67.5,Amateur Teen 13-15,M,B,Raw,Yes,90,2003
1,Nazariy Levitskiy,Назарій Левицький,Ukraine,2000-04-28,79.7,110,120,125,,125,82.5,Amateur Teen 16-17,M,B,Raw,Yes,125,2000
1,Taras Mashtaler,Тарас Машталер,Ukraine,1999-08-09,74.9,110,120,-125,,120,75,Amateur Teen 18-19,M,B,Raw,Yes,120,1999
1,Oleksandr Voytovich,Олександр Войтович,Ukraine,1997-07-13,56,100,-110,-110,,100,56,Amateur Juniors 20-23,M,B,Raw,Yes,100,1997
1,Dmitro Dzikovskiy,Дмитро Дзіковський,Ukraine,1995-11-08,71.5,125,135,140,,140,75,Amateur Juniors 20-23,M,B,Raw,Yes,140,1995
1,Oleg Balabash,Олег Балабаш,Ukraine,1997-10-22,79.3,125,132.5,140,,140,82.5,Amateur Juniors 20-23,M,B,Raw,Yes,140,1997
2,Bogdan Petruk,Богдан Петрук,Ukraine,1997-06-20,79.6,117.5,125,-132.5,,125,82.5,Amateur Juniors 20-23,M,B,Raw,Yes,125,1997
1,Yuriy Ivanishin,Юрій Іванишин,Ukraine,1996-05-05,108.7,155,160,165,,165,110,Amateur Juniors 20-23,M,B,Raw,Yes,165,1996
1,Roman Taradyuk,Роман Тарадюк,Ukraine,1994-08-07,126.2,170,-177.5,-180,,170,140,Amateur Juniors 20-23,M,B,Raw,Yes,170,1994
1,Volodimir Galiga,Володимир Галига,Ukraine,2005-08-16,48,32.5,35,37.5,,37.5,48,Amateur Open,M,B,Raw,Yes,37.5,2005
1,Oleksandr Voytovich,Олександр Войтович,Ukraine,1997-07-13,56,100,-110,-110,,100,56,Amateur Open,M,B,Raw,Yes,100,1997
DQ,Sergiy Shendrik,Сергій Шендрик,Ukraine,1990-02-02,72.6,-140,-140,-140,,,75,Amateur Open,M,B,Raw,Yes,,1990
1,Volodimir Shumakov,Володимир Шумаков,Ukraine,1959-05-26,81.7,135,140,145,,145,82.5,Amateur Open,M,B,Raw,Yes,145,1959
1,Sergiy Krishchuk,Сергій Крищук,Ukraine,1975-05-15,89.1,140,150,-152.5,,150,90,Amateur Open,M,B,Raw,Yes,150,1975
2,Yuriy Korovayniy,Юрій Коровайний,Ukraine,1993-09-02,85.8,135,-140,140,,140,90,Amateur Open,M,B,Raw,Yes,140,1993
4,Roman Timchuk,Роман Тимчук,Ukraine,1990-02-12,90,125,130,-135,,130,90,Amateur Open,M,B,Raw,Yes,130,1990
5,Yaroslav Oleksin,Ярослав Олексин,Ukraine,1986-09-11,89.7,110,-115,-115,,110,90,Amateur Open,M,B,Raw,Yes,110,1986
DQ,Yuriy Vitovskiy,Юрій Вітовський,Ukraine,1993-04-30,88,-135,-135,-135,,,90,Amateur Open,M,B,Raw,Yes,,1993
1,Petro Partatus,Петро Партатус,Ukraine,1991-03-09,96.1,175,-180,-180,,175,100,Amateur Open,M,B,Raw,Yes,175,1991
2,Dmitro Mokich,Дмитро Мокич,Ukraine,1987-06-09,95.4,160,167.5,172.5,,172.5,100,Amateur Open,M,B,Raw,Yes,172.5,1987
3,Vitaliy Meserenko,Віталій Месеренко,Ukraine,1976-11-06,93.4,165,-170,170,,170,100,Amateur Open,M,B,Raw,Yes,170,1976
4,Valentin Slutskiy,Валентин Слуцький,Ukraine,1973-11-17,100,150,-167.5,-167.5,,150,100,Amateur Open,M,B,Raw,Yes,150,1973
1,Svyatoslav Boychuk,Святослав Бойчук,Ukraine,1992-01-15,107.2,200,-210,-210,,200,110,Amateur Open,M,B,Raw,Yes,200,1992
3,Volodimir Kukhar,Володимир Кухар,Ukraine,1985-03-30,108.9,-165,-165,170,,170,110,Amateur Open,M,B,Raw,Yes,170,1985
1,Pavlo Semkovich,Павло Семкович,Ukraine,1980-05-12,118.5,157.5,167.5,172.5,,172.5,125,Amateur Open,M,B,Raw,Yes,172.5,1980
1,Roman Taradyuk,Роман Тарадюк,Ukraine,1994-08-07,126.2,170,-177.5,-180,,170,140,Amateur Open,M,B,Raw,Yes,170,1994
1,Pavlo Semkovich,Павло Семкович,Ukraine,1980-05-12,118.5,157.5,167.5,172.5,,172.5,125,Amateur Submasters 33-39,M,B,Raw,Yes,172.5,1980
1,Taras Mashtaler,Тарас Машталер,Ukraine,1974-08-18,81.7,110,120,-125,,120,82.5,Amateur Masters 40-44,M,B,Raw,Yes,120,1974
1,Sergiy Krishchuk,Сергій Крищук,Ukraine,1975-05-15,89.1,140,150,-152.5,,150,90,Amateur Masters 40-44,M,B,Raw,Yes,150,1975
1,Vitaliy Meserenko,Віталій Месеренко,Ukraine,1976-11-06,93.4,165,-170,170,,170,100,Amateur Masters 40-44,M,B,Raw,Yes,170,1976
2,Valentin Slutskiy,Валентин Слуцький,Ukraine,1973-11-17,100,150,-167.5,-167.5,,150,100,Amateur Masters 40-44,M,B,Raw,Yes,150,1973
1,Volodimir Shumakov,Володимир Шумаков,Ukraine,1959-05-26,81.7,135,140,145,,145,82.5,Amateur Masters 55-59,M,B,Raw,Yes,145,1959
2,Mikhaylo Burkov,Михайло Бурков,Ukraine,1963-02-19,79.6,105,110,112.5,,112.5,82.5,Amateur Masters 55-59,M,B,Raw,Yes,112.5,1963
1,Oleg Chemeris,Олег Чемерис,Ukraine,1962-07-08,100,150,160,-167.5,,160,100,Amateur Masters 55-59,M,B,Raw,Yes,160,1962
1,Mikhaylo Burkov,Михайло Бурков,Ukraine,1963-02-19,79.6,105,110,112.5,,112.5,82.5,Amateur Military/Fire/Police,M,B,Raw,Yes,112.5,1963
1,Yuriy Korovayniy,Юрій Коровайний,Ukraine,1993-09-02,85.8,135,-140,140,,140,90,Amateur Military/Fire/Police,M,B,Raw,Yes,140,1993
1,Dmitro Mokich,Дмитро Мокич,Ukraine,1987-06-09,95.4,160,167.5,172.5,,172.5,100,Amateur Military/Fire/Police,M,B,Raw,Yes,172.5,1987
1,Armine Sargsyan,Арміне Саргсян,Ukraine,1981-02-20,58.4,60,-65,-65,,60,60,Amateur Open,F,B,Raw,Yes,60,1981
1,Diana Labenska,Діана Лабенська,Ukraine,1988-05-15,64,60,65,-70,,65,67.5,Amateur Open,F,B,Raw,Yes,65,1988
1,Mikhaylo Morozov,Михайло Морозов,Ukraine,1987-08-29,80.2,175,185,-200,,185,82.5,Pro Open,M,B,Raw,No,185,1987
1,Oleksii Melnyk,Олексій Мельник,Ukraine,1990-04-26,89.8,195,-205,-205,,195,90,Pro Open,M,B,Raw,No,195,1990
1,Andriy Levitskiy,Андрій Левицький,Ukraine,1988-06-04,97.5,165,175,-180,,175,100,Pro Open,M,B,Raw,No,175,1988
2,Igor Melnik,Ігор Мельник,Ukraine,1982-10-17,95,-160,-160,160,,160,100,Pro Open,M,B,Raw,No,160,1982
1,Andriy Belov,Андрій Бєлов,Ukraine,1972-03-05,109.8,-210,-210,210,,210,110,Pro Open,M,B,Raw,No,210,1972
1,Oleg Palamarchuk,Олег Паламарчук,Ukraine,1972-11-23,115.2,190,195,200,,200,125,Pro Open,M,B,Raw,No,200,1972
2,Andriy Tarnovskiy,Андрій Тарновський,Ukraine,1989-03-29,114.1,-180,185,195,,195,125,Pro Open,M,B,Raw,No,195,1989
1,Oleg Palamarchuk,Олег Паламарчук,Ukraine,1972-11-23,115.2,190,195,200,,200,125,Pro Masters 40-44,M,B,Raw,No,200,1972
1,Oleksandr Popovich,Олександр Попович,Ukraine,1972-08-12,75,127.5,132.5,137.5,,137.5,75,Pro Masters 45-49,M,B,Raw,No,137.5,1972
1,Andriy Belov,Андрій Бєлов,Ukraine,1972-03-05,109.8,-210,-210,210,,210,110,Pro Masters 45-49,M,B,Raw,No,210,1972
1,Sergiy Avramenko,Сергій Авраменко,Ukraine,1971-08-16,110.8,115,117.5,,,117.5,125,Pro Masters 45-49,M,B,Raw,No,117.5,1971
1,Taras Marusenko,Тарас Марусенко,Ukraine,1966-08-11,92.1,145,-150,150,,150,100,Pro Masters 50-54,M,B,Raw,No,150,1966
1,Oleksandr Popovich,Олександр Попович,Ukraine,1972-08-12,75,127.5,132.5,137.5,,137.5,75,Pro Military/Fire/Police,M,B,Raw,No,137.5,1972
1,Andriy Levitskiy,Андрій Левицький,Ukraine,1988-06-04,97.5,165,175,-180,,175,100,Pro Military/Fire/Police,M,B,Raw,No,175,1988
1,Nazar Knish,Назар Книш,Ukraine,2000-12-07,74.3,42.5,50,55,,55,75,Pro Teen 16-17,M,B,Raw,No,55,2000
1,Bogdan Mariy,Богдан Марій,Ukraine,1992-06-27,79.7,55,60,65,67.5,65,82.5,Pro Open,M,B,Raw,No,65,1992
2,Stepan Sukharskiy,Степан Сухарський,Ukraine,1982-07-13,86.3,50,57.5,62.5,,62.5,90,Pro Open,M,B,Raw,No,62.5,1982
3,Yaroslav Oleksin,Ярослав Олексин,Ukraine,1986-09-11,89.7,62.5,-69,-69,,62.5,90,Pro Open,M,B,Raw,No,62.5,1986
1,Igor Melnik,Ігор Мельник,Ukraine,1982-10-17,95,65,67.5,73,,73,100,Pro Open,M,B,Raw,No,73,1982
2,Stepan Kalabanko,Степан Калабанько,Ukraine,1985-08-20,95.6,50,57.5,65,,65,100,Pro Open,M,B,Raw,No,65,1985
1,Svyatoslav Boychuk,Святослав Бойчук,Ukraine,1992-01-15,107.2,60,65,70,,70,110,Pro Open,M,B,Raw,No,70,1992
1,Sergiy Avramenko,Сергій Авраменко,Ukraine,1971-08-16,110.9,42.5,45,-50,,45,125,Pro Open,M,B,Raw,No,45,1971
1,Stepan Sukharskiy,Степан Сухарський,Ukraine,1982-07-13,86.3,50,57.5,62.5,,62.5,90,Pro Submasters 33-39,M,B,Raw,No,62.5,1982
1,Stepan Kalabanko,Степан Калабанько,Ukraine,1985-08-20,95.6,50,57.5,65,,65,100,Pro Submasters 33-39,M,B,Raw,No,65,1985
1,Sergiy Avramenko,Сергій Авраменко,Ukraine,1971-08-16,110.9,42.5,45,-50,,45,125,Pro Masters 45-49,M,B,Raw,No,45,1971
1,Armine Sargsyan,Арміне Саргсян,Ukraine,1981-02-20,58.4,30,33,-36,,33,60,Pro Open,F,B,Raw,No,33,1981
