Place,Name,CyrillicName,Sex,BodyweightKg,Squat1Kg,Squat2Kg,Squat3Kg,Best3SquatKg,Squat4Kg,Bench1Kg,Bench2Kg,Bench3Kg,Best3BenchKg,Bench4Kg,Deadlift1Kg,Deadlift2Kg,Deadlift3Kg,Best3DeadliftKg,Deadlift4Kg,TotalKg,WeightClassKg,Event,Equipment,Tested,Division,Age,BirthDate
1,Milada Petrova,Милада Петрова,F,47.6,-60,70,-75,70,,30,35,-37.5,35,,72.5,80,-90,80,,185,48,SBD,Wraps,Yes,Amateur Open,33,1986-04-29
1,Roza Yusupova,Роза Юсупова,F,54.8,-75,75,80,80,,47.5,52.5,-57.5,52.5,,95,102.5,-110,102.5,,235,56,SBD,Wraps,Yes,Amateur Open,38,1981-04-01
1,Ekaterina Nikonova,Екатерина Никонова,F,59.8,95,100,102.5,102.5,,77.5,80,82.5,82.5,,145,150,160,160,,345,60,SBD,Wraps,Yes,Amateur Open,34,1984-09-15
1,Lada Smirnova,Лада Смирнова,F,62.5,90,-95,95,95,,55,57.5,60,60,,115,-120,120,120,,275,67.5,SBD,Wraps,Yes,Amateur Teen 14-16,14,2004-11-23
1,Elizaveta Voloshchuk,Елизавета Волощук,F,63.4,-112.5,-112.5,112.5,112.5,,60,-62.5,-62.5,60,,115,120,125,125,,297.5,67.5,SBD,Wraps,Yes,Amateur Juniors 20-23,23,1995-07-30
1,Viktoriya Voskoboynikova,Виктория Воскобойникова,F,63.5,120,125,130,130,,75,80,-85,80,,135,140,145,145,,355,67.5,SBD,Wraps,Yes,Amateur Open,36,1982-06-23
2,Darya Strelova,Дарья Стрелова,F,66.7,95,-102.5,102.5,102.5,,55,-57.5,-57.5,55,,-112.5,-112.5,112.5,112.5,,270,67.5,SBD,Wraps,Yes,Amateur Open,38,1980-06-18
DQ,Evgeniya Malysheva,Евгения Малышева,F,67.5,-125,-125,-125,,,,,,,,,,,,,,67.5,SBD,Wraps,Yes,Amateur Open,35,1984-04-09
1,Maksim Bashtarov,Максим Баштаров,M,64.4,130,140,-145,140,,92.5,97.5,102.5,102.5,,140,150,160,160,,402.5,67.5,SBD,Wraps,Yes,Amateur Teen 14-16,16,2002-06-25
DQ,Maksim Rudakov,Максим Рудаков,M,74.4,-100,-100,-105,,,,,,,,,,,,,,75,SBD,Wraps,Yes,Amateur Teen 14-16,15,2003-05-29
1,Evgeniy Shirokov,Евгений Широков,M,74.6,180,190,-195,190,,90,95,100,100,,195,200,205,205,,495,75,SBD,Wraps,Yes,Amateur Open,30,1988-12-03
2,Ivan Yarilin,Иван Ярилин,M,74,160,-165,165,165,,125,130,-132.5,130,,185,-195,195,195,,490,75,SBD,Wraps,Yes,Amateur Open,25,1993-12-07
3,Daniil Mikheev,Даниил Михеев,M,73.9,110,120,-130,120,,-90,95,-105,95,,-110,120,130,130,,345,75,SBD,Wraps,Yes,Amateur Open,36,1982-12-08
1,Daniil Yulikov,Даниил Юликов,M,80.4,95,100,105,105,,60,65,-70,65,,115,120,130,130,,300,82.5,SBD,Wraps,Yes,Amateur Teen 14-16,16,2003-04-18
1,Evgeniy Belyaev,Евгений Беляев,M,80.8,185,195,202.5,202.5,,102.5,110,-115,110,,195,207.5,215,215,,527.5,82.5,SBD,Wraps,Yes,Amateur Juniors 20-23,20,1998-06-20
1,Aleksandr Kryzhanovskiy,Александр Крыжановский,M,80.2,-190,190,200,200,,-140,140,-145,140,,200,210,-220,210,,550,82.5,SBD,Wraps,Yes,Amateur Open,27,1991-12-04
2,Kirill Kobzev,Кирилл Кобзев,M,80.7,170,185,-195,185,,110,117.5,-122.5,117.5,,200,217.5,225,225,,527.5,82.5,SBD,Wraps,Yes,Amateur Open,28,1990-06-02
3,Roman Asanov,Роман Асанов,M,82.2,160,-177.5,177.5,177.5,,-115,120,-125,120,,200,205,-220,205,,502.5,82.5,SBD,Wraps,Yes,Amateur Open,27,1992-02-16
1,Egor Ogorodnikov,Егор Огородников,M,88.6,-180,180,190,190,,120,-125,-125,120,,200,210,-215,210,,520,90,SBD,Wraps,Yes,Amateur Sub-Juniors 17-19,19,1999-08-06
1,Igor Shvachko,Игорь Швачко,M,89,205,210,215,215,,167.5,-170,170,170,,222.5,230,240,240,,625,90,SBD,Wraps,Yes,Amateur Open,25,1993-08-17
2,Otchugash Dorzhukay,Отчугаш Доржукай,M,90,165,-175,175,175,,132.5,140,-142.5,140,,195,-200,-200,195,,510,90,SBD,Wraps,Yes,Amateur Open,33,1985-05-22
1,Ilya Serdyuk,Илья Сердюк,M,97.7,200,210,220,220,,150,160,-162.5,160,,210,235,-260,235,,615,100,SBD,Wraps,Yes,Amateur Juniors 20-23,23,1995-11-20
1,Sergey Evdokimov,Сергей Евдокимов,M,97.6,-205,-210,215,215,,-155,155,-160,155,,230,240,250,250,,620,100,SBD,Wraps,Yes,Amateur Open,34,1985-03-05
DQ,Aleksandr Popov #5,Александр Попов,M,95.6,-160,-160,-160,,,,,,,,,,,,,,100,SBD,Wraps,Yes,Amateur Open,28,1990-09-21
1,Anton Shurov,Антон Шуров,M,130,260,270,280,280,,157.5,165,170,170,,265,275,280,280,-285,730,140,SBD,Wraps,Yes,Amateur Sub-Juniors 17-19,18,2000-06-01
1,Aleksey Kozishnikov,Алексей Козишников,M,133.5,260,-275,-275,260,,180,-185,-185,180,,270,280,287.5,287.5,,727.5,140,SBD,Wraps,Yes,Amateur Masters 40-49,46,1973-01-16
1,Natalya Sorokina,Наталья Сорокина,F,52.5,40,47.5,52.5,52.5,,27.5,30,-32.5,30,,70,75,77.5,77.5,,160,56,SBD,Wraps,No,Pro Teen 14-16,16,2003-01-09
1,Elina Fakhretdinova,Элина Фахретдинова,F,55.5,90,95,102.5,102.5,,62.5,67.5,-72.5,67.5,,130,135,140,140,,310,56,SBD,Wraps,No,Pro Juniors 20-23,22,1997-02-06
1,Evgeniya Afanaseva,Евгения Афанасьева,F,65,60,65,70,70,,42.5,47.5,-52.5,47.5,,75,80,85,85,,202.5,67.5,SBD,Wraps,No,Pro Masters 40-49,43,1976-04-11
1,Vitaliy Burov,Виталий Буров,M,79.4,210,220,230,230,,140,150,155,155,,250,265,280,280,,665,82.5,SBD,Wraps,No,Pro Open,32,1986-05-22
1,Sergey Maksimov,Сергей Максимов,M,89.5,257.5,267.5,277.5,277.5,,172.5,182.5,190,190,,290,305,315,315,327.5,782.5,90,SBD,Wraps,No,Pro Open,29,1989-07-26
2,Vitaliy Blazhchuk,Виталий Блажчук,M,89.1,235,245,260,260,,152.5,162.5,-170,162.5,,240,260,277.5,277.5,,700,90,SBD,Wraps,No,Pro Open,26,1993-01-15
1,Sergey Popov,Сергей Попов,M,99.7,235,250,270,270,,200,-210,-210,200,,250,260,270,270,,740,100,SBD,Wraps,No,Pro Juniors 20-23,23,1995-08-15
2,Vladimir Ryzhenkov,Владимир Рыженков,M,97.6,250,260,270,270,,150,155,160,160,,260,270,280,280,,710,100,SBD,Wraps,No,Pro Juniors 20-23,23,1996-05-12
1,Murat Butaev,Мурат Бутаев,M,99.8,265,-275,275,275,,175,-185,200,200,,260,275,-285,275,,750,100,SBD,Wraps,No,Pro Open,27,1992-01-19
2,Andrey Pavlov #10,Андрей Павлов,M,99.9,240,-260,260,260,,130,140,145,145,,230,250,270,270,,675,100,SBD,Wraps,No,Pro Open,39,1980-04-12
3,Zhavokhir Askaraliev,Жавохир Аскаралиев,M,92.5,-210,210,220,220,,165,-175,-180,165,,260,-275,-275,260,,645,100,SBD,Wraps,No,Pro Open,25,1993-12-29
1,Ivan Pezikov,Иван Пезиков,M,107,285,295,305,305,,175,-182.5,182.5,182.5,,300,310,-317.5,310,,797.5,110,SBD,Wraps,No,Pro Open,25,1994-04-24
2,Sergey Chernomyrdin,Сергей Черномырдин,M,108.3,230,250,260,260,,170,180,-187.5,180,,260,-275,275,275,,715,110,SBD,Wraps,No,Pro Open,39,1980-03-29
1,Ilya Boldin,Илья Болдин,M,122.7,-270,270,-300,270,,180,-195,,180,,310,-335,-335,310,,760,125,SBD,Wraps,No,Pro Open,27,1991-10-31
1,Anastasiya Dzhulay,Анастасия Джулай,F,57.7,100,105,110,110,,52.5,55,60,60,,110,120,125,125,,295,60,SBD,Wraps,Yes,Amateur Open,34,1985-03-25
1,Svetlana Kruchinina,Светлана Кручинина,F,60.9,-80,80,90,90,,35,40,-45,40,,80,90,100,100,,230,67.5,SBD,Wraps,Yes,Amateur Open,34,1984-12-06
1,Anna Osipova,Анна Осипова,F,69.3,-70,70,-90,70,,-40,45,50,50,,80,90,100,100,,220,75,SBD,Wraps,Yes,Amateur Teen 14-16,16,2002-06-20
1,Vladislav Sychev,Владислав Сычев,M,74.8,180,-190,-190,180,,110,-117.5,-117.5,110,,180,-195,-195,180,,470,75,SBD,Wraps,Yes,Amateur Sub-Juniors 17-19,19,2000-05-09
1,Ivan Sychev,Иван Сычев,M,72.1,170,-180,-190,170,,110,-115,-115,110,,-190,-190,190,190,,470,75,SBD,Wraps,Yes,Amateur Juniors 20-23,23,1995-06-20
1,Mikhail Kolomytsev,Михаил Коломыцев,M,74.3,200,215,-225,215,,120,127.5,-132.5,127.5,,190,200,-207.5,200,,542.5,75,SBD,Wraps,Yes,Amateur Open,29,1989-06-21
1,Vladimir Vologuzov,Владимир Вологузов,M,78.8,145,160,-167.5,160,,85,90,-95,90,,160,170,175,175,,425,82.5,SBD,Wraps,Yes,Amateur Sub-Juniors 17-19,18,2000-10-23
1,Andrey Roshchupkin,Андрей Рощупкин,M,90,220,230,-237.5,230,,150,155,-157.5,155,,200,207.5,210,210,,595,90,SBD,Wraps,Yes,Amateur Open,24,1994-07-17
2,Roman Seryogin,Роман Серёгин,M,88.7,200,-210,210,210,,140,-145,-145,140,,205,215,220,220,,570,90,SBD,Wraps,Yes,Amateur Open,29,1989-12-10
1,Pavel Sheptitskiy,Павел Шептицкий,M,94.9,230,240,250,250,,145,150,157.5,157.5,,260,275,-300,275,,682.5,100,SBD,Wraps,Yes,Amateur Open,25,1994-03-13
2,Denis Kornev,Денис Корнев,M,95.2,215,-230,-232.5,215,,140,150,157.5,157.5,,225,-237.5,-237.5,225,,597.5,100,SBD,Wraps,Yes,Amateur Open,29,1989-06-07
1,Vadim Abramov,Вадим Абрамов,M,109,215,220,230,230,,142.5,147.5,150,150,,240,-250,250,250,,630,110,SBD,Wraps,Yes,Amateur Open,26,1992-06-17
DQ,Roman Maksimov,Роман Максимов,M,106.9,-225,-225,-225,,,,,,,,,,,,,,110,SBD,Wraps,Yes,Amateur Open,49,1969-06-08
DQ,Roman Maksimov,Роман Максимов,M,106.9,-225,-225,-225,,,,,,,,,,,,,,110,SBD,Wraps,Yes,Amateur Masters 40-49,49,1969-06-08
1,Aleksandr Gorbanev,Александр Горбанев,M,130.5,187.5,197.5,205,205,,150,-155,155,155,,190,200,210,210,,570,140,SBD,Wraps,Yes,Amateur Open,35,1983-08-12
1,Mariia Panferova,Мария Панферова,F,73.5,225,237.5,245,245,,130,137.5,142.5,142.5,,192.5,205,215,215,,602.5,75,SBD,Wraps,No,Pro Masters 40-49,42,1977-04-27
1,Evgeniy Remizevich,Евгений Ремизевич,M,74.4,-130,140,150,150,,100,-105,-110,100,,165,175,-182.5,175,,425,75,SBD,Wraps,No,Pro Open,27,1992-03-03
DQ,Grigoriy Ponomarenko,Григорий Пономаренко,M,81.5,175,185,-195,185,,115,120,-122.5,120,,-210,-225,-225,,,,82.5,SBD,Wraps,No,Pro Open,26,1993-01-18
DQ,Mikhail Vasin,Михаил Васин,M,87.6,235,240,-245,240,,-145,-145,-145,,,,,,,,,90,SBD,Wraps,No,Pro Open,24,1994-10-16
1,Eduard Dolgov,Едуард Долгов,M,97.6,-330,-330,330,330,,200,215,225,225,,340,350,360,360,,915,100,SBD,Wraps,No,Pro Open,31,1987-09-27
2,Ramil Ahmadov,,M,97.8,290,-315,315,315,,190,202.5,210,210,,300,-315,315,315,,840,100,SBD,Wraps,No,Pro Open,31,1988-05-06
3,Igor Chernyavskiy,Игорь Чернявский,M,98.1,-190,190,210,210,,150,160,-170,160,,190,-200,,190,,560,100,SBD,Wraps,No,Pro Open,34,1984-08-05
DQ,Ulugbek Ziyodullaev,,M,99,-240,-240,-240,,,,,,,,,,,,,,100,SBD,Wraps,No,Pro Open,24,1994-09-02
DQ,Aleksey Trofimov,Алексей Трофимов,M,99.3,-250,-270,-270,,,,,,,,,,,,,,100,SBD,Wraps,No,Pro Open,38,1981-02-21
1,Anton Dyachkov,Антон Дьячков,M,108.7,260,280,-300,280,,180,190,-200,190,,250,260,265,265,,735,110,SBD,Wraps,No,Pro Open,41,1977-12-21
2,Sergey Varfolomeev,Сергей Варфоломеев,M,102.2,-210,215,-225,215,,152.5,157.5,160,160,,-220,220,-230,220,,595,110,SBD,Wraps,No,Pro Open,38,1981-02-17
1,Anton Dyachkov,Антон Дьячков,M,108.7,260,280,-300,280,,180,190,-200,190,,250,260,265,265,,735,110,SBD,Wraps,No,Pro Masters 40-49,41,1977-12-21
1,Danila Furtsev,Данила Фурцев,M,120,250,270,-282.5,270,,155,170,-180,170,,240,260,272.5,272.5,,712.5,125,SBD,Wraps,No,Pro Juniors 20-23,23,1995-07-21
1,Ivan Grigorev,Иван Григорьев,M,114.3,230,242.5,255,255,,135,145,150,150,,230,240,-250,240,,645,125,SBD,Wraps,No,Pro Open,26,1993-04-22
1,Maksim Surovov,Максим Суровов,M,135.3,260,-275,275,275,,170,-180,-185,170,,255,265,275,275,,720,140,SBD,Wraps,No,Pro Juniors 20-23,23,1996-02-02
1,Ivan Rodionov,Иван Родионов,M,82.5,230,-250,255,255,,155,165,170,170,,220,240,252.5,252.5,,677.5,82.5,SBD,Single-ply,No,Pro Open,28,1991-04-18
1,Vladimir Akhtyrskiy,Владимир Ахтырский,M,98.1,-295,-295,295,295,,195,205,-212.5,205,,250,265,280,280,,780,100,SBD,Single-ply,No,Pro Open,26,1993-01-06
1,Mariya Bandur,Мария Бандур,F,50.5,,,,,,45,50,52.5,52.5,,,,,,,52.5,52,B,Raw,Yes,Amateur Open,25,1994-02-09
1,Yuliya Supronenko,Юлия Супроненко,F,54.8,,,,,,50,-55,-55,50,,,,,,,50,56,B,Raw,Yes,Amateur Juniors 20-23,20,1998-06-08
1,Tatyana Sobakina,Татьяна Собакина,F,55.5,,,,,,62.5,-67.5,-67.5,62.5,,,,,,,62.5,56,B,Raw,Yes,Amateur Open,35,1983-11-23
2,Roza Yusupova,Роза Юсупова,F,54.8,,,,,,47.5,52.5,-57.5,52.5,,,,,,,52.5,56,B,Raw,Yes,Amateur Open,38,1981-04-01
3,Vera Yashchuk,Вера Ящук,F,55.5,,,,,,52.5,-55,-55,52.5,,,,,,,52.5,56,B,Raw,Yes,Amateur Open,38,1980-05-20
DQ,Lyubov Telegina,Любовь Телегина,F,55.7,,,,,,-62.5,-62.5,-62.5,,,,,,,,,56,B,Raw,Yes,Amateur Open,33,1985-08-05
1,Ekaterina Samashova,Екатерина Самашова,F,58.1,,,,,,50,52.5,-57.5,52.5,,,,,,,52.5,60,B,Raw,Yes,Amateur Sub-Juniors 17-19,18,2000-09-10
1,Ekaterina Pomiluyko,Екатерина Помилуйко,F,58.2,,,,,,50,60,-62.5,60,,,,,,,60,60,B,Raw,Yes,Amateur Juniors 20-23,21,1997-05-27
1,Anna Kuznetsova,Анна Кузнецова,F,59.8,,,,,,60,-67.5,-67.5,60,,,,,,,60,60,B,Raw,Yes,Amateur Open,31,1987-10-21
1,Natalya Zhumaniyazova,Наталья Жуманиязова,F,58.1,,,,,,50,52.5,-55,52.5,,,,,,,52.5,60,B,Raw,Yes,Amateur Masters 40-49,45,1974-03-19
1,Viktoriya Voskoboynikova,Виктория Воскобойникова,F,63.5,,,,,,75,80,-85,80,,,,,,,80,67.5,B,Raw,Yes,Amateur Open,36,1982-06-23
2,Elena Yatsenyuk,Елена Яценюк,F,66.6,,,,,,40,42.5,45,45,,,,,,,45,67.5,B,Raw,Yes,Amateur Open,32,1986-08-03
1,Ekaterina Chesnakova,Екатерина Чеснакова,F,65.9,,,,,,62.5,-65,-65,62.5,,,,,,,62.5,67.5,B,Raw,Yes,Amateur Masters 40-49,40,1978-07-28
1,Irina Statsenko,Ирина Стаценко,F,80.9,,,,,,70,-75,-75,70,,,,,,,70,82.5,B,Raw,Yes,Amateur Open,27,1992-05-08
1,Artyom Kirichenko,Артём Кириченко,M,66.6,,,,,,115,125,-127.5,125,,,,,,,125,67.5,B,Raw,Yes,Amateur Teen 14-16,15,2004-01-06
2,Danila Korneev,Данила Корнеев,M,66.5,,,,,,70,75,80,80,,,,,,,80,67.5,B,Raw,Yes,Amateur Teen 14-16,14,2005-04-02
1,Andrey Zhilin,Андрей Жилин,M,67.2,,,,,,120,125,-127.5,125,,,,,,,125,67.5,B,Raw,Yes,Amateur Open,39,1980-04-05
1,Evgeniy Drobchenko,Евгений Дробченко,M,74.2,,,,,,140,147.5,-150,147.5,,,,,,,147.5,75,B,Raw,Yes,Amateur Open,37,1981-10-05
2,Pavel Novikov,Павел Новиков,M,74.1,,,,,,135,137.5,-142.5,137.5,,,,,,,137.5,75,B,Raw,Yes,Amateur Open,25,1993-10-16
3,Stanislav Mazurenko,Станислав Мазуренко,M,74,,,,,,110,117.5,122.5,122.5,,,,,,,122.5,75,B,Raw,Yes,Amateur Open,31,1987-06-20
4,Maksim Saybatalov,Максим Сайбаталов,M,74.5,,,,,,-120,120,-135,120,,,,,,,120,75,B,Raw,Yes,Amateur Open,27,1992-02-01
5,Artemiy Sinitsyn,Артемий Синицын,M,72.4,,,,,,117.5,-120,-120,117.5,,,,,,,117.5,75,B,Raw,Yes,Amateur Open,24,1994-07-19
6,Vladimir Kulikov,Владимир Куликов,M,73.4,,,,,,105,110,-117.5,110,,,,,,,110,75,B,Raw,Yes,Amateur Open,38,1980-11-18
7,Kirill Egorov,Кирилл Егоров,M,74.1,,,,,,-110,110,-117.5,110,,,,,,,110,75,B,Raw,Yes,Amateur Open,27,1991-12-09
8,Boris Likhachev,Борис Лихачев,M,74.5,,,,,,-95,100,105,105,,,,,,,105,75,B,Raw,Yes,Amateur Open,31,1987-12-19
DQ,Grigoriy Nosov,Григорий Носов,M,73.2,,,,,,-125,-125,-125,,,,,,,,,75,B,Raw,Yes,Amateur Open,33,1985-08-11
DQ,Dmitriy Sizonov,Дмитрий Сизонов,M,73.3,,,,,,-112.5,-112.5,-117.5,,,,,,,,,75,B,Raw,Yes,Amateur Open,24,1994-09-17
1,Evgeniy Taran,Евгений Таран,M,82,,,,,,145,150,-157.5,150,,,,,,,150,82.5,B,Raw,Yes,Amateur Open,32,1986-06-13
2,Andrey Sokol,Андрей Сокол,M,81.1,,,,,,135,140,-147.5,140,,,,,,,140,82.5,B,Raw,Yes,Amateur Open,31,1987-05-22
3,Sergey Shmigovskiy,Сергей Шмиговский,M,81.9,,,,,,112.5,120,127.5,127.5,,,,,,,127.5,82.5,B,Raw,Yes,Amateur Open,31,1988-05-06
4,Igor Sizonov,Игорь Сизонов,M,79.3,,,,,,120,-127.5,-127.5,120,,,,,,,120,82.5,B,Raw,Yes,Amateur Open,27,1991-09-12
1,Egor Molostovkin,Егор Молостовкин,M,81,,,,,,-105,105,110,110,,,,,,,110,82.5,B,Raw,Yes,Amateur Juniors 20-23,20,1998-09-29
1,Sergey Zhukov,Сергей Жуков,M,89.5,,,,,,120,127.5,132.5,132.5,,,,,,,132.5,90,B,Raw,Yes,Amateur Sub-Juniors 17-19,18,2001-02-14
2,Ivan Zverev,Иван Зверев,M,87.9,,,,,,115,122.5,-132.5,122.5,,,,,,,122.5,90,B,Raw,Yes,Amateur Sub-Juniors 17-19,18,2000-06-29
1,Dmitriy Uvarov,Дмитрий Уваров,M,87.3,,,,,,100,110,-120,110,,,,,,,110,90,B,Raw,Yes,Amateur Juniors 20-23,21,1997-11-12
DQ,Aleksey Khramtsov,Алексей Храмцов,M,87.8,,,,,,-130,-142.5,-152.5,,,,,,,,,90,B,Raw,Yes,Amateur Juniors 20-23,20,1998-09-22
1,Dmitriy Vasilev,Дмитрий Васильев,M,87.3,,,,,,170,-175,175,175,,,,,,,175,90,B,Raw,Yes,Amateur Open,35,1984-02-21
2,Dmitriy Shvakov,Дмитрий Шваков,M,88.7,,,,,,162.5,170,-172.5,170,,,,,,,170,90,B,Raw,Yes,Amateur Open,35,1984-01-01
3,Evgeniy Zharov,Евгений Жаров,M,87.2,,,,,,157.5,165,-170,165,,,,,,,165,90,B,Raw,Yes,Amateur Open,32,1986-11-07
4,Vadim Grishkov,Вадим Гришков,M,88.9,,,,,,140,152.5,-155,152.5,,,,,,,152.5,90,B,Raw,Yes,Amateur Open,31,1988-03-18
5,Tigran Sukiasyan,Тигран Сукиасян,M,88.4,,,,,,150,-155,-155,150,,,,,,,150,90,B,Raw,Yes,Amateur Open,31,1987-12-22
6,Vladimir Abramenko,Владимир Абраменко,M,87.8,,,,,,-145,145,-152.5,145,,,,,,,145,90,B,Raw,Yes,Amateur Open,37,1982-05-16
7,Mikhail Rozhkov,Михаил Рожков,M,88.1,,,,,,-135,135,145,145,,,,,,,145,90,B,Raw,Yes,Amateur Open,29,1989-10-08
8,Artem Chelakhov,Артем Челахов,M,89.2,,,,,,-140,140,-145,140,,,,,,,140,90,B,Raw,Yes,Amateur Open,35,1983-06-21
DQ,Egor Sazonov,Егор Сазонов,M,89.3,,,,,,-145,-145,-145,,,,,,,,,90,B,Raw,Yes,Amateur Open,26,1992-11-23
1,Oskar Latypov,Оскар Латыпов,M,89.8,,,,,,147.5,-150,-150,147.5,,,,,,,147.5,90,B,Raw,Yes,Amateur Masters 40-49,40,1978-07-24
1,Aleksey Kosyanov,Алексей Косьянов,M,98.9,,,,,,155,162.5,165,165,,,,,,,165,100,B,Raw,Yes,Amateur Juniors 20-23,21,1998-02-10
2,Aleksandr Fadichev,Александр Фадичев,M,99,,,,,,150,-162.5,162.5,162.5,,,,,,,162.5,100,B,Raw,Yes,Amateur Juniors 20-23,21,1997-06-13
3,Sergey Voronin,Сергей Воронин,M,98,,,,,,142.5,-147.5,-147.5,142.5,,,,,,,142.5,100,B,Raw,Yes,Amateur Juniors 20-23,22,1996-10-11
1,Artem Babenok,Артем Бабенок,M,96.2,,,,,,160,167.5,172.5,172.5,,,,,,,172.5,100,B,Raw,Yes,Amateur Open,35,1984-05-09
2,Ilya Ilyushin,Илья Ильюшин,M,97.9,,,,,,152.5,162.5,165,165,,,,,,,165,100,B,Raw,Yes,Amateur Open,35,1983-08-04
3,Kirill Emelyanov,Кирилл Емельянов,M,97.7,,,,,,155,-162.5,-165,155,,,,,,,155,100,B,Raw,Yes,Amateur Open,32,1986-06-02
4,Eduard Fokin,Эдуард Фокин,M,99.4,,,,,,-150,150,-162.5,150,,,,,,,150,100,B,Raw,Yes,Amateur Open,29,1990-05-14
1,Sergey Bryzhko,Сергей Брыжко,M,95.3,,,,,,105,112.5,-125,112.5,,,,,,,112.5,100,B,Raw,Yes,Amateur Masters 40-49,45,1974-02-27
1,Artyom Khramchenko,Артём Храмченко,M,105.2,,,,,,162.5,167.5,170,170,,,,,,,170,110,B,Raw,Yes,Amateur Juniors 20-23,21,1998-04-22
1,Vadim Bocharnikov,Вадим Бочарников,M,106.5,,,,,,200,-210,,200,,,,,,,200,110,B,Raw,Yes,Amateur Open,32,1986-11-25
2,Aleksey Anoshkin,Алексей Аношкин,M,109,,,,,,167.5,-170,172.5,172.5,,,,,,,172.5,110,B,Raw,Yes,Amateur Open,32,1987-01-13
3,Sergey Sidorin,Сергей Сидорин,M,108.3,,,,,,-167.5,167.5,-172.5,167.5,,,,,,,167.5,110,B,Raw,Yes,Amateur Open,29,1990-01-14
4,Andrey Lutsenko,Андрей Луценко,M,105.3,,,,,,135,147.5,-150,147.5,,,,,,,147.5,110,B,Raw,Yes,Amateur Open,27,1991-12-20
DQ,Vasiliy Gimbitskiy,Василий Гимбицкий,M,107.6,,,,,,-147.5,-147.5,-147.5,,,,,,,,,110,B,Raw,Yes,Amateur Open,28,1990-10-11
1,Daniil Kildyushkin,Даниил Кильдюшкин,M,121,,,,,,172.5,177.5,180,180,,,,,,,180,125,B,Raw,Yes,Amateur Juniors 20-23,22,1997-04-01
1,Andris Kibilds,Андрис Кибилдс,M,118,,,,,,190,200,-210,200,,,,,,,200,125,B,Raw,Yes,Amateur Open,35,1983-11-01
2,Igor Bogomolov,Ігор Богомолов,M,121.6,,,,,,170,-177.5,177.5,177.5,,,,,,,177.5,125,B,Raw,Yes,Amateur Open,30,1988-06-09
1,Nikita Antipov,Никита Антипов,M,133.7,,,,,,170,180,185,185,,,,,,,185,140,B,Raw,Yes,Amateur Juniors 20-23,23,1996-01-29
1,Shuana Musaeva,Шуана Мусаева,F,59.7,,,,,,40,42.5,-45,42.5,,,,,,,42.5,60,B,Raw,No,Youth,11,2007-05-22
1,Olga Gracheva,Ольга Грачева,F,74.9,,,,,,95,100,102.5,102.5,,,,,,,102.5,75,B,Raw,No,Pro Open,40,1978-09-19
1,Dmitriy Tkachev,Дмитрий Ткачев,M,71.5,,,,,,-95,95,-100,95,,,,,,,95,75,B,Raw,No,Pro Sub-Juniors 17-19,17,2001-06-11
1,Maksim Bogdanov,Максим Богданов,M,74.7,,,,,,185,195,200,200,,,,,,,200,75,B,Raw,No,Pro Open,26,1992-10-12
2,Andrey Skoryatin,Андрей Скорятин,M,74.9,,,,,,152.5,155,,155,,,,,,,155,75,B,Raw,No,Pro Open,26,1992-10-16
1,Viktor Tkachev,Виктор Ткачев,M,67.8,,,,,,60,65,70,70,,,,,,,70,75,B,Raw,No,Pro Masters 70-79,74,1944-11-15
DQ,Robert Khachatryan,Роберт Хачатрян,M,78.4,,,,,,-155,-165,-165,,,,,,,,,82.5,B,Raw,No,Pro Sub-Juniors 17-19,19,2000-02-02
1,Vladislav Ilyaskin,Владислав Иляскин,M,77.7,,,,,,110,-122.5,-122.5,110,,,,,,,110,82.5,B,Raw,No,Pro Juniors 20-23,23,1996-01-31
1,Aleksey Syuta,Алексей Сюта,M,77.5,,,,,,165,170,-175,170,,,,,,,170,82.5,B,Raw,No,Pro Open,39,1979-12-12
1,Dmitriy Mukhin,Дмитрий Мухин,M,80.7,,,,,,60,65,,65,,,,,,,65,82.5,B,Raw,No,Pro Masters 60-69,68,1950-10-26
1,Andrey Sapozhonkov,Андрей Сапожонков,M,89.4,,,,,,262.5,-273,,262.5,,,,,,,262.5,90,B,Raw,No,Pro Open,32,1987-01-01
2,Aleksey Blintsov,Алексей Блинцов,M,88.7,,,,,,195,-202.5,202.5,202.5,,,,,,,202.5,90,B,Raw,No,Pro Open,39,1980-03-13
3,Vladimir Aliev,Владимир Алиев,M,89.8,,,,,,197.5,202.5,,202.5,,,,,,,202.5,90,B,Raw,No,Pro Open,27,1992-01-26
4,Andrey Podlipaev,Андрей Подлипаев,M,88.3,,,,,,165,175,-180,175,,,,,,,175,90,B,Raw,No,Pro Open,27,1992-04-02
5,Aleksandr Goltsov,Александр Гольцов,M,85.8,,,,,,145,147.5,-152.5,147.5,,,,,,,147.5,90,B,Raw,No,Pro Open,32,1987-01-02
6,Anton Morkin,Антон Моркин,M,85,,,,,,115,120,122.5,122.5,,,,,,,122.5,90,B,Raw,No,Pro Open,39,1979-10-30
DQ,Nikita Ubozhenko,Никита Убоженко,M,87.7,,,,,,-165,-165,-175,,,,,,,,,90,B,Raw,No,Pro Open,28,1990-09-28
1,Ararat Karapetyan,Арарат Карапетян,M,88.2,,,,,,160,-165,-165,160,,,,,,,160,90,B,Raw,No,Pro Masters 40-49,40,1979-05-05
1,Sergey Popov,Сергей Попов,M,99.7,,,,,,200,-210,-210,200,,,,,,,200,100,B,Raw,No,Pro Juniors 20-23,23,1995-08-15
1,Sergey Popov,Сергей Попов,M,99.7,,,,,,200,-210,-210,200,,,,,,,200,100,B,Raw,No,Pro Open,23,1995-08-15
2,Artem Satin,Артем Сатин,M,98.7,,,,,,-190,195,-205,195,,,,,,,195,100,B,Raw,No,Pro Open,29,1990-03-10
3,Dmitriy Korolev,Дмитрий Королев,M,98.6,,,,,,185,-190,190,190,,,,,,,190,100,B,Raw,No,Pro Open,26,1993-03-25
4,Aleksandr Timokhin,Александр Тимохин,M,98.8,,,,,,-180,-180,180,180,,,,,,,180,100,B,Raw,No,Pro Open,33,1985-07-09
5,Dmitriy Duskryadchenko,Дмитрий Дускрядченко,M,99,,,,,,-175,175,-185,175,,,,,,,175,100,B,Raw,No,Pro Open,27,1991-12-01
1,Arseniy Strebkov,Арсений Стребков,M,108.4,,,,,,150,160,165,165,,,,,,,165,110,B,Raw,No,Pro Sub-Juniors 17-19,18,2000-06-05
1,Gleb Pavlov,Глеб Павлов,M,109,,,,,,167.5,172.5,177.5,177.5,,,,,,,177.5,110,B,Raw,No,Pro Juniors 20-23,21,1997-10-15
1,Aleksandr Pozdnyakov,Александр Поздняков,M,109.6,,,,,,180,-192.5,-192.5,180,,,,,,,180,110,B,Raw,No,Pro Open,30,1988-09-29
1,Sergey Kolganov,Сергей Колганов,M,107.6,,,,,,205,212.5,-217.5,212.5,,,,,,,212.5,110,B,Raw,No,Pro Masters 40-49,40,1978-07-20
2,Sergey Romanov,Сергей Романов,M,106.3,,,,,,192.5,197.5,-200,197.5,,,,,,,197.5,110,B,Raw,No,Pro Masters 40-49,41,1977-07-20
1,Maksim Pospelov,Максим Поспелов,M,115.8,,,,,,75,85,90,90,,,,,,,90,125,B,Raw,No,Pro Sub-Juniors 17-19,17,2001-12-05
1,Aleksey Solovyev #1,Алексей Соловьев,M,112,,,,,,255,265,270,270,,,,,,,270,125,B,Raw,No,Pro Open,28,1990-07-01
1,Oleg Shlepin,Олег Шлепин,M,118.1,,,,,,180,190,195,195,,,,,,,195,125,B,Raw,No,Pro Masters 40-49,43,1975-07-08
2,Nikolay Zakhryamin,Николай Захрямин,M,112.7,,,,,,160,-167.5,167.5,167.5,,,,,,,167.5,125,B,Raw,No,Pro Masters 40-49,42,1976-12-09
1,Dmitriy Chirva,Дмитрий Чирва,M,118.6,,,,,,70,75,80,80,,,,,,,80,125,B,Raw,No,Pro Masters 60-69,66,1952-12-02
1,Ilya Fomin,Илья Фомин,M,132.9,,,,,,190,195,200,200,,,,,,,200,140,B,Raw,No,Pro Open,24,1994-08-04
1,Pavel Klimov,Павел Климов,M,142.2,,,,,,270,280,287.5,287.5,-292.5,,,,,,287.5,140+,B,Raw,No,Pro Open,28,1991-03-27
DQ,Elena Lymareva,Елена Лымарева,F,58.35,,,,,,-82.5,-82.5,-82.5,,,,,,,,,60,B,Multi-ply,Yes,Amateur Masters 50-59,53,1966-04-20
1,Kirill Makushkin,Кирилл Макушкин,M,98.4,,,,,,202.5,-205,-205,202.5,,,,,,,202.5,100,B,Multi-ply,Yes,Amateur Open,32,1986-08-10
1,Semen Sorokin,Семен Сорокин,M,104.4,,,,,,230,245,255,255,,,,,,,255,110,B,Multi-ply,Yes,Amateur Juniors 20-23,22,1997-04-19
1,Yuriy Suvorov,Юрий Суворов,M,108.8,,,,,,180,200,213.5,213.5,,,,,,,213.5,110,B,Multi-ply,Yes,Amateur Masters 50-59,53,1965-11-22
1,Maksim Pavlov,Максим Павлов,M,77.8,,,,,,-200,210,-235,210,,,,,,,210,82.5,B,Multi-ply,No,Pro Open,33,1986-04-26
2,Anton Tukaev,Антон Тукаев,M,78.1,,,,,,170,-175,-180,170,,,,,,,170,82.5,B,Multi-ply,No,Pro Open,28,1990-07-03
1,Ruslan Ilyushin,Руслан Илюшин,M,88.9,,,,,,-300,305,315,315,,,,,,,315,90,B,Multi-ply,No,Pro Open,28,1991-02-25
1,Sergey Zakharov #8,Сергей Захаров,M,106.5,,,,,,240,252.5,265,265,,,,,,,265,110,B,Multi-ply,No,Pro Open,28,1991-03-20
2,Denis Puzyrev,Денис Пузырев,M,109,,,,,,255,265,-270,265,,,,,,,265,110,B,Multi-ply,No,Pro Open,45,1974-03-31
3,Evgeniy Kuznetsov,Евгений Кузнецов,M,109.8,,,,,,252.5,-265,-265,252.5,,,,,,,252.5,110,B,Multi-ply,No,Pro Open,28,1990-12-09
1,Denis Puzyrev,Денис Пузырев,M,109,,,,,,255,265,-270,265,,,,,,,265,110,B,Multi-ply,No,Pro Masters 40-49,45,1974-03-31
1,Nikolay Emelyanov #1,Николай Емельянов,M,120.5,,,,,,300,320,350,350,,,,,,,350,125,B,Multi-ply,No,Pro Open,39,1979-08-30
1,Elizaveta Chipizubova,Елизавета Чипизубова,F,47.7,,,,,,,,,,,105,-110,110,110,,110,48,D,Raw,Yes,Amateur Open,33,1986-01-07
1,Oksana Abalmasova,Оксана Абалмасова,F,46.5,,,,,,,,,,,80,90,100,100,,100,48,D,Raw,Yes,Amateur Masters 40-49,44,1974-07-01
1,Yuliya Degtyareva,Юлия Дегтярева,F,49.1,,,,,,,,,,,140,145,150,150,155,150,52,D,Raw,Yes,Amateur Open,28,1990-09-08
2,Ekaterina Nevedomskaya,Екатерина Неведомская,F,51.8,,,,,,,,,,,102.5,110,117.5,117.5,,117.5,52,D,Raw,Yes,Amateur Open,28,1990-05-23
3,Viktoriya Petrova,Виктория Петрова,F,51.9,,,,,,,,,,,-90,-92.5,92.5,92.5,,92.5,52,D,Raw,Yes,Amateur Open,24,1994-09-15
1,Natalya Sorokina,Наталья Сорокина,F,52.5,,,,,,,,,,,60,67.5,72.5,72.5,,72.5,56,D,Raw,Yes,Amateur Teen 14-16,16,2003-01-09
1,Nataliya Kalenova,Наталия Каленова,F,55.6,,,,,,,,,,,-120,-120,120,120,,120,56,D,Raw,Yes,Amateur Open,30,1989-01-31
2,Roza Yusupova,Роза Юсупова,F,54.8,,,,,,,,,,,95,102.5,-110,102.5,,102.5,56,D,Raw,Yes,Amateur Open,38,1981-04-01
3,Anna Stamo,Анна Стамо,F,53.5,,,,,,,,,,,95,-112.5,-112.5,95,,95,56,D,Raw,Yes,Amateur Open,37,1982-04-10
4,Olesya Ulanova,Олеся Уланова,F,55.5,,,,,,,,,,,70,75,87.5,87.5,,87.5,56,D,Raw,Yes,Amateur Open,37,1982-03-04
1,Olga Brik,Ольга Брик,F,59,,,,,,,,,,,-102.5,115,132.5,132.5,,132.5,60,D,Raw,Yes,Amateur Open,31,1987-12-25
1,Ekaterina Krupskaya,Екатерина Крупская,F,62.3,,,,,,,,,,,150,155,-160,155,,155,67.5,D,Raw,Yes,Amateur Open,20,1999-02-20
2,Evgeniya Malysheva,Евгения Малышева,F,67.5,,,,,,,,,,,130,-140,-140,130,,130,67.5,D,Raw,Yes,Amateur Open,35,1984-04-09
1,Tatyana Kolesnikova,Татьяна Колесникова,F,62.8,,,,,,,,,,,95,100,107.5,107.5,,107.5,67.5,D,Raw,Yes,Amateur Masters 40-49,41,1978-03-17
1,Andrey Chernov,Андрей Чернов,M,73.8,,,,,,,,,,,250,-263,263,263,,263,75,D,Raw,Yes,Amateur Open,37,1981-12-06
1,Vladimir Vologuzov,Владимир Вологузов,M,78.8,,,,,,,,,,,160,170,175,175,,175,82.5,D,Raw,Yes,Amateur Sub-Juniors 17-19,18,2000-10-23
1,Abduaziz Abdunazarov,Абдуазиз Абдуназаров,M,80.5,,,,,,,,,,,-190,190,-200,190,,190,82.5,D,Raw,Yes,Amateur Juniors 20-23,20,1998-05-19
1,Kirill Sazonov,Кирилл Сазонов,M,79.8,,,,,,,,,,,200,210,225,225,,225,82.5,D,Raw,Yes,Amateur Open,24,1994-09-26
2,Vladimir Kostin,Владимир Костин,M,81.2,,,,,,,,,,,170,190,-200,190,,190,82.5,D,Raw,Yes,Amateur Open,26,1992-07-04
1,Egor Ogorodnikov,Егор Огородников,M,88.6,,,,,,,,,,,200,210,-215,210,,210,90,D,Raw,Yes,Amateur Sub-Juniors 17-19,19,1999-08-06
2,Daniil Sakharov,Даниил Сахаров,M,85.5,,,,,,,,,,,160,180,-202.5,180,,180,90,D,Raw,Yes,Amateur Sub-Juniors 17-19,18,2001-02-22
1,Vadim Dyachenko,Вадим Дьяченко,M,87.9,,,,,,,,,,,262.5,272.5,-282.5,272.5,,272.5,90,D,Raw,Yes,Amateur Open,37,1981-10-16
2,Igor Shvachko,Игорь Швачко,M,89,,,,,,,,,,,222.5,230,240,240,,240,90,D,Raw,Yes,Amateur Open,25,1993-08-17
3,Mikhail Rozhkov,Михаил Рожков,M,88.1,,,,,,,,,,,215,225,232.5,232.5,,232.5,90,D,Raw,Yes,Amateur Open,29,1989-10-08
4,Aleksandr Kholodnov,Александр Холоднов,M,88.7,,,,,,,,,,,190,202.5,-210,202.5,,202.5,90,D,Raw,Yes,Amateur Open,27,1991-06-18
1,Aleksey Kosyanov,Алексей Косьянов,M,98.9,,,,,,,,,,,220,240,,240,,240,100,D,Raw,Yes,Amateur Juniors 20-23,21,1998-02-10
1,Pavel Sheptitskiy,Павел Шептицкий,M,94.9,,,,,,,,,,,260,275,-300,275,,275,100,D,Raw,Yes,Amateur Open,25,1994-03-13
2,Evgeniy Subbotin,Евгений Субботин,M,94.9,,,,,,,,,,,220,240,-260,240,,240,100,D,Raw,Yes,Amateur Open,27,1992-02-05
3,Sergey Gorbatenko,Сергей Горбатенко,M,95.7,,,,,,,,,,,230,240,,240,,240,100,D,Raw,Yes,Amateur Open,38,1980-07-29
4,Aleksandr Popov #5,Александр Попов,M,95.6,,,,,,,,,,,175,-185,-185,175,,175,100,D,Raw,Yes,Amateur Open,28,1990-09-21
5,Kirill Zakharov,Кирилл Захаров,M,94.5,,,,,,,,,,,-150,150,,150,,150,100,D,Raw,Yes,Amateur Open,30,1988-11-09
1,Vadim Abramov,Вадим Абрамов,M,109,,,,,,,,,,,240,-250,250,250,,250,110,D,Raw,Yes,Amateur Open,26,1992-06-17
1,Ilya Naroditskiy,Илья Народицкий,M,118.2,,,,,,,,,,,240,260,270,270,,270,125,D,Raw,Yes,Amateur Open,29,1989-07-12
2,Egor Kupriyanov,Егор Куприянов,M,124.8,,,,,,,,,,,230,257.5,-260,257.5,,257.5,125,D,Raw,Yes,Amateur Open,24,1995-01-20
1,Mariya Klintsova,Мария Клинцова,F,76.5,,,,,,,,,,,170,182.5,-187.5,182.5,,182.5,82.5,D,Raw,No,Pro Open,32,1987-01-31
1,Evgeniy Remizevich,Евгений Ремизевич,M,74.4,,,,,,,,,,,165,175,-182.5,175,,175,75,D,Raw,No,Pro Open,27,1992-03-03
1,Nikolay Barashkov,Николай Барашков,M,81.2,,,,,,,,,,,155,167.5,-177.5,167.5,,167.5,82.5,D,Raw,No,Pro Juniors 20-23,23,1995-07-06
1,Ilya Bokov,Илья Боков,M,77.9,,,,,,,,,,,240,-250,250,250,,250,82.5,D,Raw,No,Pro Open,31,1987-09-27
2,Vitaliy Nabatchikov,Виталий Набатчиков,M,81.1,,,,,,,,,,,240,250,-255,250,,250,82.5,D,Raw,No,Pro Open,24,1994-06-07
3,Dmitriy Legoshin,Дмитрий Легошин,M,78.6,,,,,,,,,,,215,227.5,-235,227.5,,227.5,82.5,D,Raw,No,Pro Open,28,1990-09-15
DQ,Oleg Batov,Олег Батов,M,82,,,,,,,,,,,-230,-230,-240,,,,82.5,D,Raw,No,Pro Open,27,1991-06-30
1,Aleksandr Likholai,Александр Лихолай,M,78,,,,,,,,,,,100,110,120,120,,120,82.5,D,Raw,No,Pro Masters,80,1939-02-22
1,Sergey Maksimov,Сергей Максимов,M,89.5,,,,,,,,,,,290,305,315,315,327.5,315,90,D,Raw,No,Pro Open,29,1989-07-26
2,Boris Koloskov,Борис Колосков,M,89.6,,,,,,,,,,,275,-292.5,-292.5,275,,275,90,D,Raw,No,Pro Open,32,1986-06-27
1,Timur Bozov,Тимур Бозов,M,99.3,,,,,,,,,,,250,272.5,280,280,,280,100,D,Raw,No,Pro Open,26,1992-11-13
1,Eldar Salakhetdinov,Эльдар Салахетдинов,M,108.2,,,,,,,,,,,250,280,295,295,,295,110,D,Raw,No,Pro Juniors 20-23,20,1998-08-22
1,Oleg Zozulinskiy,Олег Зозулинский,M,107.6,,,,,,,,,,,280,-300,-307.5,280,,280,110,D,Raw,No,Pro Open,32,1986-07-03
1,Dmitriy Starov,Дмитрий Старов,M,118.6,,,,,,,,,,,250,270,-290,270,,270,125,D,Raw,No,Pro Masters 40-49,46,1973-02-01
1,Lev Shprints,Лев Шпринц,M,116.9,,,,,,,,,,,175,180,185,185,,185,125,D,Raw,No,Pro Masters 60-69,66,1952-06-12
1,Grigoriy Sakharov,Григорий Сахаров,M,131.2,,,,,,,,,,,270,280,290,290,,290,140,D,Raw,No,Pro Masters 40-49,41,1977-06-17
