Place,Name,CyrillicName,BirthYear,WeightClassKg,BodyweightKg,Best3SquatKg,Best3BenchKg,Best3DeadliftKg,TotalKg,Sex,Division,Event,Equipment
1,Anna Ivanova #7,Анна Иванов,1990,48,47.9,122.5,55,120,297.5,F,Open,SBD,Single-ply
2,Yana Dulina,Яна Дулина,1995,48,47.8,100,50,105,255,F,Open,SBD,Single-ply
3,Mariya Lukasheva,Мария Лукашева,1993,48,48,90,42.5,107.5,240,F,Open,SBD,Single-ply
4,Elena Boloeva,Елена Болоева,1986,48,47.9,85,45,90,220,F,Open,SBD,Single-ply
5,Natalya Nikolaeva,Наталья Николаева,1986,48,48,80,40,80,200,F,Open,SBD,Single-ply
6,Viktoriya Timofeeva,Виктория Тимофеева,1989,48,47.9,80,37.5,80,197.5,F,Open,SBD,Single-ply
DQ,Anna Ivancheva,Анна Иванчева,1994,48,47.9,,,,,F,Open,SBD,Single-ply
DQ,Valentina Mikolyuk,Валентина Миколюк,1986,48,47.8,,,,,F,Open,SBD,Single-ply
1,Ekaterina Osipova,Екатерина Осипова,1991,52,52,180,107.5,160,447.5,F,Open,SBD,Single-ply
2,Tatyana Naddennaya,Татьяна Надденная,1984,52,52,132.5,62.5,120,315,F,Open,SBD,Single-ply
3,Oksana Kozlova,Оксана Козлова,1987,52,52,125,55,125,305,F,Open,SBD,Single-ply
4,Lyudmila Fedorova,Людмила Федорова,1960,52,50.9,95,62.5,125,282.5,F,Open,SBD,Single-ply
5,Yuliya Zhuravleva,Юлия Журавлева,1992,52,52,95,45,105,245,F,Open,SBD,Single-ply
6,Ekaterina Sorokina,Екатерина Сорокина,1988,52,51.9,90,50,100,240,F,Open,SBD,Single-ply
7,Svetlana Sedletskaya,Светлана Седлецкая,1991,52,52,95,45,100,240,F,Open,SBD,Single-ply
8,Yuliya Kidanova,Юлия Киданова,1989,52,52,90,40,100,230,F,Open,SBD,Single-ply
1,Irina Serebrennikova,Ирина Серебренникова,1994,56,54.2,110,70,110,290,F,Open,SBD,Single-ply
2,Nina Leonova,Нина Леонова,1993,56,56,92.5,32.5,110,235,F,Open,SBD,Single-ply
1,Nina Kondrashyova,Нина Кондрашёва,1960,60,59.5,180,107.5,160,447.5,F,Open,SBD,Single-ply
2,Ekaterina Filyar,Екатерина Филяр,1990,60,59.6,175,95,145,415,F,Open,SBD,Single-ply
3,Nadezhda Egorova,Надежда Егорова,1988,60,59.5,165,77.5,155,397.5,F,Open,SBD,Single-ply
4,Alla Lesnykh,Алла Лесных,1993,60,60,145,65,135,345,F,Open,SBD,Single-ply
5,Vita Baryshko,Вита Барышко,1992,60,59.2,142.5,72.5,120,335,F,Open,SBD,Single-ply
1,Aleksandra Megezhekskaya,Александра Мегежекская,1971,67.5,64.6,160,100,145,405,F,Open,SBD,Single-ply
2,Anastasiya Kurako,Анастасия Курако,1989,67.5,66.3,162.5,75,147.5,385,F,Open,SBD,Single-ply
1,Natalya Spiridonenko,Наталья Спиридоненко,1976,75,68.4,170,105,160,435,F,Open,SBD,Single-ply
1,Tatyana Grigor,Татьяна Григорь,1970,90+,109,295,185,240,720,F,Open,SBD,Single-ply
1,Aleksandr Natochev,Александр Наточев,1991,56,54.3,200,110,222.5,532.5,M,Open,SBD,Single-ply
2,Vladimir Serkin,Владимир Серкин,1992,56,56,210,125,197.5,532.5,M,Open,SBD,Single-ply
3,Andrey Aksenov,Андрей Аксенов,,56,56,210,125,195,530,M,Open,SBD,Single-ply
4,Andrey Roslyakov,Андрей Росляков,1990,56,55.9,200,100,200,500,M,Open,SBD,Single-ply
5,Nikolay Belous,Николай Белоус,1987,56,56,200,110,190,500,M,Open,SBD,Single-ply
6,Petr Sukharev,Петр Сухарев,1991,56,55.5,150,100,160,410,M,Open,SBD,Single-ply
7,Lev Pinaev,Лев Пинаев,1991,56,55.8,160,100,140,400,M,Open,SBD,Single-ply
1,Aleksandr Gromov,Александр Громов,1985,60,59.2,220,132.5,200,552.5,M,Open,SBD,Single-ply
2,Valeriy Kulichkin,Валерий Куличкин,1988,60,56.3,160,100,185,445,M,Open,SBD,Single-ply
1,Lyudvig Tepikyan,Людвиг Тепикян,1989,67.5,62.2,275,162.5,265,702.5,M,Open,SBD,Single-ply
2,Sergey Popov,Сергей Попов,1985,67.5,66.8,270,142.5,270,682.5,M,Open,SBD,Single-ply
3,Andrey Nikitin,Андрей Никитин,1984,67.5,67.3,250,140,245,635,M,Open,SBD,Single-ply
4,Aleksandr Zakharov,Александр Захаров,1985,67.5,66.3,172.5,125,190,487.5,M,Open,SBD,Single-ply
5,Ivan Gaevskiy,Иван Гаевский,1989,67.5,66.4,170,125,190,485,M,Open,SBD,Single-ply
DQ,Semen Rumyantsev,Семен Румянцев,1985,67.5,66.3,190,,,,M,Open,SBD,Single-ply
DQ,Anatoliy Efremov,Анатолий Ефремов,1985,67.5,66.95,,,,,M,Open,SBD,Single-ply
DQ,Viktor Tertyshnikov,Виктор Тертышников,1989,67.5,67.5,,,,,M,Open,SBD,Single-ply
1,Aleksandr Zhuravlev,Александр Журавлев,1989,75,75,295,180,262.5,737.5,M,Open,SBD,Single-ply
2,Aleksey Bavykin,Алексей Бавыкин,1989,75,73.6,297.5,160,250,707.5,M,Open,SBD,Single-ply
3,Ivan Borisov,Иван Борисов,1988,75,73.2,275,165,225,665,M,Open,SBD,Single-ply
4,Zaur Mamedov,Заур Мамедов,1990,75,74.7,265,170,220,655,M,Open,SBD,Single-ply
5,Stanislav Trotskiy,Станислав Троцкий,1986,75,70.5,250,170,215,635,M,Open,SBD,Single-ply
6,Artem Yurchenko,Артем Юрченко,1990,75,73.7,260,140,230,630,M,Open,SBD,Single-ply
7,Aleksandr Voziyan,Александр Возиян,1988,75,69.5,225,100,230,555,M,Open,SBD,Single-ply
8,Vitaliy Tatarov,Виталий Татаров,1990,75,71.4,210,115,210,535,M,Open,SBD,Single-ply
9,Andrey Lobanov,Андрей Лобанов,1992,75,73,225,130,180,535,M,Open,SBD,Single-ply
10,Nikolay Chernogradskiy,Николай Черноградский,1990,75,72.7,200,130,200,530,M,Open,SBD,Single-ply
11,Vitaliy Danilov,Виталий Данилов,1990,75,72.4,200,115,190,505,M,Open,SBD,Single-ply
DQ,Igor Muler,Игорь Мулер,1969,75,74.5,,,,,M,Open,SBD,Single-ply
1,Aleksandr Bosenko,Александр Босенко,1989,82.5,81.1,300,170,290,760,M,Open,SBD,Single-ply
2,Yury Belkin,Юрий Белкин,1990,82.5,82.1,300,170,260,730,M,Open,SBD,Single-ply
3,Aleksandr Miseev,Александр Мисеев,1973,82.5,81.5,275,190,250,715,M,Open,SBD,Single-ply
4,Sergey Vasilev,Сергей Васильев,1991,82.5,82.2,280,170,265,715,M,Open,SBD,Single-ply
5,Vyacheslav Serkov,Вячеслав Серков,1984,82.5,81.7,260,170,230,660,M,Open,SBD,Single-ply
DQ,Aleksandr Murashin,Александр Мурашин,1992,82.5,82,260,160,,,M,Open,SBD,Single-ply
DQ,Ruslan Zarubin,Руслан Зарубин,1991,82.5,78.5,185,110,,,M,Open,SBD,Single-ply
DQ,Sergey Zherebtsov,Сергей Жеребцов,1988,82.5,82.2,,,,,M,Open,SBD,Single-ply
1,Mikhail Strelets,Михаил Стрелец,1984,90,89.5,360,210,280,850,M,Open,SBD,Single-ply
2,Viktor Balakirev,Виктор Балакирев,1988,90,88.7,290,200,290,780,M,Open,SBD,Single-ply
3,Evgeniy Pesterev,Евгений Пестерев,1991,90,89.2,305,185,270,760,M,Open,SBD,Single-ply
4,Maksim Zakharov,Максим Захаров,1991,90,90,310,165,275,750,M,Open,SBD,Single-ply
5,Dmitriy Grigor,Дмитрий Григорь,1989,90,89.1,305,170,270,745,M,Open,SBD,Single-ply
6,Andrey Andrichenko,Андрей Андриченко,1986,90,86.6,290,170,270,730,M,Open,SBD,Single-ply
7,Antonin Adamov,Антонин Адамов,1958,90,90,300,170,250,720,M,Open,SBD,Single-ply
8,Viktor Kuznetsov #2,Виктор Кузнецов,1992,90,85.3,235,180,210,625,M,Open,SBD,Single-ply
9,Elisey Belets,Елисей Белец,1986,90,89.1,240,155,225,620,M,Open,SBD,Single-ply
10,Roman Fedorov,Роман Федоров,1980,90,86.5,225,152.5,240,617.5,M,Open,SBD,Single-ply
11,Aleksandr Dobrovolskiy,Александр Добровольский,1979,90,85.8,230,130,225,585,M,Open,SBD,Single-ply
12,Vladimir Kolesov,Владимир Колесов,1971,90,86.2,225,125,235,585,M,Open,SBD,Single-ply
1,Denis Shcherbakov,Денис Щербаков,1982,100,95.5,342.5,237.5,312.5,892.5,M,Open,SBD,Single-ply
2,Artem Zaytsev #1,Артем Зайцев,1988,100,99.4,332.5,232.5,272.5,837.5,M,Open,SBD,Single-ply
3,Vladimir Lopatin,Владимир Лопатин,1988,100,97.9,310,195,300,805,M,Open,SBD,Single-ply
4,Artem Kolos,Артем Колос,1985,100,93.1,325,180,270,775,M,Open,SBD,Single-ply
5,Sergey Kasimov,Сергей Касимов,1989,100,99.2,300,190,260,750,M,Open,SBD,Single-ply
6,Anton Yuklov,Антон Юклов,1990,100,97.1,280,185,270,735,M,Open,SBD,Single-ply
7,Evgeniy Korovin,Евгений Коровин,1988,100,99.2,280,180,255,715,M,Open,SBD,Single-ply
8,Maksim Gabyshev,Максим Габышев,1975,100,94.5,260,210,240,710,M,Open,SBD,Single-ply
9,Vladimir Chumakov,Владимир Чумаков,1990,100,95,250,140,230,620,M,Open,SBD,Single-ply
DQ,Dmitriy Chugaynov,Дмитрий Чугайнов,1991,100,93.8,240,,,,M,Open,SBD,Single-ply
DQ,Aleksandr Kichigin,Александр Кичигин,1989,100,98.6,275,,,,M,Open,SBD,Single-ply
1,Artur Lauer,Артур Лауэр,1986,110,107.6,345,220,340,905,M,Open,SBD,Single-ply
2,Aleksandr Legenkin,Александр Легенкин,1990,110,104.1,335,195,275,805,M,Open,SBD,Single-ply
3,Nikolay Dolgopolov,Николай Долгополов,1986,110,107.1,300,210,295,805,M,Open,SBD,Single-ply
4,Ivan Balakirev,Иван Балакирев,1988,110,109.2,325,200,280,805,M,Open,SBD,Single-ply
5,Nikolay Yusupov,Николай Юсупов,1958,110,101.7,260,185,230,675,M,Open,SBD,Single-ply
6,Maksim Utenkov,Максим Утенков,1992,110,105.8,260,160,230,650,M,Open,SBD,Single-ply
7,Sergey Belousov,Сергей Белоусов,1978,110,108,250,160,240,650,M,Open,SBD,Single-ply
DQ,Vasiliy Ermolenko,Василий Ермоленко,1989,110,104.9,,,,,M,Open,SBD,Single-ply
1,Aleksandr Tsybulya,Александр Цыбуля,1989,125,118.7,320,205,305,830,M,Open,SBD,Single-ply
2,Aleksandr Matrosov,Александр Матросов,1972,125,124.8,300,205,325,830,M,Open,SBD,Single-ply
3,Evgeniy Ivanov #18,Евгений Иванов,1973,125,125,305,200,265,770,M,Open,SBD,Single-ply
4,Taras Sparyshev,Тарас Спарышев,1990,125,117,240,150,240,630,M,Open,SBD,Single-ply
5,Pavel Slobodchuk,Павел Слободчук,1990,125,123,220,145,240,605,M,Open,SBD,Single-ply
6,Pavel Eremin,Павел Еремин,1993,125,122,220,100,217.5,537.5,M,Open,SBD,Single-ply
DQ,Evgeniy Kupriyanov,Евгений Куприянов,1984,125,112,,,,,M,Open,SBD,Single-ply
DQ,Anatoliy Kirillin,Анатолий Кириллин,1972,125,122,,,,,M,Open,SBD,Single-ply
1,Aleksandr Kirsanov,Александр Кирсанов,1991,125+,126.3,340,190,312.5,842.5,M,Open,SBD,Single-ply
