Place,Division,WeightClassKg,Sex,Event,Equipment,Tested,Name,CyrillicName,BirthDate,BodyweightKg,Squat1Kg,Squat2Kg,Squat3Kg,Best3SquatKg,Bench1Kg,Bench2Kg,Bench3Kg,Best3BenchKg,Bench4Kg,Deadlift1Kg,Deadlift2Kg,Deadlift3Kg,Best3DeadliftKg,Deadlift4Kg,TotalKg
1,Youth,44,F,SBD,Wraps,Yes,Tetyana Korostel,Тетяна Коростель,2007-01-07,31.6,20,25,30,30,20,,,20,,40,50,60,60,,110
1,Juniors 20-23,48,F,SBD,Wraps,Yes,Tetyana Oliynik,Тетяна Олійник,1994-07-31,46.3,-115,115,122.5,122.5,50,52.5,-55,52.5,,115,120,125,125,,300
1,Masters 40-49,52,F,SBD,Wraps,Yes,Lyudmila Tranchenko,Людмила Транченко,1976-06-02,50.6,70,80,-85,80,37.5,40,-42.5,40,,75,80,-82.5,80,,200
1,Open,56,F,SBD,Wraps,Yes,Tetyana Stronska,Тетяна Стронська,1984-09-19,55.9,105,-115,-115,105,47.5,-50,50,50,,110,115,120,120,,275
2,Open,56,F,SBD,Wraps,Yes,Olesya Kiyan,Олеся Киян,1990-04-10,55.25,-95,-95,95,95,45,47.5,-50,47.5,,110,115,120,120,,262.5
3,Open,56,F,SBD,Wraps,Yes,Olesya Melnik,Олеся Мельник,1992-04-27,55.6,-85,85,-92.5,85,57.5,60,-62.5,60,,80,85,90,90,,235
4,Open,56,F,SBD,Wraps,Yes,Svitlana Kravchenko,Світлана Кравченко,1971-05-11,54,85,,-92.5,85,47.5,50,-52.5,50,,85,-90,90,90,,225
1,Masters 40-49,56,F,SBD,Wraps,Yes,Svitlana Kravchenko,Світлана Кравченко,1971-05-11,54,85,,-92.5,85,47.5,50,-52.5,50,,85,-90,90,90,,225
1,Open,60,F,SBD,Wraps,Yes,Nataliya Sokurenko,Наталія Сокуренко,1981-01-12,56.75,140,150,-160,150,72.5,75,-77.5,75,,140,150,-155,150,,375
DQ,Open,60,F,SBD,Wraps,Yes,Tetyana Adamenko,Тетяна Адаменко,1987-04-19,57.85,-60,-70,-70,,,,,,,,,,,,
DQ,Open,60,F,SBD,Wraps,Yes,Viktoriya Krupichevska,Вікторія Крупічевська,1993-01-18,60,-120,-120,-120,,,,,,,,,,,,
1,Teen 13-15,67.5,F,SBD,Wraps,Yes,Anastasiya Stetsenko,Анастасія Стеценко,2003-02-21,67.2,80,90,97.5,97.5,52.5,55,57.5,57.5,,80,90,97.5,97.5,,252.5
1,Juniors 20-23,67.5,F,SBD,Wraps,Yes,Katerina Gerasimchuk,Катерина Герасимчук,1995-07-13,66.3,110,-125,-130,110,55,-57.5,-57.5,55,,125,140,150,150,,315
1,Open,67.5,F,SBD,Wraps,Yes,Katerina Gerasimchuk,Катерина Герасимчук,1995-07-14,66.3,110,-125,-130,110,55,-57.5,-57.5,55,,125,140,150,150,,315
2,Open,67.5,F,SBD,Wraps,Yes,Katerina Filipova,Катерина Філіпова,1984-06-25,64.4,117.5,122.5,125,125,57.5,-62.5,-62.5,57.5,,120,127.5,-140,127.5,,310
3,Open,67.5,F,SBD,Wraps,Yes,Oksana Ostroushko,Оксана Остроушко,1982-06-26,61.35,100,105,-110,105,60,62.5,65,65,,105,115,120,120,,290
DQ,Masters 50-59,67.5,F,SBD,Wraps,Yes,Raїsa Salimova,Раїса Салімова,1967-03-13,67.5,-65,-65,-80,,,,,,,,,,,,
1,Open,75,F,SBD,Wraps,Yes,Dariya Zdorovtsova,Дарія Здоровцова,1989-07-30,72.7,85,-95,95,95,50,55,-57.5,55,,100,110,117.5,117.5,,267.5
2,Open,75,F,SBD,Wraps,Yes,Veronika Vishinska,Вероніка Вишинська,1990-08-05,71.6,80,90,-100,90,50,52.5,55,55,,100,110,117.5,117.5,,262.5
1,Teen 13-15,52,M,SBD,Wraps,Yes,Vitaliy Reshetnik,Віталій Решетнік,2004-03-02,48.7,50,60,-65,60,30,35,40,40,,60,70,85,85,,185
2,Teen 16-17,52,M,SBD,Wraps,Yes,Andriy Kovalenko,Андрій Коваленко,2002-01-10,51.5,80,-90,-90,80,50,55,60,60,,90,100,110,110,,250
1,Teen 13-15,56,M,SBD,Wraps,Yes,Nazariy Braun,Назарій Браун,2003-03-04,54.1,60,70,-80,70,35,40,45,45,,70,80,90,90,,205
1,Teen 16-17,56,M,SBD,Wraps,Yes,Dmitro Ardashov,Дмитро Ардашов,2001-10-21,55.9,125,-135,137.5,137.5,62.5,-67.5,-72.5,62.5,,125,135,145,145,,345
1,Open,56,M,SBD,Wraps,Yes,Dmitro Sidorenko,Дмитро Сидоренко,1992-09-02,54.6,-100,100,-110,100,77.5,-82.5,82.5,82.5,,135,140,145,145,,327.5
1,Youth,60,M,SBD,Wraps,Yes,Ruslan Beketov,Руслан Бекетов,2006-08-18,58.6,50,60,-70,60,30,-35,35,35,,60,70,85,85,,180
DQ,Teen 16-17,60,M,SBD,Wraps,Yes,Sergiy Protsenko,Сергій Проценко,2001-11-25,58.25,-130,-130,-130,,,,,,,,,,,,
1,Teen 16-17,67.5,M,SBD,Wraps,Yes,Valeriy Drachenko,Валерій Драченко,2001-11-05,61.5,95,105,-110,105,55,57.5,-60,57.5,,110,117.5,120,120,,282.5
1,Teen 18-19,67.5,M,SBD,Wraps,Yes,Oleksandr Hushtyk,Олександр Гуштик,1998-12-30,65.35,190,202.5,-207.5,202.5,95,102.5,110,110,,157.5,170,-180,170,,482.5
2,Teen 18-19,67.5,M,SBD,Wraps,Yes,Ruslan Ivanchik,Руслан Іванчик,1999-08-09,66.2,155,162.5,-167.5,162.5,120,125,,125,,170,177.5,182.5,182.5,,470
3,Teen 18-19,67.5,M,SBD,Wraps,Yes,Volodimir Shmondenko,Володимир Шмонденко,1999-08-10,65.6,140,-152.5,-152.5,140,97.5,-105,105,105,,177.5,-185,185,185,,430
1,Juniors 20-23,67.5,M,SBD,Wraps,Yes,Maksim Gayoviy,Максим Гайовий,1995-10-02,64.45,125,130,135,135,-92.5,95,-97.5,95,,165,170,185,185,,415
2,Juniors 20-23,67.5,M,SBD,Wraps,Yes,Oleksandr Onischenko #2,Олександр Оніщенко,1996-03-05,65.2,-130,130,145,145,85,95,100,100,,150,170,-195,170,,415
DQ,Juniors 20-23,67.5,M,SBD,Wraps,Yes,Oleksandr Glushko,Олександр Глушко,1996-03-07,66.6,-180,-180,-180,,,,,,,,,,,,
1,Open,67.5,M,SBD,Wraps,Yes,Yuriy Yaremenko,Юрій Яременко,1986-02-12,66.2,-130,130,-140,130,-90,-90,90,90,,140,150,160,160,,380
DQ,Teen 16-17,75,M,SBD,Wraps,Yes,Oleksandr Lukyanenko #1,Олександр Лукяненко,2001-11-20,73.35,-200,-200,-200,,,,,,,,,,,,
1,Teen 18-19,75,M,SBD,Wraps,Yes,Mikhaylo Yurchenko,Михайло Юрченко,1999-01-02,74.6,225,-240,-240,225,127.5,-135,-135,127.5,,245,-262.5,262.5,262.5,270,615
DQ,Juniors 20-23,75,M,SBD,Wraps,Yes,Dmitro Dovgiy,Дмитро Довгий,1994-05-29,70.7,-170,-170,-170,,,,,,,,,,,,
1,Open,75,M,SBD,Wraps,Yes,Sergiy Shevchenko,Сергій Шевченко,1991-08-13,72.65,180,-192.5,195,195,110,-115,-115,110,,220,-235,-242.5,220,,525
2,Open,75,M,SBD,Wraps,Yes,Sergiy Kalchuk,Сергій Кальчук,1989-06-29,68.2,170,190,-200,190,110,117.5,-122.5,117.5,,130,,,130,,437.5
1,Juniors 20-23,82.5,M,SBD,Wraps,Yes,Viktor Pirog,Віктор Пирог,1996-04-22,82.5,-220,220,-240,220,125,-135,135,135,,200,-215,220,220,,575
DQ,Juniors 20-23,82.5,M,SBD,Wraps,Yes,Vladislav Fartushniy,Владислав Фартушний,1997-08-03,79.25,-200,-200,-200,,,,,,,,,,,,
1,Open,82.5,M,SBD,Wraps,Yes,Ruslan Slyusarenko,Руслан Слюсаренко,1992-02-27,78.8,180,190,200,200,100,110,-120,110,,200,210,230,230,,540
2,Open,82.5,M,SBD,Wraps,Yes,Volodimir Rudakevich,Володимир Рудакевич,1988-06-15,78.2,-170,-170,170,170,140,-145,-145,140,,200,225,-230,225,,535
3,Open,82.5,M,SBD,Wraps,Yes,Oleksandr Pilipenko,Олександр Пилипенко,1994-04-17,79.4,167.5,177.5,-185,177.5,115,122.5,-127.5,122.5,,200,-220,-220,200,,500
DD,Open,82.5,M,SBD,Wraps,Yes,Vitaliy Pasechnik,Віталій Пасечник,1985-12-11,80.8,240,255,260,260,145,152.5,157.5,157.5,,265,282.5,290,290,,
DQ,Open,82.5,M,SBD,Wraps,Yes,Oleksandr Volkov,Олександр Волков,1985-06-14,79.35,-210,-210,-210,,175,,,175,,,,,,,
DQ,Masters 50-59,82.5,M,SBD,Wraps,Yes,Valeriy Lanko,Валерій Ланько,1965-01-25,80.75,-155,-160,-160,,,,,,,,,,,,
1,Masters 60-69,82.5,M,SBD,Wraps,Yes,Sergiy Novatskiy,Сергій Новацький,1957-10-31,81.2,-185,190,-200,190,120,122.5,-127.5,122.5,,170,-177.5,,170,,482.5
1,Teen 16-17,90,M,SBD,Wraps,Yes,Nikita Tsekhmeystruk,Нікіта Цехмейструк,2001-09-18,89.25,-140,140,150,150,105,-107.5,107.5,107.5,,160,170,-180,170,,427.5
DQ,Teen 16-17,90,M,SBD,Wraps,Yes,Valentin Bogutskiy,Валентин Богуцький,2000-04-24,86.9,-210,220,-230,220,-135,-135,-135,,,,,,,,
1,Teen 18-19,90,M,SBD,Wraps,Yes,Danilo Sobol,Данило Соболь,1998-10-19,88.6,-190,190,205,205,125,132.5,-140,132.5,,180,190,200,200,,537.5
1,Juniors 20-23,90,M,SBD,Wraps,Yes,Oleksandr Pashkovets,Олександр Пашковець,1997-02-03,88.5,195,-205,-207.5,195,105,107.5,110,110,,245,252.5,-260,252.5,,557.5
2,Juniors 20-23,90,M,SBD,Wraps,Yes,Ivan Melnichenko,Іван Мельниченко,1996-10-15,89.8,-190,190,200,200,-140,140,145,145,,-180,190,200,200,,545
1,Open,90,M,SBD,Wraps,Yes,Yuriy Yaremiy,Юрій Яремій,1993-05-14,88.35,200,210,-220,210,-125,127.5,-130,127.5,,210,-220,,210,,547.5
2,Open,90,M,SBD,Wraps,Yes,Volodimir Plyuta,Володимир Плюта,1992-03-01,84,160,170,180,180,115,122.5,-130,122.5,,180,202.5,210,210,,512.5
DD,Open,90,M,SBD,Wraps,Yes,Dmitro Goropakha,Дмитро Горопаха,1992-06-13,89.15,265,-280,285,285,-150,-150,-150,,,,,,,,
1,Masters 40-49,90,M,SBD,Wraps,Yes,Viktor Poshtarenko,Віктор Поштаренко,1970-02-06,88.15,195,205,-210,205,130,135,-140,135,,150,180,210,210,,550
2,Masters 40-49,90,M,SBD,Wraps,Yes,Yuriy Stetsenko,Юрій Стеценко,1975-09-06,89.65,170,182.5,192.5,192.5,115,125,132.5,132.5,,170,185,-200,185,,510
DQ,Masters 40-49,90,M,SBD,Wraps,Yes,Valentin Gostev,Валентин Гостєв,1975-02-28,89.6,-190,-190,-190,,,,,,,,,,,,
1,Masters 50-59,90,M,SBD,Wraps,Yes,Gennadiy Ostrovskiy,Геннадій Островський,1965-01-08,87.65,187.5,-205,-205,187.5,-117.5,122.5,130,130,,205,215,-220,215,,532.5
1,Teen 18-19,100,M,SBD,Wraps,Yes,Artur Medvedev,Артур Медведєв,2000-04-17,98.5,192.5,-205,207.5,207.5,-120,127.5,-130,127.5,,205,215,222.5,222.5,,557.5
DQ,Teen 18-19,100,M,SBD,Wraps,Yes,Yuriy Vatskovskiy,Юрій Вацковський,1999-12-07,94.6,-215,-215,-215,,,,,,,,,,,,
DD,Juniors 20-23,100,M,SBD,Wraps,Yes,Evgeniy Ivanets,Євгеній Іванець,1995-10-02,97.15,260,275,-285,275,145,-152.5,152.5,152.5,,285,300,-312.5,300,,
1,Open,100,M,SBD,Wraps,Yes,Roman Doroshenko,Роман Дорошенко,1992-07-23,95.35,-240,-240,250,250,150,-170,180,180,,-230,250,-260,250,,680
2,Open,100,M,SBD,Wraps,Yes,Andriy Sidorets,Андрій Сидорець,1991-08-16,96.45,260,-275,-275,260,150,-157.5,-157.5,150,,240,-250,-250,240,,650
3,Open,100,M,SBD,Wraps,Yes,Pavlo Ivashchenko,Павло Іващенко,1986-01-31,96.95,210,-225,-230,210,135,142.5,-150,142.5,,-220,220,-225,220,,572.5
DD,Open,100,M,SBD,Wraps,Yes,Evgeniy Ivanets,Євгеній Іванець,1995-10-03,97.15,260,275,-285,275,145,-152.5,152.5,152.5,,285,300,-312.5,300,,
1,Masters 40-49,100,M,SBD,Wraps,Yes,Oleg Vashchuk,Олег Ващук,1972-05-08,99.2,190,-200,-200,190,135,-140,-140,135,,210,-220,,210,,535
2,Masters 40-49,100,M,SBD,Wraps,Yes,Anton Naumovich,Антон Наумович,1977-10-25,92.4,185,192.5,197.5,197.5,112.5,117.5,120,120,,190,197.5,-202.5,197.5,,515
1,Juniors 20-23,110,M,SBD,Wraps,Yes,Illya Romanov,Ілля Романов,1994-07-20,106,190,200,-210,200,105,112.5,120,120,,215,222.5,230,230,,550
1,Open,110,M,SBD,Wraps,Yes,Mikhaylo Starovoyt,Михайло Старовойт,1989-11-12,109.55,230,235,-240,235,170,175,-180,175,,240,-250,250,250,,660
2,Open,110,M,SBD,Wraps,Yes,Artem Karpovich,Артем Карпович,1993-08-05,107.85,220,-230,-230,220,130,140,-145,140,,230,-240,-240,230,,590
3,Open,110,M,SBD,Wraps,Yes,Igor Onishchak,Ігор Онищак,1973-06-12,104.6,210,220,-225,220,115,-125,-125,115,,225,-240,-240,225,,560
DQ,Open,110,M,SBD,Wraps,Yes,Sergiy Koryukivskiy,Сергій Корюківський,1985-10-09,108.45,-210,-210,-215,,-137.5,,,,,,,,,,
1,Masters 40-49,110,M,SBD,Wraps,Yes,Igor Onishchak,Ігор Онищак,1973-06-12,104.6,210,220,-225,220,115,-125,-125,115,,225,-240,-240,225,,560
1,Masters 60-69,110,M,SBD,Wraps,Yes,Viktor Stefanov,Віктор Стефанов,1948-11-02,101.6,160,-170,-170,160,80,85,-90,85,,150,155,160,160,,405
1,Open,125,M,SBD,Wraps,Yes,Igor Zaychuk,Ігор Зайчук,1989-12-02,114.25,275,282.5,,282.5,200,210,,210,,300,320,-332.5,320,,812.5
1,Masters 40-49,125,M,SBD,Wraps,Yes,Oleksandr Shcherban,Олександр Щербань,1974-05-21,118.2,-200,200,215,215,140,150,-155,150,,210,215,220,220,,585
1,Open,140,M,SBD,Wraps,Yes,Grigoriy Barannik,Григорій Бараннік,1990-05-09,129.5,230,245,260,260,165,-175,-175,165,,260,270,-280,270,,695
1,Youth,48,F,BD,Raw,Yes,Svitlana Klimanska,Світлана Климанська,2006-08-18,44.6,,,,,-20,20,-25,20,,-55,65,70,70,,90
1,Masters 50-59,52,F,BD,Raw,Yes,Alla Lanko,Алла Ланько,1965-01-19,50.6,,,,,50,-52.5,-52.5,50,,-100,100,110,110,,160
1,Teen 13-15,67.5,F,BD,Raw,Yes,Renata Ignatova,Рената Ігнатова,2004-11-05,64.15,,,,,50,-52.5,52.5,52.5,,62.5,67.5,-70,67.5,,120
1,Open,67.5,F,BD,Raw,Yes,Katerina Filipova,Катерина Філіпова,1984-06-25,64.4,,,,,57.5,-62.5,-62.5,57.5,,120,127.5,-140,127.5,,185
1,Masters 40-49,67.5,F,BD,Raw,Yes,Zhaneta Shostak,Жанета Шостак,1972-07-26,62.5,,,,,42.5,45,-47.5,45,,75,82.5,-87.5,82.5,,127.5
1,Open,75,F,BD,Raw,Yes,Mariya Kalistratova,Марія Калістратова,1991-05-29,68.45,,,,,65,70,-72.5,70,,130,-135,135,135,,205
1,Youth,52,M,BD,Raw,Yes,Roman Girich,Роман Гирич,2008-06-16,32,,,,,20,-25,25,25,,50,55,60,60,,85
1,Teen 13-15,60,M,BD,Raw,Yes,Maksim Zubchevskiy,Максим Зубчевський,2004-02-27,58.6,,,,,55,65,70,70,,115,-125,125,125,,195
1,Teen 13-15,67.5,M,BD,Raw,Yes,Andriy Kobernik,Андрій Коберник,2002-12-06,63.45,,,,,65,-70,70,70,,135,150,155,155,,225
1,Teen 18-19,67.5,M,BD,Raw,Yes,Ruslan Ivanchik,Руслан Іванчик,1999-08-09,66.2,,,,,120,125,,125,,170,177.5,182.5,182.5,,307.5
1,Teen 16-17,75,M,BD,Raw,Yes,Mikola Polishchuk,Микола Поліщук,2000-12-19,73.1,,,,,90,100,-105,100,,160,175,-180,175,,275
1,Teen 18-19,75,M,BD,Raw,Yes,Bogdan Ben,Богдан Бень,1999-01-07,75,,,,,130,137.5,-142.5,137.5,,220,235,-250,235,,372.5
1,Juniors 20-23,75,M,BD,Raw,Yes,Oleksiy Kotov,Олексій Котов,1996-03-30,73.9,,,,,100,105,-107.5,105,,170,-182.5,182.5,182.5,,287.5
1,Juniors 20-23,82.5,M,BD,Raw,Yes,Vladislav Fartushniy,Владислав Фартушний,1997-08-03,79.25,,,,,95,105,-110,105,,210,220,230,230,,335
1,Open,82.5,M,BD,Raw,Yes,Oleksandr Pilipenko,Олександр Пилипенко,1994-04-17,79.4,,,,,115,122.5,-127.5,122.5,,200,-220,-220,200,,322.5
DQ,Open,82.5,M,BD,Raw,Yes,Volodimir Mikityuk,Володимир Микитюк,1994-01-15,80,,,,,135,,-145,135,,-200,-205,-205,,,
1,Masters 50-59,82.5,M,BD,Raw,Yes,Valeriy Lanko,Валерій Ланько,1965-01-25,80.75,,,,,135,-140,140,140,,175,185,190,190,,330
1,Teen 18-19,90,M,BD,Raw,Yes,Pavlo Prudskiy,Павло Прудський,1998-07-10,88.35,,,,,140,-152.5,-152.5,140,,220,235,-245,235,,375
1,Open,90,M,BD,Raw,Yes,Yuriy Yaremiy,Юрій Яремій,1993-05-14,88.35,,,,,-125,127.5,-130,127.5,,210,-220,,210,,337.5
1,Juniors 20-23,100,M,BD,Raw,Yes,Dmitro Nikolaev,Дмитро Ніколаєв,1996-09-11,98,,,,,145,155,-165,155,,260,280,300,300,,455
1,Open,100,M,BD,Raw,Yes,Eduard Gusev,Едуард Гусєв,1990-07-27,99.05,,,,,-135,145,155,155,,220,230,240,240,,395
2,Open,100,M,BD,Raw,Yes,Roman Radchuk,Роман Радчук,1989-08-30,99.8,,,,,130,140,-142.5,140,,150,180,190,190,,330
1,Masters 40-49,100,M,BD,Raw,Yes,Anton Naumovich,Антон Наумович,1977-10-25,92.4,,,,,112.5,117.5,120,120,,190,197.5,-207.5,197.5,,317.5
2,Masters 40-49,100,M,BD,Raw,Yes,Yuriy Bugaychuk,Юрій Бугайчук,1969-09-29,99.3,,,,,-100,100,-105,100,,155,165,-175,165,,265
DQ,Masters 40-49,100,M,BD,Raw,Yes,Sergiy Mironchuk,Сергій Мирончук,1974-06-23,95.6,,,,,-120,-120,-120,,,,,,,,
1,Open,110,M,BD,Raw,Yes,Sergiy Radcheko,Сергій Радчеко,1989-03-27,105.55,,,,,160,167.5,172.5,172.5,,220,240,260,260,,432.5
1,Masters 40-49,110,M,BD,Raw,Yes,Vyacheslav Karpenko,Вячеслав Карпенко,1975-05-28,108.9,,,,,-140,140,-150,140,,235,245,-250,245,,385
1,Masters 50-59,110,M,BD,Raw,Yes,Vitaliy Filonenko,Віталій Філоненко,1964-05-18,100.2,,,,,110,130,,130,,150,170,180,180,,310
1,Masters 60-69,110,M,BD,Raw,Yes,Viktor Stefanov,Віктор Стефанов,1948-11-02,101.6,,,,,80,85,-90,85,,150,155,160,160,,245
1,Open,125,M,BD,Raw,Yes,Igor Zaychuk,Ігор Зайчук,1989-12-02,114.25,,,,,200,210,,210,,300,320,-332.5,320,,530
1,Open,67.5,F,S,Wraps,Yes,Katerina Filipova,Катерина Філіпова,1984-06-25,64.4,117.5,122.5,125,125,,,,,,,,,,,125
1,Teen 16-17,52,M,S,Wraps,Yes,Andriy Kovalenko,Андрій Коваленко,2002-01-10,51.5,80,-90,-90,80,,,,,,,,,,,80
1,Teen 18-19,67.5,M,S,Wraps,Yes,Oleksandr Hushtyk,Олександр Гуштик,1998-12-30,65.35,190,202.5,-207.5,202.5,,,,,,,,,,,202.5
2,Teen 18-19,67.5,M,S,Wraps,Yes,Ruslan Ivanchik,Руслан Іванчик,1999-08-09,66.2,155,162.5,-167.5,162.5,,,,,,,,,,,162.5
1,Teen 18-19,75,M,S,Wraps,Yes,Mikhaylo Yurchenko,Михайло Юрченко,1999-01-02,74.6,225,-240,-240,225,,,,,,,,,,,225
1,Open,75,M,S,Wraps,Yes,Sergiy Kalchuk,Сергій Кальчук,1989-06-29,68.2,170,190,-200,190,,,,,,,,,,,190
DQ,Juniors 20-23,82.5,M,S,Wraps,Yes,Vladislav Fartushniy,Владислав Фартушний,1997-08-03,79.25,-200,-200,-200,,,,,,,,,,,,
1,Open,82.5,M,S,Wraps,Yes,Oleksandr Pilipenko,Олександр Пилипенко,1994-04-17,79.4,167.5,177.5,-185,177.5,,,,,,,,,,,177.5
1,Open,90,M,S,Wraps,Yes,Dmitro Goropakha,Дмитро Горопаха,1992-06-13,89.15,265,-280,285,285,,,,,,,,,,,285
1,Masters 50-59,90,M,S,Wraps,Yes,Gennadiy Ostrovskiy,Геннадій Островський,1965-01-08,87.65,187.5,-205,-205,187.5,,,,,,,,,,,187.5
DQ,Teen 18-19,100,M,S,Wraps,Yes,Yuriy Vatskovskiy,Юрій Вацковський,1999-12-07,94.6,-215,-215,-215,,,,,,,,,,,,
1,Open,100,M,S,Wraps,Yes,Dmitro Kornev,Дмитро Корнєв,1994-02-13,99.6,-190,190,200,200,,,,,,,,,,,200
1,Masters 40-49,100,M,S,Wraps,Yes,Anton Naumovich,Антон Наумович,1977-10-25,92.4,185,192.5,197.5,197.5,,,,,,,,,,,197.5
2,Masters 40-49,100,M,S,Wraps,Yes,Yuriy Nikolskiy,Юрій Нікольський,1975-12-23,92.3,170,-180,-185,170,,,,,,,,,,,170
1,Open,110,M,S,Wraps,Yes,Artem Karpovich,Артем Карпович,1993-08-05,107.85,220,-230,-230,220,,,,,,,,,,,220
1,Masters 60-69,110,M,S,Wraps,Yes,Viktor Stefanov,Віктор Стефанов,1948-11-02,101.6,160,-170,-170,160,,,,,,,,,,,160
1,Open,125,M,S,Wraps,Yes,Igor Zaychuk,Ігор Зайчук,1989-12-02,114.25,275,282.5,,282.5,,,,,,,,,,,282.5
1,Juniors 20-23,48,F,B,Raw,Yes,Karina Bakhtadze,Каріна Бахтадзе,1997-06-11,47.7,,,,,-40,-42.5,42.5,42.5,,,,,,,42.5
1,Open,48,F,B,Raw,Yes,Katerina Atamanska,Катерина Атаманська,1992-11-25,47.3,,,,,40,45,-47.5,45,,,,,,,45
1,Masters 40-49,52,F,B,Raw,Yes,Lyudmila Tranchenko,Людмила Транченко,1976-06-02,50.6,,,,,37.5,40,-42.5,40,,,,,,,40
1,Teen 13-15,56,F,B,Raw,Yes,Anastasiya Rudnichenko,Анастасія Рудніченко,2004-11-19,55.5,,,,,45,-50,-50,45,,,,,,,45
1,Teen 16-17,56,F,B,Raw,Yes,Diana Mogiley,Діана Могилей,2001-01-24,53.4,,,,,45,55,-60,55,,,,,,,55
1,Open,56,F,B,Raw,Yes,Oksana Storozhuk,Оксана Сторожук,1984-07-03,56,,,,,75,80,82.5,82.5,,,,,,,82.5
2,Open,56,F,B,Raw,Yes,Kseniya Pleva,Ксенія Плєва,1978-12-28,54.6,,,,,65,-72.5,72.5,72.5,,,,,,,72.5
3,Open,56,F,B,Raw,Yes,Nadiya Bilanchuk,Надія Біланчук,1989-03-20,54.7,,,,,52.5,-57.5,-57.5,52.5,,,,,,,52.5
4,Open,56,F,B,Raw,Yes,Nataliya Firsova,Наталія Фірсова,1966-10-16,55.3,,,,,50,52.5,-55,52.5,,,,,,,52.5
1,Masters 50-59,56,F,B,Raw,Yes,Nataliya Firsova,Наталія Фірсова,1966-10-16,55.3,,,,,50,52.5,-55,52.5,,,,,,,52.5
1,Open,60,F,B,Raw,Yes,Nataliya Sokurenko,Наталія Сокуренко,1981-01-12,56.75,,,,,72.5,75,-77.5,75,,,,,,,75
2,Open,60,F,B,Raw,Yes,Yuliya Vasilyuk,Юлія Василюк,1993-02-04,57.7,,,,,45,47.5,50,50,,,,,,,50
3,Open,60,F,B,Raw,Yes,Tetyana Adamenko,Тетяна Адаменко,1987-04-19,57.85,,,,,35,-40,-40,35,,,,,,,35
4,Masters 40-49,60,F,B,Raw,Yes,Nataliya Kolyada,Наталія Коляда,1976-04-27,59,,,,,-40,42.5,45,45,,,,,,,45
1,Teen 13-15,67.5,F,B,Raw,Yes,Renata Ignatova,Рената Ігнатова,2004-11-05,64.15,,,,,50,-52.5,52.5,52.5,,,,,,,52.5
1,Juniors 20-23,67.5,F,B,Raw,Yes,Katerina Kolesnik #1,Катерина Колеснік,1996-03-13,63.4,,,,,65,67.5,70,70,,,,,,,70
1,Open,67.5,F,B,Raw,Yes,Oksana Ostroushko,Оксана Остроушко,1982-06-26,61.35,,,,,60,62.5,65,65,,,,,,,65
2,Open,67.5,F,B,Raw,Yes,Katerina Filipova,Катерина Філіпова,1984-06-25,64.4,,,,,57.5,-62.5,-62.5,57.5,,,,,,,57.5
1,Open,75,F,B,Raw,Yes,Nadiya Tishchenko,Надія Тищенко,1993-09-30,69.65,,,,,100,105,107.5,107.5,,,,,,,107.5
2,Open,75,F,B,Raw,Yes,Yuliya Olizarenko,Юлія Олізаренко,1989-04-30,73.18,,,,,90,-95,-95,90,,,,,,,90
3,Open,75,F,B,Raw,Yes,Veronika Vishinska,Вероніка Вишинська,1990-08-05,71.6,,,,,50,52.5,55,55,,,,,,,55
1,Youth,52,M,B,Raw,Yes,Nikita Bosak,Нікіта Босак,2007-10-05,50.25,,,,,40,45,-47.5,45,,,,,,,45
2,Youth,52,M,B,Raw,Yes,Oleksandr Pavlik,Олександр Павлик,2008-01-21,29.3,,,,,20,25,-30,25,,,,,,,25
3,Youth,52,M,B,Raw,Yes,Stanislav Petrik,Станіслав Петрик,2012-07-06,29.3,,,,,-20,20,,20,,,,,,,20
1,Teen 16-17,52,M,B,Raw,Yes,Oleksandr Saulyak,Олександр Сауляк,2001-07-03,51.3,,,,,50,60,67.5,67.5,,,,,,,67.5
1,Teen 13-15,56,M,B,Raw,Yes,Andriy Sitnikov,Андрій Сітніков,2003-01-08,56,,,,,-57.5,60,-65,60,,,,,,,60
1,Open,56,M,B,Raw,Yes,Vitaliy Evtushok,Віталій Євтушок,1993-01-20,55.15,,,,,110,120,-127.5,120,,,,,,,120
1,Youth,67.5,M,B,Raw,Yes,Pavlo Blisko,Павло Блисько,2005-07-10,64,,,,,40,45,-50,45,,,,,,,45
2,Youth,67.5,M,B,Raw,Yes,Artur Shatokhin,Артур Шатохін,2006-08-31,67,,,,,30,35,40,40,,,,,,,40
DQ,Teen 13-15,67.5,M,B,Raw,Yes,Maksim Sidenko,Максим Сіденко,2003-09-09,63.5,,,,,-100,-100,-100,,,,,,,,
1,Teen 16-17,67.5,M,B,Raw,Yes,Sergiy Petrenko,Сергій Петренко,2000-09-12,65.85,,,,,110,115,120,120,,,,,,,120
1,Teen 18-19,67.5,M,B,Raw,Yes,Ruslan Ivanchik,Руслан Іванчик,1999-08-09,66.2,,,,,120,125,,125,,,,,,,125
2,Teen 18-19,67.5,M,B,Raw,Yes,Artem Danilyuk,Артем Данилюк,1999-11-25,64,,,,,-100,107.5,-110,107.5,,,,,,,107.5
1,Juniors 20-23,67.5,M,B,Raw,Yes,Oleksandr Poloz,Олександр Полоз,1994-10-02,66,,,,,90,100,105,105,,,,,,,105
1,Open,67.5,M,B,Raw,Yes,Bogdan Kosyanchuk,Богдан Косянчук,1988-03-28,67.2,,,,,120,127.5,130,130,,,,,,,130
2,Open,67.5,M,B,Raw,Yes,Dmitro Zmitruk,Дмитро Змитрук,1985-06-29,63.8,,,,,120,-125,-125,120,,,,,,,120
3,Open,67.5,M,B,Raw,Yes,Roman Golishev,Роман Голишев,1991-03-07,64.45,,,,,120,-127.5,-127.5,120,,,,,,,120
1,Teen 13-15,75,M,B,Raw,Yes,Denis Mamiko,Денис Мамико,2003-06-27,71.8,,,,,70,85,-95,85,,,,,,,85
1,Juniors 20-23,75,M,B,Raw,Yes,Evgeniy Boloban,Євгеній Болобан,1996-08-28,73.8,,,,,170,175,180,180,,,,,,,180
2,Juniors 20-23,75,M,B,Raw,Yes,Andriy Kurskiy,Андрій Курський,1996-02-02,72.45,,,,,117.5,122.5,125,125,,,,,,,125
3,Juniors 20-23,75,M,B,Raw,Yes,Ernest Igoshin,Ернест Ігошин,1998-01-09,73.3,,,,,117.5,-122.5,122.5,122.5,,,,,,,122.5
4,Juniors 20-23,75,M,B,Raw,Yes,Volodimir Buzhan,Володимир Бужан,1994-06-13,70.7,,,,,115,-120,-120,115,,,,,,,115
5,Juniors 20-23,75,M,B,Raw,Yes,Kirilo Lanoviy,Кирило Лановий,1995-09-28,74.15,,,,,110,-117.5,-117.5,110,,,,,,,110
1,Open,75,M,B,Raw,Yes,Yakiv Goldenberg,Яків Гольденберг,1964-01-06,74.4,,,,,140,147.5,150,150,,,,,,,150
2,Open,75,M,B,Raw,Yes,Valentin Nesin,Валентин Несин,1994-03-14,71.4,,,,,-135,140,145,145,,,,,,,145
3,Open,75,M,B,Raw,Yes,Kostyantin Gustera,Костянтин Густера,1993-12-10,73.85,,,,,135,142.5,145,145,,,,,,,145
4,Open,75,M,B,Raw,Yes,Danilo Bobko,Данило Бобко,1989-05-06,74.75,,,,,135,140,145,145,,,,,,,145
5,Open,75,M,B,Raw,Yes,Andriy Tsitson,Андрій Цицонь,1983-03-31,74.1,,,,,120,-127.5,-130,120,,,,,,,120
6,Open,75,M,B,Raw,Yes,Oleksandr Shevchuk,Олександр Шевчук,1992-05-29,75,,,,,100,117.5,-120,117.5,,,,,,,117.5
DQ,Open,75,M,B,Raw,Yes,Mikola Slyusarenko,Микола Слюсаренко,1986-03-31,73.38,,,,,-120,-120,-120,,,,,,,,
1,Masters 40-49,75,M,B,Raw,Yes,Evgen Sitnikov,Євген Ситніков,1973-01-08,75,,,,,-130,-130,130,130,,,,,,,130
1,Masters 50-59,75,M,B,Raw,Yes,Yakiv Goldenberg,Яків Гольденберг,1964-01-06,74.4,,,,,140,147.5,150,150,,,,,,,150
1,Teen 13-15,82.5,M,B,Raw,Yes,Kirilo Omelchenko,Кирило Омельченко,2002-09-19,82.3,,,,,97.5,102.5,107.5,107.5,,,,,,,107.5
1,Teen 16-17,82.5,M,B,Raw,Yes,Bogdan Korzhuk,Богдан Коржук,2001-10-10,77.5,,,,,55,65,75,75,,,,,,,75
1,Teen 18-19,82.5,M,B,Raw,Yes,Volodimir Tishchenko,Володимир Тищенко,1998-12-17,76.8,,,,,-160,-160,160,160,,,,,,,160
2,Teen 18-19,82.5,M,B,Raw,Yes,Anton Saykevich,Антон Сайкевич,1999-07-05,81.2,,,,,127.5,135,-140,135,,,,,,,135
1,Juniors 20-23,82.5,M,B,Raw,Yes,Roman Nikolin,Роман Ніколін,1994-12-05,80.8,,,,,157.5,162.5,167.5,167.5,,,,,,,167.5
2,Juniors 20-23,82.5,M,B,Raw,Yes,Vladislav Fartushniy,Владислав Фартушний,1997-08-03,79.25,,,,,95,105,-110,105,,,,,,,105
1,Open,82.5,M,B,Raw,Yes,Oleksandr Volkov,Олександр Волков,1985-06-14,79.35,,,,,175,183,-187.5,183,,,,,,,182.5
2,Open,82.5,M,B,Raw,Yes,Andriy Kultishev,Андрій Култишев,1988-09-26,81,,,,,155,-160,,155,,,,,,,155
3,Open,82.5,M,B,Raw,Yes,Rami Al Shaer,Рамі Аль Шаєр,1993-05-14,79,,,,,140,145,-150,145,,,,,,,145
4,Open,82.5,M,B,Raw,Yes,Ivan Vanin,Іван Ванін,1980-11-12,81.7,,,,,135,-145,-145,135,,,,,,,135
5,Open,82.5,M,B,Raw,Yes,Oleksandr Pilipenko,Олександр Пилипенко,1994-04-17,79.4,,,,,115,122.5,-127.5,122.5,,,,,,,122.5
6,Open,82.5,M,B,Raw,Yes,Oleksandr Patsalyuk,Олександр Пацалюк,1984-09-26,80.2,,,,,110,120,-127.5,120,,,,,,,120
DQ,Open,82.5,M,B,Raw,Yes,Roman Prikhodko,Роман Приходько,1994-01-20,80.25,,,,,-130,-135,-135,,,,,,,,
1,Masters 40-49,82.5,M,B,Raw,Yes,Taras Kolyada,Тарас Коляда,1976-04-26,82,,,,,110,-120,-120,110,,,,,,,110
2,Masters 40-49,82.5,M,B,Raw,Yes,Oleg Tkach,Олег Ткач,1977-04-05,81.5,,,,,90,-110,-110,90,,,,,,,90
1,Teen 18-19,90,M,B,Raw,Yes,Valeriy Galtsov,Валерій Гальцов,1999-03-02,88.8,,,,,-125,-125,125,125,,,,,,,125
1,Juniors 20-23,90,M,B,Raw,Yes,Evgeniy Lvovich,Євгеній Львович,1996-12-25,89.85,,,,,125,135,-140,135,,,,,,,135
2,Juniors 20-23,90,M,B,Raw,Yes,Daniil Krivtsun,Данііл Кривцун,1997-01-06,89.4,,,,,125,-132.5,132.5,132.5,,,,,,,132.5
DQ,Juniors 20-23,90,M,B,Raw,Yes,Roman Kuzmenko,Роман Кузьменко,1995-02-19,83.95,,,,,-152.5,-152.5,-152.5,,,,,,,,
1,Open,90,M,B,Raw,Yes,Viktor Borinets,Віктор Боринец,1989-07-15,89,,,,,190,195,-200,195,,,,,,,195
2,Open,90,M,B,Raw,Yes,Yuriy Totskiy,Юрій Тоцький,1976-09-07,87.45,,,,,170,180,-195,180,,,,,,,180
3,Open,90,M,B,Raw,Yes,Sergiy Kakhanchik,Сергій Каханчік,1989-05-02,88.7,,,,,170,-175,175,175,,,,,,,175
4,Open,90,M,B,Raw,Yes,Oleksandr Turbanist,Олександр Турбаніст,1988-08-12,86.5,,,,,165,172.5,-175,172.5,,,,,,,172.5
5,Open,90,M,B,Raw,Yes,Oleksandr Karvas,Олександр Карвась,1985-10-11,87.65,,,,,167.5,-175,-175,167.5,,,,,,,167.5
6,Open,90,M,B,Raw,Yes,Andriy Nesterenko,Андрій Нестеренко,1983-05-20,86.6,,,,,152.5,155,-160,155,,,,,,,155
7,Open,90,M,B,Raw,Yes,Oleksandr Klimenko #1,Олександр Кліменко,1991-08-19,88.35,,,,,142.5,147.5,-152.5,147.5,,,,,,,147.5
8,Open,90,M,B,Raw,Yes,Evgen Kitaygorodskiy,Євген Китайгородський,1989-02-13,85.4,,,,,135,145,-147.5,145,,,,,,,145
9,Open,90,M,B,Raw,Yes,Igor Artyukh,Ігор Артюх,1991-11-10,83.75,,,,,-132.5,135,140,140,,,,,,,140
DQ,Open,90,M,B,Raw,Yes,Oleg Murga,Олег Мурга,1991-06-10,88.1,,,,,-125,-125,-125,,,,,,,,
1,Masters 40-49,90,M,B,Raw,Yes,Yuriy Totskiy,Юрій Тоцький,1976-09-07,87.45,,,,,170,180,-195,180,,,,,,,180
2,Masters 40-49,90,M,B,Raw,Yes,Viktor Yatsenko,Віктор Яценко,1977-07-01,89.7,,,,,-145,-147.5,147.5,147.5,,,,,,,147.5
3,Masters 40-49,90,M,B,Raw,Yes,Viktor Poshtarenko,Віктор Поштаренко,1970-02-06,88.15,,,,,130,135,-140,135,,,,,,,135
4,Masters 40-49,90,M,B,Raw,Yes,Yuriy Stetsenko,Юрій Стеценко,1975-09-06,89.65,,,,,115,125,132.5,132.5,,,,,,,132.5
DQ,Masters 40-49,90,M,B,Raw,Yes,Ruslan Abbasov,Руслан Аббасов,1974-07-07,88,,,,,-160,-170,-170,,,,,,,,
1,Masters 50-59,90,M,B,Raw,Yes,Yuriy Digtyar,Юрій Дігтяр,1962-09-20,85.9,,,,,127.5,132.5,-135,132.5,,,,,,,132.5
2,Masters 50-59,90,M,B,Raw,Yes,Gennadiy Ostrovskiy,Геннадій Островський,1965-01-08,87.65,,,,,-117.5,122.5,130,130,,,,,,,130
3,Masters 50-59,90,M,B,Raw,Yes,Igor Plotnikov #1,Ігор Плотніков,1966-06-15,89.5,,,,,120,-125,-130,120,,,,,,,120
4,Masters 50-59,90,M,B,Raw,Yes,Bogdan Kavulich,Богдан Кавулич,1959-08-08,88.45,,,,,112.5,-120,-120,112.5,,,,,,,112.5
1,Teen 13-15,100,M,B,Raw,Yes,Mikola Sagan,Микола Саган,2002-07-13,98.6,,,,,140,-150,-150,140,,,,,,,140
1,Juniors 20-23,100,M,B,Raw,Yes,Mikola Kalinchik,Микола Калінчик,1994-05-22,96.9,,,,,155,-162.5,-162.5,155,,,,,,,155
1,Open,100,M,B,Raw,Yes,Volodimir Kutoviy,Володимир Кутовий,1972-07-29,98.8,,,,,187.5,197.5,-200,197.5,,,,,,,197.5
2,Open,100,M,B,Raw,Yes,Roman Radchuk,Роман Радчук,1989-08-30,99.8,,,,,130,140,-142.5,140,,,,,,,140
DQ,Open,100,M,B,Raw,Yes,Kostyantin Gustera,Костянтин Густера,1993-12-10,99.05,,,,,-135,,,,,,,,,,
1,Masters 40-49,100,M,B,Raw,Yes,Volodimir Kutoviy,Володимир Кутовий,1972-07-29,98.8,,,,,187.5,197.5,-200,197.5,,,,,,,197.5
2,Masters 40-49,100,M,B,Raw,Yes,Andriy Petruk,Андрій Петрук,1975-01-15,96.6,,,,,190,195,-197.5,195,,,,,,,195
3,Masters 40-49,100,M,B,Raw,Yes,Mikola Grigorovich,Микола Григорович,1969-12-22,94.5,,,,,122.5,127.5,-132.5,127.5,,,,,,,127.5
4,Masters 40-49,100,M,B,Raw,Yes,Yuriy Nikolskiy,Юрій Нікольський,1975-12-23,92.3,,,,,120,-130,,120,,,,,,,120
5,Masters 40-49,100,M,B,Raw,Yes,Yuriy Bugaychuk,Юрій Бугайчук,1969-09-29,99.3,,,,,-100,100,-105,100,,,,,,,100
DQ,Masters 40-49,100,M,B,Raw,Yes,Sergiy Mironchuk,Сергій Мирончук,1974-06-23,95.6,,,,,-120,-120,-120,,,,,,,,
1,Masters 50-59,100,M,B,Raw,Yes,Volodimir Kolomiets,Володимир Коломіець,1966-05-09,99.4,,,,,140,147.5,-152.5,147.5,,,,,,,147.5
1,Open,110,M,B,Raw,Yes,Sergiy Shepel,Сергій Шепель,1983-03-28,106.2,,,,,180,190,-200,190,,,,,,,190
2,Open,110,M,B,Raw,Yes,Sergiy Radcheko,Сергій Радчеко,1989-03-27,105.55,,,,,160,167.5,172.5,172.5,,,,,,,172.5
3,Open,110,M,B,Raw,Yes,Ivan Nigalatiy,Іван Нігалатій,1987-10-08,107.65,,,,,150,167.5,170,170,,,,,,,170
4,Open,110,M,B,Raw,Yes,Bogdan Birzul,Богдан Бірзул,1982-11-16,104.15,,,,,150,-167.5,-167.5,150,,,,,,,150
5,Open,110,M,B,Raw,Yes,Vyacheslav Teslyuk,Вячеслав Теслюк,1994-02-12,104.5,,,,,130,140,-147.5,140,,,,,,,140
1,Masters 40-49,110,M,B,Raw,Yes,Sergey Zakharov #1,Сергей Захаров,1977-12-17,101.9,,,,,150,157.5,-162.5,157.5,,,,,,,157.5
2,Masters 40-49,110,M,B,Raw,Yes,Igor Krikunov,Ігор Крікунов,1968-06-18,102,,,,,140,150,-160,150,,,,,,,150
3,Masters 40-49,110,M,B,Raw,Yes,Yuriy Guts,Юрій Гуць,1977-09-07,107.3,,,,,130,140,-142.5,140,,,,,,,140
4,Masters 40-49,110,M,B,Raw,Yes,Vyacheslav Karpenko,Вячеслав Карпенко,1975-05-28,108.9,,,,,-140,140,-150,140,,,,,,,140
5,Masters 40-49,110,M,B,Raw,Yes,Oleksiy Glatman,Олексій Глатман,1973-07-25,103.25,,,,,125,-132.5,132.5,132.5,,,,,,,132.5
1,Masters 50-59,110,M,B,Raw,Yes,Vitaliy Filonenko,Віталій Філоненко,1964-05-18,100.2,,,,,110,130,,130,,,,,,,130
1,Masters 60-69,110,M,B,Raw,Yes,Viktor Stefanov,Віктор Стефанов,1948-11-02,101.6,,,,,80,85,-90,85,,,,,,,85
1,Open,125,M,B,Raw,Yes,Igor Zaychuk,Ігор Зайчук,1989-12-02,114.25,,,,,200,210,,210,,,,,,,210
2,Open,125,M,B,Raw,Yes,Sergiy Filonenko,Сергій Філоненко,1965-11-11,123.4,,,,,190,-200,200,200,,,,,,,200
DQ,Masters 40-49,125,M,B,Raw,Yes,Anatoliy Pavelev,Анатолій Павельєв,1977-11-17,114.2,,,,,-115,-115,-120,,,,,,,,
1,Masters 50-59,125,M,B,Raw,Yes,Sergiy Filonenko,Сергій Філоненко,1965-11-11,123.4,,,,,190,-200,200,200,,,,,,,200
1,Open,140,M,B,Raw,Yes,Grigoriy Barannik,Григорій Бараннік,1990-05-09,129.5,,,,,165,-175,-175,165,,,,,,,165
1,Masters 60-69,140+,M,B,Raw,Yes,Sergiy Eletskiy,Сергій Єлєцький,1956-05-06,164,,,,,150,-160,-160,150,,,,,,,150
1,Open,56,F,B,Multi-ply,Yes,Olena Isaeva,Олена Ісаєва,1989-08-23,55,,,,,-77.5,82.5,-85,82.5,,,,,,,82.5
1,Open,90,M,B,Multi-ply,Yes,Evgen Cherevatiy,Євген Череватий,1988-08-27,87.65,,,,,-210,210,215,215,,,,,,,215
1,Juniors 20-23,52,F,D,Raw,Yes,Ganna Sivakova,Ганна Сівакова,1997-10-19,51.25,,,,,,,,,,110,120,130,130,,130
1,Masters 40-49,52,F,D,Raw,Yes,Lyudmila Tranchenko,Людмила Транченко,1976-06-02,50.6,,,,,,,,,,75,80,-82.5,80,,80
1,Teen 13-15,56,F,D,Raw,Yes,Yuliya Shulga,Юлія Шульга,2003-11-11,54.2,,,,,,,,,,55,-70,70,70,,70
2,Teen 13-15,56,F,D,Raw,Yes,Yana Radchenko,Яна Радченко,2002-11-06,54.1,,,,,,,,,,85,-87.5,-87.5,85,,85
1,Teen 16-17,56,F,D,Raw,Yes,Diana Mogiley,Діана Могилей,2001-01-24,56,,,,,,,,,,-50,50,75,75,,75
1,Open,56,F,D,Raw,Yes,Katerina Seleznova,Катерина Селезньова,1990-05-26,54.3,,,,,,,,,,82.5,-87.5,-87.5,82.5,,82.5
1,Masters 40-49,56,F,D,Raw,Yes,Svitlana Kravchenko,Світлана Кравченко,1971-05-11,54,,,,,,,,,,85,-90,90,90,,90
1,Open,60,F,D,Raw,Yes,Nataliya Sokurenko,Наталія Сокуренко,1981-01-12,56.75,,,,,,,,,,140,150,-155,150,,150
2,Open,60,F,D,Raw,Yes,Viktoriya Krupichevska,Вікторія Крупічевська,1993-01-18,60,,,,,,,,,,125,130,132.5,132.5,,132.5
3,Open,60,F,D,Raw,Yes,Tetyana Adamenko,Тетяна Адаменко,1987-04-19,57.85,,,,,,,,,,70,80,-90,80,,80
1,Masters 40-49,60,F,D,Raw,Yes,Nataliya Kolyada,Наталія Коляда,1976-04-27,59,,,,,,,,,,85,95,-100,95,,95
1,Open,67.5,F,D,Raw,Yes,Katerina Filipova,Катерина Філіпова,1984-06-25,64.4,,,,,,,,,,120,127.5,-140,127.5,,127.5
2,Open,67.5,F,D,Raw,Yes,Oksana Ostroushko,Оксана Остроушко,1982-06-26,61.35,,,,,,,,,,105,115,120,120,,120
1,Masters 40-49,67.5,F,D,Raw,Yes,Zhaneta Shostak,Жанета Шостак,1972-07-26,62.5,,,,,,,,,,75,82.5,-87.5,82.5,,82.5
1,Masters 50-59,67.5,F,D,Raw,Yes,Raїsa Salimova,Раїса Салімова,1967-03-13,67.5,,,,,,,,,,-100,110,-120,110,,110
1,Open,75,F,D,Raw,Yes,Yuliya Olizarenko,Юлія Олізаренко,1989-04-30,73.15,,,,,,,,,,145,150,-155,150,,150
2,Open,75,F,D,Raw,Yes,Veronika Vishinska,Вероніка Вишинська,1990-08-05,71.6,,,,,,,,,,100,110,117.5,117.5,,117.5
3,Open,75,F,D,Raw,Yes,Nelya Tovstopyat,Неля Товстопят,1987-01-29,71.5,,,,,,,,,,100,-110,110,110,,110
1,Teen 13-15,52,M,D,Raw,Yes,Vladislav Dolenko,Владислав Доленко,2004-02-11,49.4,,,,,,,,,,85,92.5,-100,92.5,,92.5
2,Teen 13-15,52,M,D,Raw,Yes,Vitaliy Reshetnik,Віталій Решетнік,2004-03-02,48.7,,,,,,,,,,60,70,85,85,,85
1,Teen 13-15,56,M,D,Raw,Yes,Nazariy Braun,Назарій Браун,2003-03-04,54.1,,,,,,,,,,70,80,90,90,,90
1,Teen 18-19,56,M,D,Raw,Yes,Bogdan Shulepov,Богдан Шулепов,2000-01-05,56,,,,,,,,,,140,145,147.5,147.5,,147.5
1,Youth,60,M,D,Raw,Yes,Ruslan Beketov,Руслан Бекетов,2006-08-18,58.6,,,,,,,,,,60,70,85,85,,85
1,Teen 18-19,60,M,D,Raw,Yes,Bogdan Tsatsuk,Богдан Цацук,1998-07-10,56.8,,,,,,,,,,160,165,167.5,167.5,,167.5
1,Open,60,M,D,Raw,Yes,Oleksiy Bibik,Олексій Бибик,1989-05-10,59,,,,,,,,,,160,185,190,190,,190
1,Teen 16-17,67.5,M,D,Raw,Yes,Maksim Melnik,Максим Мельник,2002-04-12,64.45,,,,,,,,,,140,170,180,180,,180
2,Teen 16-17,67.5,M,D,Raw,Yes,Igor Filyuk,Ігор Філюк,2001-11-06,63.4,,,,,,,,,,-150,150,-160,150,,150
1,Teen 18-19,67.5,M,D,Raw,Yes,Ruslan Ivanchik,Руслан Іванчик,1999-08-09,66.2,,,,,,,,,,170,177.5,182.5,182.5,,182.5
2,Teen 18-19,67.5,M,D,Raw,Yes,Stanislav Tsivina,Станіслав Цівина,2000-01-18,66.25,,,,,,,,,,150,-160,,150,,150
1,Juniors 20-23,67.5,M,D,Raw,Yes,Oleksandr Onischenko #2,Олександр Оніщенко,1996-03-05,65.2,,,,,,,,,,150,170,-195,170,,170
2,Juniors 20-23,67.5,M,D,Raw,Yes,Anton Kositsin,Антон Косіцин,1994-10-15,62.35,,,,,,,,,,160,165,-170,165,,165
1,Teen 18-19,75,M,D,Raw,Yes,Mikhaylo Yurchenko,Михайло Юрченко,1999-01-02,74.6,,,,,,,,,,245,-262.5,262.5,262.5,270,262.5
2,Teen 18-19,75,M,D,Raw,Yes,Bogdan Ben,Богдан Бень,1999-01-07,75,,,,,,,,,,220,235,-250,235,,235
3,Teen 18-19,75,M,D,Raw,Yes,Oleksandr Burmak,Олександр Бурмак,1999-05-26,71.3,,,,,,,,,,170,187.5,195,195,,195
4,Teen 18-19,75,M,D,Raw,Yes,Ivan Yur'ev,Іван Юр'єв,1998-05-07,71,,,,,,,,,,170,180,-190,180,,180
1,Juniors 20-23,75,M,D,Raw,Yes,Andriy Dubovik,Андрій Дубовик,1997-08-09,72.1,,,,,,,,,,207.5,-215,,207.5,,207.5
2,Juniors 20-23,75,M,D,Raw,Yes,Dmitro Dovgiy,Дмитро Довгий,1994-05-29,70.7,,,,,,,,,,170,182.5,-207.5,182.5,,182.5
3,Juniors 20-23,75,M,D,Raw,Yes,Oleksiy Kotov,Олексій Котов,1996-03-30,73.9,,,,,,,,,,170,-182.5,182.5,182.5,,182.5
1,Open,75,M,D,Raw,Yes,Artur Yushin,Артур Юшин,1993-12-23,73.25,,,,,,,,,,247.5,267.5,-277.5,267.5,,267.5
2,Open,75,M,D,Raw,Yes,Oleg Zhuchkov,Олег Жучков,1994-03-18,74,,,,,,,,,,250,-270,-270,250,,250
3,Open,75,M,D,Raw,Yes,Valentin Gontar,Валентин Гонтар,1987-09-26,73.4,,,,,,,,,,240,-250,-250,240,,240
4,Open,75,M,D,Raw,Yes,Vitaliy Belinskiy,Віталій Белінський,1991-08-07,71.9,,,,,,,,,,215,225,237.5,237.5,,237.5
5,Open,75,M,D,Raw,Yes,Yuriy Pozdnyakov,Юрій Поздняков,1989-07-17,71.9,,,,,,,,,,-172.5,175,-182.5,175,,175
6,Open,75,M,D,Raw,Yes,Oleksiy Voronkin,Олексій Воронкін,1985-12-10,73.8,,,,,,,,,,165,170,175,175,,175
1,Teen 16-17,82.5,M,D,Raw,Yes,Bogdan Korzhuk,Богдан Коржук,2001-10-10,77.5,,,,,,,,,,-130,130,145,145,,145
1,Juniors 20-23,82.5,M,D,Raw,Yes,Volodimir Galiga,Володимир Галига,1997-01-07,80.8,,,,,,,,,,220,240,250,250,,250
2,Juniors 20-23,82.5,M,D,Raw,Yes,Vladislav Fartushniy,Владислав Фартушний,1997-08-03,79.25,,,,,,,,,,210,220,230,230,,230
3,Juniors 20-23,82.5,M,D,Raw,Yes,Leonid Danilenko,Леонід Даниленко,1996-03-06,76.7,,,,,,,,,,170,180,200,200,,200
1,Open,82.5,M,D,Raw,Yes,Sergiy Kremeshniy,Сергій Кремешний,1979-01-14,78.4,,,,,,,,,,230,235,-242.5,235,,235
2,Open,82.5,M,D,Raw,Yes,Dmitro Dray,Дмитро Драй,1992-10-06,82.5,,,,,,,,,,-225,225,-230,225,,225
3,Open,82.5,M,D,Raw,Yes,Oleksandr Pilipenko,Олександр Пилипенко,1994-04-17,79.4,,,,,,,,,,200,-220,-222.5,200,,200
DD,Open,82.5,M,D,Raw,Yes,Vitaliy Pasechnik,Віталій Пасечник,1985-12-11,80.8,,,,,,,,,,265,282.5,290,290,,
1,Masters 50-59,82.5,M,D,Raw,Yes,Volodimir Galeta,Володимир Галета,1964-01-11,81.3,,,,,,,,,,155,165,-170,165,,165
1,Juniors 20-23,90,M,D,Raw,Yes,Oleksandr Pashkovets,Олександр Пашковець,1997-02-03,88.5,,,,,,,,,,245,252.5,-260,252.5,,252.5
2,Juniors 20-23,90,M,D,Raw,Yes,Oleg Litvinenko,Олег Литвиненко,1995-03-25,83.5,,,,,,,,,,210,222.5,230,230,,230
DQ,Juniors 20-23,90,M,D,Raw,Yes,Denis Musienko,Денис Мусієнко,1996-07-30,88.35,,,,,,,,,,-162.5,,,,,
1,Open,90,M,D,Raw,Yes,Vitaliy Markiv,Віталій Марків,1982-04-13,87.4,,,,,,,,,,255,262.5,270,270,,270
2,Open,90,M,D,Raw,Yes,Artem Skaletskiy,Артем Скалецький,1990-03-17,88.2,,,,,,,,,,230,247.5,-262.5,247.5,,247.5
3,Open,90,M,D,Raw,Yes,Oleg Litvinenko,Олег Литвиненко,1995-03-25,83.5,,,,,,,,,,210,222.5,230,230,,230
4,Open,90,M,D,Raw,Yes,Volodimir Koshel,Володимир Кошель,1987-04-24,85.95,,,,,,,,,,225,230,-240,230,,230
5,Open,90,M,D,Raw,Yes,Oleksiy Zhadko,Олексій Жадько,1991-03-30,88.9,,,,,,,,,,202.5,215,220,220,,220
6,Open,90,M,D,Raw,Yes,Volodimir Plyuta,Володимир Плюта,1992-03-01,84,,,,,,,,,,180,202.5,210,210,,210
7,Open,90,M,D,Raw,Yes,Yuriy Yaremiy,Юрій Яремій,1993-05-14,88.35,,,,,,,,,,210,-220,,210,,210
1,Masters 40-49,90,M,D,Raw,Yes,Viktor Poshtarenko,Віктор Поштаренко,1970-02-06,88.15,,,,,,,,,,150,180,210,210,,210
1,Masters 50-59,90,M,D,Raw,Yes,Gennadiy Ostrovskiy,Геннадій Островський,1965-01-08,87.65,,,,,,,,,,205,215,-220,215,,215
1,Teen 18-19,100,M,D,Raw,Yes,Artur Medvedev,Артур Медведєв,2000-04-17,98.5,,,,,,,,,,205,215,222.5,222.5,,222.5
1,Juniors 20-23,100,M,D,Raw,Yes,Dmitro Nikolaev,Дмитро Ніколаєв,1996-09-11,98,,,,,,,,,,260,280,300,300,,300
1,Open,100,M,D,Raw,Yes,Igor Klimov,Ігор Клімов,1989-12-24,97.7,,,,,,,,,,250,265,275,275,,275
2,Open,100,M,D,Raw,Yes,Oleksandr Drobilko,Олександр Дробілко,1972-11-14,90.1,,,,,,,,,,220,230,-232.5,230,,230
3,Open,100,M,D,Raw,Yes,Oleksiy Tsiryulik,Олексій Цирюлик,1994-01-07,96.5,,,,,,,,,,160,180,190,190,,190
1,Masters 40-49,100,M,D,Raw,Yes,Oleksandr Drobilko,Олександр Дробілко,1972-11-13,90.1,,,,,,,,,,220,230,-232.5,230,,230
2,Masters 40-49,100,M,D,Raw,Yes,Anton Naumovich,Антон Наумович,1977-10-25,92.4,,,,,,,,,,190,197.5,-202.5,197.5,,197.5
3,Masters 40-49,100,M,D,Raw,Yes,Sergiy Mironchuk,Сергій Мирончук,1974-06-23,95.6,,,,,,,,,,175,-200,-200,175,,175
4,Masters 40-49,100,M,D,Raw,Yes,Yuriy Bugaychuk,Юрій Бугайчук,1969-09-29,99.3,,,,,,,,,,155,165,-175,165,,165
1,Teen 16-17,110,M,D,Raw,Yes,Ruslan Klokun,Руслан Клокун,2001-05-16,101.9,,,,,,,,,,180,195,205,205,,205
1,Juniors 20-23,110,M,D,Raw,Yes,Illya Romanov,Ілля Романов,1994-07-20,106,,,,,,,,,,215,222.5,230,230,,230
DD,Juniors 20-23,110,M,D,Raw,Yes,Mikhaylo Savenko,Михайло Савенко,1996-04-25,103.6,,,,,,,,,,310,-320,-320,310,,
1,Open,110,M,D,Raw,Yes,Igor Tovstopyat,Ігор Товстопят,1991-01-12,105.7,,,,,,,,,,250,260,265,265,,265
2,Open,110,M,D,Raw,Yes,Sergiy Radchenko,Сергій Радченко,1989-03-27,105.55,,,,,,,,,,220,240,260,260,,260
3,Open,110,M,D,Raw,Yes,Artem Karpovich,Артем Карпович,1993-08-05,107.85,,,,,,,,,,230,-240,-240,230,,230
DD,Open,110,M,D,Raw,Yes,Mikhaylo Savenko,Михайло Савенко,1996-04-26,103.6,,,,,,,,,,310,-320,-320,310,,
1,Masters 40-49,110,M,D,Raw,Yes,Vyacheslav Karpenko,Вячеслав Карпенко,1975-05-28,108.9,,,,,,,,,,235,245,-250,245,,245
2,Masters 40-49,110,M,D,Raw,Yes,Igor Onishchak,Ігор Онищак,1973-06-12,104.6,,,,,,,,,,225,-240,-240,225,,225
1,Masters 50-59,110,M,D,Raw,Yes,Vitaliy Filonenko,Віталій Філоненко,1964-05-18,100.2,,,,,,,,,,150,170,180,180,,180
1,Masters 60-69,110,M,D,Raw,Yes,Viktor Stefanov,Віктор Стефанов,1948-11-02,101.6,,,,,,,,,,150,155,160,160,,160
1,Open,125,M,D,Raw,Yes,Igor Zaychuk,Ігор Зайчук,1989-12-02,114.25,,,,,,,,,,300,320,-332.5,320,,320
1,Masters 40-49,125,M,D,Raw,Yes,Anatoliy Pavelev,Анатолій Павельєв,1977-11-17,114.2,,,,,,,,,,190,205,215,215,,215
1,Open,140,M,D,Raw,Yes,Grigoriy Barannik,Григорій Бараннік,1990-05-09,129.5,,,,,,,,,,260,270,-280,270,,270
1,Juniors 20-23,75,M,D,Multi-ply,Yes,Volodimir Ivasyutin,Володимир Івасютин,1995-07-27,74.2,,,,,,,,,,215,222.5,225,225,,225
1,Open,100,M,D,Multi-ply,Yes,Ruslan Timoshenko,Руслан Тимошенко,1990-08-31,96.25,,,,,,,,,,-265,270,280,280,,280
1,Masters 40-49,82.5,M,B,Multi-ply,Yes,Fedor Gapchich,Федор Гапчич,1976-02-06,80.8,,,,,200,-220,,200,,,,,,,200
DQ,Open,100,M,B,Multi-ply,Yes,Andriy Goncharov,Андрій Гончаров,1981-01-31,98.95,,,,,-270,-270,-270,,,,,,,,
1,Masters 50-59,100,M,B,Multi-ply,Yes,Volodimir Kolomiets,Володимир Коломіець,1966-05-09,99.4,,,,,180,192.5,200,200,,,,,,,200
1,Masters 40-49,100,M,B,Multi-ply,Yes,Mikola Grigorovich,Микола Григорович,1969-12-22,100,,,,,140,-155,,140,,,,,,,140
1,Open,100+,M,B,Multi-ply,Yes,Vitaliy Chorniy,Віталій Чорний,1984-10-23,130.7,,,,,250,265,280,280,-300,,,,,,280
2,Open,100+,M,B,Multi-ply,Yes,Andriy Voloshinenko,Андрій Волошиненко,1980-08-03,117.7,,,,,205,215,217.5,217.5,,,,,,,217.5
1,Masters 40-49,100+,M,B,Multi-ply,Yes,Volodimir Khomenko,Володимир Хоменко,1973-12-05,109.8,,,,,215,-230,230,230,,,,,,,230
2,Masters 40-49,100+,M,B,Multi-ply,Yes,Oleksandr Khut'ko,Олександр Хутько,1968-11-01,124.4,,,,,200,220,225,225,,,,,,,225
1,Masters 50-59,100+,M,B,Multi-ply,Yes,Vitaliy Filonenko,Віталій Філоненко,1964-05-18,100.2,,,,,130,145,,145,,,,,,,145
DQ,Juniors 20-23,67.5,F,SBD,Wraps,No,Anastasiya Rebekevsha,Анастасія Ребекевша,1997-03-20,63.2,-95,95,-100,95,-60,-60,-60,,,,,,,,
1,Open,67.5,F,SBD,Wraps,No,Svitlana Glatman,Світлана Глатман,1981-09-05,64.15,135,142.5,147.5,147.5,65,70,-75,70,,135,145,152.5,152.5,,370
2,Open,67.5,F,SBD,Wraps,No,Yuliya Goleva,Юлія Голєва,1983-11-12,67.35,-100,100,105,105,65,-70,70,70,,120,130,140,140,,315
1,Juniors 20-23,82.5,F,SBD,Wraps,No,Anna Kashperska,Анна Кашперська,1994-10-01,76.95,190,-200,-200,190,110,115,-120,115,,170,190,200,200,,505
2,Juniors 20-23,82.5,F,SBD,Wraps,No,Anna Romanauskene,Анна Романаускене,1994-11-18,80,160,-170,170,170,90,100,-105,100,,160,170,-180,170,,440
1,Juniors 20-23,75,M,SBD,Wraps,No,Oleksiy Krokhmalenko,Олексій Крохмаленко,1997-05-07,74.4,200,212.5,220,220,120,132.5,-135,132.5,,200,220,,220,,572.5
1,Open,75,M,SBD,Wraps,No,Mikola Belozorov,Микола Белозьоров,1982-12-16,73.95,212.5,222.5,-227.5,222.5,-125,-125,125,125,,235,242.5,-250,242.5,,590
1,Juniors 20-23,82.5,M,SBD,Wraps,No,Artur Troyan,Артур Троян,1994-06-30,81,205,-215,-215,205,130,-140,-140,130,,200,-210,-210,200,,535
1,Open,82.5,M,SBD,Wraps,No,Evgen Konovalov,Євген Коновалов,1987-09-08,81.8,220,-230,-230,220,145,150,-155,150,,235,245,-250,245,,615
2,Open,82.5,M,SBD,Wraps,No,Ivan Chupriy,Іван Чупрій,1993-09-13,79.45,-160,160,165,165,125,130,-135,130,,165,175,190,190,,485
1,Open,90,M,SBD,Wraps,No,Dmitro Vorobey,Дмитро Воробей,1988-09-13,89.5,240,255,265,265,170,-180,-180,170,,270,-285,-285,270,,705
2,Open,90,M,SBD,Wraps,No,Vadim Yaroslavskiy,Вадим Ярославський,1984-06-05,89.7,240,-250,260,260,150,160,-170,160,,220,230,240,240,,660
3,Open,90,M,SBD,Wraps,No,Mikola Tishuk,Микола Тишук,1992-03-12,84.9,240,255,-262.5,255,155,162.5,-165,162.5,,250,-265,-287.5,250,,667.5
4,Open,90,M,SBD,Wraps,No,Ruslan Skirda,Руслан Скирда,1981-10-12,89.3,180,190,200,200,130,140,145,145,,230,240,250,250,,595
1,Teen 18-19,100,M,SBD,Wraps,No,Vitaliy Stets,Віталій Стець,1998-09-08,97.7,210,225,235,235,140,150,-152.5,150,,280,300,-306,300,,685
1,Juniors 20-23,100,M,SBD,Wraps,No,Sergiy Plotnikov,Сергій Плотніков,1995-01-08,99.8,260,-275,-285,260,180,190,-195,190,,255,265,267.5,267.5,,717.5
1,Open,100,M,SBD,Wraps,No,Viktor Rublyov,Віктор Рубльов,1975-10-26,99,260,270,275,275,170,-182.5,-182.5,170,,260,265,272.5,272.5,,717.5
2,Open,100,M,SBD,Wraps,No,Sergiy Plotnikov,Сергій Плотніков,1995-01-08,99.8,260,-275,-285,260,180,190,-195,190,,255,265,267.5,267.5,,717.5
3,Open,100,M,SBD,Wraps,No,Vitaliy Stets,Віталій Стець,1998-09-09,97.7,210,225,235,235,140,150,-152.5,150,,280,300,-306,300,,685
4,Open,100,M,SBD,Wraps,No,Oleksandr Shevtsov,Олександр Шевцов,1985-03-11,100,-275,275,-290,275,130,140,,140,,240,250,257.5,257.5,,672.5
5,Open,100,M,SBD,Wraps,No,Andriy Zemlyakov,Андрій Земляков,1991-02-10,96.6,225,237.5,245,245,180,-190,-190,180,,220,232.5,245,245,,670
6,Open,100,M,SBD,Wraps,No,Roman Soroka,Роман Сорока,1988-07-14,98.2,200,212.5,-220,212.5,-160,160,-170,160,,230,250,-255,250,,622.5
7,Open,100,M,SBD,Wraps,No,Sergiy Novokhatskiy,Сергій Новохацький,1982-10-23,93.6,210,220,-225,220,125,135,140,140,,210,220,235,235,,595
8,Open,100,M,SBD,Wraps,No,Vadim Mikityuk,Вадим Микитюк,1983-02-18,97.6,215,-225,-225,215,122.5,135,145,145,,200,210,220,220,,580
DQ,Open,100,M,SBD,Wraps,No,Dmitro Chumash,Дмитро Чумаш,1980-09-06,99.9,-260,-270,-270,,,,,,,240,,,240,,
1,Masters 40-49,100,M,SBD,Wraps,No,Viktor Rublyov,Віктор Рубльов,1975-10-26,99,260,270,275,275,170,-182.5,-182.5,170,,260,265,272.5,272.5,,717.5
2,Masters 40-49,100,M,SBD,Wraps,No,Evgeniy Yakovlev #1,Євгеній Яковлев,1975-11-12,96.3,220,-235,-240,220,-130,-130,130,130,,270,-285,,270,,620
1,Open,110,M,SBD,Wraps,No,Artem Turyanitsya,Артем Туряниця,1991-09-26,101.85,290,310,330,330,182.5,190,-195,190,,322.5,345,-352.5,345,,865
2,Open,110,M,SBD,Wraps,No,Maksim Ribalka,Максим Рибалка,1993-09-28,109.6,330,340,-350,340,177.5,-180,-180,177.5,,305,315,-320,315,,832.5
3,Open,110,M,SBD,Wraps,No,Evgeniy Rudnik,Євгеній Руднік,1978-03-01,108.9,300,-315,-320,300,200,210,-215,210,,292.5,305,-310,305,,815
1,Masters 40-49,110,M,SBD,Wraps,No,Evgeniy Rudnik,Євгеній Руднік,1978-03-01,108.9,300,-315,-320,300,200,210,-215,210,,292.5,305,-310,305,,815
2,Masters 40-49,110,M,SBD,Wraps,No,Andriy Bobilev,Андрій Бобилєв,1976-12-28,106.4,-250,250,-265,250,175,-185,-185,175,,250,-265,,250,,675
1,Masters 50-59,110,M,SBD,Wraps,No,Volodimir Lukyanov,Володимир Лук'янов,1966-02-18,101.1,-240,240,250,250,130,-140,,130,,250,260,,260,,640
1,Open,125,M,SBD,Wraps,No,Oleksandr Chernish,Олександр Черниш,1988-12-27,112.2,-290,300,315,315,205,215,-222.5,215,,270,290,300,300,,830
2,Open,125,M,SBD,Wraps,No,Igor Kotsyuba,Ігор Коцюба,1982-09-21,121.6,260,275,280,280,160,170,180,180,,230,250,270,270,,730
1,Open,140,M,SBD,Wraps,No,Sergiy Zimenko,Сергій Зименко,1990-12-26,132.5,300,-320,-320,300,180,190,-200,190,,300,310,320,320,,810
1,Open,90,M,BD,Raw,No,Evgeniy Lukyanov #1,Євгеній Лукьянов,1980-08-11,86.2,,,,,165,-170,-170,165,,220,230,-240,230,,395
1,Juniors 20-23,100,M,BD,Raw,No,Sergiy Plotnikov,Сергій Плотніков,1995-01-08,99.8,,,,,180,190,-195,190,,255,265,267.5,267.5,,457.5
1,Open,100,M,BD,Raw,No,Sergiy Plotnikov,Сергій Плотніков,1995-01-08,99.8,,,,,180,190,-195,190,,255,265,267.5,267.5,,457.5
2,Open,100,M,BD,Raw,No,Andriy Zemlyakov,Андрій Земляков,1991-02-10,96.6,,,,,180,-190,-190,180,,220,232.5,245,245,,425
3,Open,100,M,BD,Raw,No,Roman Soroka,Роман Сорока,1988-07-14,98.2,,,,,-160,160,-170,160,,230,250,-255,250,,410
1,Masters 40-49,100,M,BD,Raw,No,Yuriy Kostenko,Юрій Костенко,1971-07-28,99.4,,,,,172.5,180,-185,180,,250,267.5,280.5,280.5,,460.5
2,Masters 40-49,100,M,BD,Raw,No,Viktor Rublyov,Віктор Рубльов,1975-10-26,99,,,,,170,-182.5,-182.7,170,,260,265,277.5,277.5,,447.5
3,Masters 40-49,100,M,BD,Raw,No,Evgeniy Yakovlev #1,Євгеній Яковлев,1975-11-12,96.3,,,,,-130,-130,130,130,,270,-285,,270,,400
1,Open,110,M,BD,Raw,No,Artem Tkachenko,Артем Ткаченко,1991-05-10,108.8,,,,,235,242.5,-250,242.5,,250,275,-285,275,,517.5
1,Masters 50-59,110,M,BD,Raw,No,Volodimir Lukyanov,Володимир Лук'янов,1966-02-18,101.1,,,,,130,-140,,130,,250,260,,260,,390
1,Open,125,M,BD,Raw,No,Igor Kotsyuba,Ігор Коцюба,1982-09-21,121.6,,,,,160,170,180,180,,220,250,270,270,,450
1,Masters 40-49,110,M,BD,Multi-ply,No,Andriy Romanchuk,Андрій Романчук,1976-12-26,104.2,,,,,157.5,162.5,167.5,167.5,,280,290,,290,,457.5
1,Open,100,M,S,Wraps,No,Oleksandr Shevtsov,Олександр Шевцов,1985-03-11,100,-275,275,-290,275,,,,,,,,,,,275
2,Open,100,M,S,Wraps,No,Sergiy Novokhatskiy,Сергій Новохацький,1982-10-23,93.6,210,220,-225,220,,,,,,,,,,,220
3,Open,100,M,S,Wraps,No,Vadim Mikityuk,Вадим Микитюк,1983-02-18,97.6,215,-225,-225,215,,,,,,,,,,,215
DQ,Open,100,M,S,Wraps,No,Dmitro Chumash,Дмитро Чумаш,1980-09-06,99.9,-260,-270,-270,,,,,,,,,,,,
1,Masters 40-49,100,M,S,Wraps,No,Evgeniy Yakovlev #1,Євгеній Яковлев,1975-11-12,96.3,220,-235,-240,220,,,,,,,,,,,220
1,Open,125,M,S,Wraps,No,Oleksandr Chernish,Олександр Черниш,1988-12-27,112.2,-290,300,315,315,,,,,,,,,,,315
1,Masters 40-49,110,M,S,Wraps,No,Evgeniy Rudnik,Євгеній Руднік,1978-03-01,108.9,300,-315,-320,300,,,,,,,,,,,300
1,Masters 50-59,110,M,S,Wraps,No,Volodimir Lukyanov,Володимир Лук'янов,1966-02-18,101.1,-240,240,250,250,,,,,,,,,,,250
1,Open,125,M,S,Wraps,No,Igor Kotsyuba,Ігор Коцюба,1982-09-21,121.6,260,275,280,280,,,,,,,,,,,280
1,Open,75,M,B,Raw,No,Vitaliy Zaets,Віталій Заєць,1992-12-12,75,,,,,140,-145,150,150,,,,,,,150
2,Open,75,M,B,Raw,No,Oleksandr Romashchenko,Олександр Ромащенко,1992-12-12,74.6,,,,,130,-140,-145,130,,,,,,,130
1,Open,82.5,M,B,Raw,No,Pavlo Melnichenko,Павло Мельніченко,1989-11-01,82.5,,,,,175,180,182.5,182.5,,,,,,,182.5
2,Open,82.5,M,B,Raw,No,Vadim Marinich,Вадим Маринич,1981-08-29,82.2,,,,,175,180,-185,180,,,,,,,180
3,Open,82.5,M,B,Raw,No,Andriy Martinevich,Андрій Мартиневич,1993-11-27,81,,,,,140,150,-160,150,,,,,,,150
4,Open,82.5,M,B,Raw,No,Volodimir Filyuk,Володимир Філюк,1993-06-02,77.6,,,,,135,142.5,-150,142.5,,,,,,,142.5
1,Juniors 20-23,90,M,B,Raw,No,Bogdan Solomakha,Богдан Соломаха,1996-05-29,87.5,,,,,170,180,-192.5,180,,,,,,,180
1,Open,90,M,B,Raw,No,Oleksandr Kozachenko,Олександр Козаченко,1985-02-07,86.45,,,,,195,205,212.5,212.5,,,,,,,212.5
2,Open,90,M,B,Raw,No,Maksim Elskiy,Максим Єльський,1985-08-22,89.65,,,,,190,200,-212.5,200,,,,,,,200
3,Open,90,M,B,Raw,No,Bogdan Solomakha,Богдан Соломаха,1996-05-29,87.5,,,,,170,180,-192.5,180,,,,,,,180
4,Open,90,M,B,Raw,No,Vitaliy Gonetskiy,Віталій Гонецький,1978-08-07,88.3,,,,,160,170,175,175,,,,,,,175
5,Open,90,M,B,Raw,No,Evgeniy Lukyanov #1,Євгеній Лукьянов,1980-08-11,86.2,,,,,165,-170,-170,165,,,,,,,165
6,Open,90,M,B,Raw,No,Oleg Kravchenko,Олег Кравченко,1986-01-15,89.6,,,,,150,162.5,-167.5,162.5,,,,,,,162.5
7,Open,90,M,B,Raw,No,Igor Severin,Ігор Северин,1985-04-30,84,,,,,120,125,-130,125,,,,,,,125
1,Juniors 20-23,100,M,B,Raw,No,Sergiy Plotnikov,Сергій Плотніков,1995-01-08,99.8,,,,,180,190,-195,190,,,,,,,190
1,Open,100,M,B,Raw,No,Denis Bunchuk,Денис Бунчук,1989-07-09,99.25,,,,,235,245,250,250,,,,,,,250
2,Open,100,M,B,Raw,No,Maksim Potomkin,Максим Потьомкін,1993-08-30,96.55,,,,,-232.5,235,-245,235,,,,,,,235
3,Open,100,M,B,Raw,No,Igor Danilov #1,Ігор Данилов,1985-11-27,97,,,,,-210,210,-215,210,,,,,,,210
4,Open,100,M,B,Raw,No,Grigoriy Vezhnovets,Григорій Вежновець,1982-01-02,100,,,,,190,202.5,-212.5,202.5,,,,,,,202.5
5,Open,100,M,B,Raw,No,Sergiy Plotnikov,Сергій Плотніков,1995-01-08,99.8,,,,,180,190,-195,190,,,,,,,190
1,Masters 40-49,100,M,B,Raw,No,Andriy Romanko,Андрій Романко,1975-08-24,95.2,,,,,200,210,-215,210,,,,,,,210
2,Masters 40-49,100,M,B,Raw,No,Mikola Rubik,Микола Рубік,1972-12-20,97.2,,,,,160,170,-175,170,,,,,,,170
3,Masters 40-49,100,M,B,Raw,No,Viktor Rublyov,Віктор Рубльов,1975-10-26,99,,,,,170,-182.5,-182.5,170,,,,,,,170
4,Masters 40-49,100,M,B,Raw,No,Andriy Suprun,Андрій Супрун,1971-09-22,92.5,,,,,155,-162.5,,155,,,,,,,155
1,Masters 60-69,100,M,B,Raw,No,Oleksiy Krivchikov,Олексій Кривчиков,1948-07-19,97.3,,,,,115,-122.5,125,125,,,,,,,125
1,Open,110,M,B,Raw,No,Artem Tkachenko,Артем Ткаченко,1991-05-10,108.8,,,,,235,242.5,-250,242.5,,,,,,,242.5
2,Open,110,M,B,Raw,No,Dmitro Berest,Дмитро Берест,1985-07-02,108.5,,,,,227.5,230,232.5,232.5,,,,,,,232.5
1,Masters 40-49,110,M,B,Raw,No,Evgeniy Rudnik,Євгеній Руднік,1978-03-01,108.9,,,,,200,210,-215,210,,,,,,,210
2,Masters 40-49,110,M,B,Raw,No,Maksim Lyashenko,Максим Ляшенко,1975-03-30,105.4,,,,,160,170,180,180,,,,,,,180
3,Masters 40-49,110,M,B,Raw,No,Oleksandr Olizarenko,Олександр Олізаренко,1974-12-27,109.55,,,,,165,-172.5,-172.5,165,,,,,,,165
4,Masters 40-49,110,M,B,Raw,No,Valeriy Benko,Валерій Бенько,1974-03-03,109,,,,,-155,155,-160,155,,,,,,,155
1,Masters 50-59,110,M,B,Raw,No,Volodimir Lukyanov,Володимир Лук'янов,1966-02-18,101.1,,,,,130,-140,,130,,,,,,,130
1,Open,125,M,B,Raw,No,Oleksandr Tarasov,Олександр Тарасов,1991-10-27,118.3,,,,,207.5,217.5,222.5,222.5,,,,,,,222.5
2,Open,125,M,B,Raw,No,Sergiy Dyak,Сергій Дяк,1993-03-31,119.3,,,,,195,205,217.5,217.5,,,,,,,217.5
3,Open,125,M,B,Raw,No,Oleksandr Chernish,Олександр Черниш,1988-12-27,112.2,,,,,205,215,-222.5,215,,,,,,,215
4,Open,125,M,B,Raw,No,Volodimir Rindya,Володимир Риндя,1975-08-03,117,,,,,205,215,-225.5,215,,,,,,,215
5,Open,125,M,B,Raw,No,Mikhaylo Shchegolev,Михайло Щеголев,1986-05-31,120.1,,,,,195,-202.5,-202.5,195,,,,,,,195
6,Open,125,M,B,Raw,No,Maksim Kontsevoy,Максим Концевой,1985-03-04,121.9,,,,,175,-185,-190,175,,,,,,,175
7,Open,125,M,B,Raw,No,Igor Kotsyuba,Ігор Коцюба,1982-09-21,121.6,,,,,160,170,180,180,,,,,,,180
1,Masters 40-49,125,M,B,Raw,No,Volodimir Rindya,Володимир Риндя,1975-08-03,117,,,,,205,215,-225.5,215,,,,,,,215
1,Masters 40-49,140,M,B,Multi-ply,No,Mikhaylo Pitinov,Михайло Пітінов,1971-10-07,127.2,,,,,170,180,-190,180,,,,,,,180
1,Open,75,M,D,Raw,No,Mikola Belozorov,Микола Белозьоров,1982-12-16,73.95,,,,,,,,,,235,242.5,-250,242.5,,242.5
1,Open,82.5,M,D,Raw,No,Andriy Martinevich,Андрій Мартиневич,1993-11-27,81,,,,,,,,,,240,250,262.5,262.5,,262.5
2,Open,82.5,M,D,Raw,No,Evgen Konovalov,Євген Коновалов,1987-09-08,81.8,,,,,,,,,,235,245,-250,245,,245
3,Open,82.5,M,D,Raw,No,Sergiy Bogatirenko,Сергій Богатиренко,1991-11-15,81.5,,,,,,,,,,190,200,210,210,,210
1,Open,90,M,D,Raw,No,Dmitro Vorobey,Дмитро Воробей,1988-09-13,89.5,,,,,,,,,,270,-285,-285,270,,270
1,Juniors 20-23,100,M,D,Raw,No,Sergiy Plotnikov,Сергій Плотніков,1995-01-08,99.8,,,,,,,,,,255,265,267.5,267.5,,267.5
1,Open,100,M,D,Raw,No,Evgeniy Yakovlev #1,Євгеній Яковлев,1975-11-12,96.3,,,,,,,,,,270,-285,,270,,270
2,Open,100,M,D,Raw,No,Sergiy Plotnikov,Сергій Плотніков,1995-01-08,99.8,,,,,,,,,,255,265,267.5,267.5,,267.5
3,Open,100,M,D,Raw,No,Roman Soroka,Роман Сорока,1988-07-14,98.2,,,,,,,,,,230,250,-255,250,,250
4,Open,100,M,D,Raw,No,Sergiy Novokhatskiy,Сергій Новохацький,1982-10-23,93.6,,,,,,,,,,210,220,235,235,,235
5,Open,100,M,D,Raw,No,Vadim Mikityuk,Вадим Микитюк,1983-02-18,97.6,,,,,,,,,,200,210,220,220,,220
1,Masters 40-49,100,M,D,Raw,No,Yuriy Kostenko,Юрій Костенко,1971-07-28,99.4,,,,,,,,,,250,267.5,280.5,280.5,,280.5
2,Masters 40-49,100,M,D,Raw,No,Evgeniy Yakovlev #1,Євгеній Яковлев,1975-11-12,96.3,,,,,,,,,,270,-285,,270,,270
1,Open,110,M,D,Raw,No,Artem Turyanitsya,Артем Туряниця,1991-09-26,101.85,,,,,,,,,,322.5,345,-352.5,345,,345
2,Open,110,M,D,Raw,No,Jorge-Seidu Tologa,Жорж-Сейду Толога,1989-04-05,108.8,,,,,,,,,,330,340,-350,340,,340
3,Open,110,M,D,Raw,No,Maksim Ribalka,Максим Рибалка,1993-09-28,109.6,,,,,,,,,,305,315,-320,315,,315
1,Masters 40-49,110,M,D,Raw,No,Evgeniy Rudnik,Євгеній Руднік,1978-03-01,108.9,,,,,,,,,,292.5,305,-310,305,,305
1,Masters 50-59,110,M,D,Raw,No,Volodimir Lukyanov,Володимир Лук'янов,1966-02-18,101.1,,,,,,,,,,250,260,,260,,260
1,Open,125,M,D,Raw,No,Sergiy Dyak,Сергій Дяк,1993-03-31,119.3,,,,,,,,,,280,300,,300,,300
2,Open,125,M,D,Raw,No,Igor Kotsyuba,Ігор Коцюба,1982-09-21,121.6,,,,,,,,,,220,250,270,270,,270
1,Masters 40-49,110,M,D,Multi-ply,No,Andriy Romanchuk,Андрій Романчук,1976-12-26,104.2,,,,,,,,,,280,290,,290,,290
1,Open,100,M,B,Multi-ply,No,Igor Danilov #1,Ігор Данилов,1985-11-27,97,,,,,-250,250,270,270,,,,,,,270
1,Masters 40-49,100,M,B,Multi-ply,No,Yuriy Kostenko,Юрій Костенко,1971-07-28,99.4,,,,,210,230,240,240,,,,,,,240
1,Open,100+,M,B,Multi-ply,No,Dmitro Berest,Дмитро Берест,1985-07-02,108.5,,,,,-257.5,265,272.5,272.5,285,,,,,,272.5
2,Open,100+,M,B,Multi-ply,No,Igor Kotsyuba,Ігор Коцюба,1982-09-21,121.6,,,,,200,220,235,235,,,,,,,235
1,Masters 40-49,100+,M,B,Multi-ply,No,Andriy Romanchuk,Андрій Романчук,1976-12-26,104.2,,,,,180,195,205,205,,,,,,,205
