Place,Name,CyrillicName,Country,BirthDate,BodyweightKg,Squat1Kg,Squat2Kg,Squat3Kg,Squat4Kg,Bench1Kg,Bench2Kg,Bench3Kg,Bench4Kg,Deadlift1Kg,Deadlift2Kg,Deadlift3Kg,Deadlift4Kg,TotalKg,WeightClassKg,Division,Sex,Event,Equipment,Tested,Best3SquatKg,Best3BenchKg,Best3DeadliftKg,BirthYear
1,Mikhaylo Rimarchuk,Михайло Римарчук,Ukraine,2010-09-22,39.6,35,40,42.5,,27.5,-32.5,-32.5,,35,42.5,-47.5,,112.5,44,Amateur Children 8,M,SBD,Wraps,Yes,42.5,27.5,42.5,2010
1,Igor Rimarchuk,Ігор Римарчук,Ukraine,2004-02-20,70.1,35,,,,72.5,80,-82.5,,55,,,,170,75,Amateur Teen 13-15,M,SBD,Wraps,Yes,35,80,55,2004
1,Vladislav Vitko,Владислав Вітко,Ukraine,2001-03-24,52,97.5,-102.5,102.5,,65,70,-72.5,,117.5,125,127.5,,300,52,Amateur Teen 16-17,M,SBD,Wraps,Yes,102.5,70,127.5,2001
1,Nazariy Levitskiy,Назарій Левицький,Ukraine,2000-04-28,79.5,-165,165,-180,,120,125,-127.5,,195,202.5,207.5,,497.5,82.5,Amateur Teen 18-19,M,SBD,Wraps,Yes,165,125,207.5,2000
1,Evgen Seleznov,Євген Селезньов,Ukraine,1999-08-11,83.3,-170,175,180,,115,-120,-120,,190,200,207.5,,502.5,90,Amateur Teen 18-19,M,SBD,Wraps,Yes,180,115,207.5,1999
1,Bogdan Pavlishak,Богдан Павлишак,Ukraine,1995-04-24,72.9,165,175,180,,105,110,-112.5,,195,210,-222.5,,500,75,Amateur Juniors 20-23,M,SBD,Wraps,Yes,180,110,210,1995
2,Vasil Pavlishak,Василь Павлишак,Ukraine,1997-05-20,73.6,150,160,167.5,,95,100,-102.5,,185,195,-200,,462.5,75,Amateur Juniors 20-23,M,SBD,Wraps,Yes,167.5,100,195,1997
1,Oleksandr Nayden,Олександр Найден,Ukraine,1997-05-24,80.8,210,-220,220,,107.5,-115,115,,215,-225,-225,,550,82.5,Amateur Juniors 20-23,M,SBD,Wraps,Yes,220,115,215,1997
1,Valentin Grabovik,Валентин Грабовик,Ukraine,1998-01-19,87.5,120,140,155,,90,102.5,-110,,160,175,-185,,432.5,90,Amateur Juniors 20-23,M,SBD,Wraps,Yes,155,102.5,175,1998
1,Mikhaylo Rimarchuk,Михайло Римарчук,Ukraine,2010-09-22,39.6,35,40,42.5,,27.5,-32.5,-32.5,,35,42.5,-47.5,,112.5,44,Amateur Open,M,SBD,Wraps,Yes,42.5,27.5,42.5,2010
1,Bogdan Pavlishak,Богдан Павлишак,Ukraine,1995-04-24,72.9,165,175,180,,105,110,-112.5,,195,210,-222.5,,500,75,Amateur Open,M,SBD,Wraps,Yes,180,110,210,1995
2,Vasil Pavlishak,Василь Павлишак,Ukraine,1997-05-20,73.6,150,160,167.5,,95,100,-102.5,,185,195,-200,,462.5,75,Amateur Open,M,SBD,Wraps,Yes,167.5,100,195,1997
3,Igor Rimarchuk,Ігор Римарчук,Ukraine,2004-02-20,70.1,35,,,,72.5,80,-82.5,,55,,,,170,75,Amateur Open,M,SBD,Wraps,Yes,35,80,55,2004
1,Oleksandr Nayden,Олександр Найден,Ukraine,1997-05-24,80.8,210,-220,220,,107.5,-115,115,,215,-225,-225,,550,82.5,Amateur Open,M,SBD,Wraps,Yes,220,115,215,1997
2,Sergiy Shevchenko,Сергій Шевченко,Ukraine,1973-08-29,89.2,165,172.5,-180,,100,-110,-115,,167.5,177.5,-180,,450,90,Amateur Open,M,SBD,Wraps,Yes,172.5,100,177.5,1973
3,Yuriy Shirinskiy,Юрій Ширинський,Ukraine,1977-08-15,87.9,135,142.5,150,,115,120,-125,,170,-175,-175,,440,90,Amateur Open,M,SBD,Wraps,Yes,150,120,170,1977
4,Yaroslav Oleksin,Ярослав Олексин,Ukraine,1986-09-11,89.4,145,155,165,,112.5,-117.5,-117.5,,150,160,-167.5,,437.5,90,Amateur Open,M,SBD,Wraps,Yes,165,112.5,160,1986
5,Valentin Grabovik,Валентин Грабовик,Ukraine,1998-01-19,87.5,120,140,155,,90,102.5,-110,,160,175,-185,,432.5,90,Amateur Open,M,SBD,Wraps,Yes,155,102.5,175,1998
1,Kirilo Almaz,Кирило Алмаз,Ukraine,1994-09-01,97.9,210,220,-232.5,,137.5,142.5,147.5,,245,252.5,260,,627.5,100,Amateur Open,M,SBD,Wraps,Yes,220,147.5,260,1994
2,Dmitro Bogomaz,Дмитро Богомаз,Ukraine,1990-11-08,96,210,215,220,,137.5,145,150,,235,242.5,-250,,612.5,100,Amateur Open,M,SBD,Wraps,Yes,220,150,242.5,1990
3,Pavlo Ivashchenko,Павло Іващенко,Ukraine,1986-01-31,98.6,210,220,225,,135,142.5,147.5,,220,-230,230,,602.5,100,Amateur Open,M,SBD,Wraps,Yes,225,147.5,230,1986
5,Mikhaylo Lobov,Михайло Лобов,Ukraine,1978-01-29,100,207.5,217.5,,,137.5,142.5,-145,,220,232.5,-245,,592.5,100,Amateur Open,M,SBD,Wraps,Yes,217.5,142.5,232.5,1978
DD,Valeriy Oberemok,Валерій Оберемок,Ukraine,1993-07-22,96.5,190,-210,210,,125,132.5,-140,,230,252.5,,,,100,Amateur Open,M,SBD,Wraps,Yes,210,132.5,252.5,1993
1,Sergiy Gaydrikh,Сергій Гайдрих,Ukraine,1993-04-22,107.2,280,-290,-290,,165,170,-172.5,,280,-300,-300,,730,110,Amateur Open,M,SBD,Wraps,Yes,280,170,280,1993
2,Sergiy Bessel,Сергій Бессель,Ukraine,1984-12-27,106,245,255,260,,180,185,-190,,245,260,270,,715,110,Amateur Open,M,SBD,Wraps,Yes,260,185,270,1984
DQ,Oleksandr Kalkutin,Олександр Калкутін,Ukraine,1965-09-07,128,235,250,-260,,-140,-140,-140,,-210,,,,,140,Amateur Open,M,SBD,Wraps,Yes,250,,,1965
1,Oleg Brazhnik,Олег Бражник,Ukraine,1970-05-06,152.8,140,,,,100,,,,170,190,200,,440,140+,Amateur Open,M,SBD,Wraps,Yes,140,100,200,1970
1,Sergiy Bessel,Сергій Бессель,Ukraine,1984-12-27,106,245,255,260,,180,185,-190,,245,260,270,,715,110,Amateur Submasters 33-39,M,SBD,Wraps,Yes,260,185,270,1984
1,Yuriy Shirinskiy,Юрій Ширинський,Ukraine,1977-08-15,87.9,135,142.5,150,,115,120,-125,,170,-175,-175,,440,90,Amateur Masters 40-44,M,SBD,Wraps,Yes,150,120,170,1977
1,Mikhaylo Lobov,Михайло Лобов,Ukraine,1978-01-29,100,207.5,217.5,,,137.5,142.5,-145,,220,232.5,-245,,592.5,100,Amateur Masters 40-44,M,SBD,Wraps,Yes,217.5,142.5,232.5,1978
1,Sergiy Shevchenko,Сергій Шевченко,Ukraine,1973-08-29,89.2,165,172.5,-180,,100,-110,-115,,167.5,177.5,-180,,450,90,Amateur Masters 45-49,M,SBD,Wraps,Yes,172.5,100,177.5,1973
1,Oleg Brazhnik,Олег Бражник,Ukraine,1970-05-06,152.8,140,,,,100,,,,170,190,200,,440,140+,Amateur Masters 45-49,M,SBD,Wraps,Yes,140,100,200,1970
DQ,Oleksandr Kalkutin,Олександр Калкутін,Ukraine,1965-09-07,128,235,250,-260,,-140,-140,-140,,-210,,,,,140,Amateur Masters 50-54,M,SBD,Wraps,Yes,250,,,1965
1,Andriy Garadzha,Андрій Гараджа,Ukraine,1962-01-13,74.1,90,100,-110,,60,65,70,,110,120,130,,300,75,Amateur Masters 55-59,M,SBD,Wraps,Yes,100,70,130,1962
1,Kseniya Mukhachova,Ксенія Мухачова,Ukraine,2001-12-31,60,120,130,-140,,50,-55,57.5,,130,137.5,142.5,,330,60,Amateur Teen 16-17,F,SBD,Wraps,Yes,130,57.5,142.5,2001
1,Arina Oleynik,Аріна Олейник,Ukraine,1998-10-06,77.6,110,120,-130,,65,70,-75,,130,140,152.5,,342.5,82.5,Amateur Teen 18-19,F,SBD,Wraps,Yes,120,70,152.5,1998
1,Sevda Kondrashova,Севда Кондрашова,Ukraine,1995-01-23,51.7,75,82.5,-85,,45,50,52.5,,102.5,110,115,,250,52,Amateur Juniors 20-23,F,SBD,Wraps,Yes,82.5,52.5,115,1995
1,Olga Zaderyaka,Ольга Задеряка,Ukraine,1996-03-07,63,95,105,-110,,45,50,52.5,,-115,115,120,,277.5,67.5,Amateur Juniors 20-23,F,SBD,Wraps,Yes,105,52.5,120,1996
2,Diana Korobova,Діана Коробова,Ukraine,1994-11-22,64,90,100,105,,55,60,65,,90,-100,100,,270,67.5,Amateur Juniors 20-23,F,SBD,Wraps,Yes,105,65,100,1994
1,Nadiya Osaenko,Надія Осаєнко,Ukraine,1990-05-07,42.9,70,75,80,,32.5,35,37.5,,90,95,-100,,212.5,44,Amateur Open,F,SBD,Wraps,Yes,80,37.5,95,1990
1,Tetyana Stepatska,Тетяна Степацька,Ukraine,1989-11-29,47.9,115,-122.5,-122.5,,50,55,-57.5,,85,95,102.5,,272.5,48,Amateur Open,F,SBD,Wraps,Yes,115,55,102.5,1989
1,Ganna Panchenko,Ганна Панченко,Ukraine,1986-07-01,51,87.5,92.5,-97.5,,-47.5,-47.5,50,,-100,100,-110,,242.5,52,Amateur Open,F,SBD,Wraps,Yes,92.5,50,100,1986
1,Katerina Yarushina,Катерина Ярушина,Ukraine,1990-11-06,54,90,95,-100,,50,52.5,-55,,115,120,-125,,267.5,56,Amateur Open,F,SBD,Wraps,Yes,95,52.5,120,1990
2,Yana Tkachenko,Яна Ткаченко,Ukraine,1984-07-07,56,90,100,110,,47.5,52.5,-57.5,,90,97.5,102.5,,265,56,Amateur Open,F,SBD,Wraps,Yes,110,52.5,102.5,1984
3,Olga Martinyuk,Ольга Мартинюк,Ukraine,1991-07-16,54.2,70,77.5,82.5,,42.5,47.5,50,,95,105,112.5,,245,56,Amateur Open,F,SBD,Wraps,Yes,82.5,50,112.5,1991
1,Kseniya Mukhachova,Ксенія Мухачова,Ukraine,2001-12-31,60,120,130,-140,,50,-55,57.5,,130,137.5,142.5,,330,60,Amateur Open,F,SBD,Wraps,Yes,130,57.5,142.5,2001
2,Darina Kayuk,Дарина Каюк,Ukraine,1990-05-30,59.1,105,-110,112.5,,52.5,55,60,,125,130,135,,307.5,60,Amateur Open,F,SBD,Wraps,Yes,112.5,60,135,1990
3,Kapitalina Gushchina,Капітоліна Гущина,Ukraine,1982-11-25,57.5,100,107.5,-110,,57.5,60,62.5,,122.5,127.5,132.5,,302.5,60,Amateur Open,F,SBD,Wraps,Yes,107.5,62.5,132.5,1982
4,Olena Kuznetsova,Олена Кузнєцова,Ukraine,1992-06-25,59.8,100,-110,115,,45,50,-57.5,,125,135,-140,,300,60,Amateur Open,F,SBD,Wraps,Yes,115,50,135,1992
5,Anastasiya Abakunova,Анастасія Абакунова,Ukraine,1994-06-23,59.2,95,100,105,,45,50,55,,100,105,-110,,265,60,Amateur Open,F,SBD,Wraps,Yes,105,55,105,1994
6,Yuliya Chumaeva,Юлія Чумаєва,Ukraine,1973-04-17,59.3,82.5,92.5,100,,47.5,52.5,-55,,95,107.5,112.5,,265,60,Amateur Open,F,SBD,Wraps,Yes,100,52.5,112.5,1973
1,Irina Bozhko,Ірина Божко,Ukraine,1993-11-13,63,122.5,130,135,,60,65,67.5,,125,130,135,,337.5,67.5,Amateur Open,F,SBD,Wraps,Yes,135,67.5,135,1993
2,Olga Zaderyaka,Ольга Задеряка,Ukraine,1996-03-07,63,95,105,-110,,45,50,52.5,,-115,115,120,,277.5,67.5,Amateur Open,F,SBD,Wraps,Yes,105,52.5,120,1996
3,Diana Korobova,Діана Коробова,Ukraine,1994-11-22,64,90,100,105,,55,60,65,,90,-100,100,,270,67.5,Amateur Open,F,SBD,Wraps,Yes,105,65,100,1994
4,Irina Zhuravel,Ірина Журавель,Ukraine,1985-04-05,61,40,47.5,-52.5,,35,40,42.5,,55,-62.5,62.5,,152.5,67.5,Amateur Open,F,SBD,Wraps,Yes,47.5,42.5,62.5,1985
1,Anzhelika Antonova,Анжеліка Антонова,Ukraine,1969-02-18,75,60,70,80,,50,55,60,,70,90,105,,245,75,Amateur Open,F,SBD,Wraps,Yes,80,60,105,1969
2,Oksana Muzika,Оксана Музика,Ukraine,1969-11-25,68,35,,,,60,62.5,65,,55,,,,155,75,Amateur Open,F,SBD,Wraps,Yes,35,65,55,1969
1,Olena Boyko,Олена Бойко,Ukraine,1989-09-20,89.6,55,62.5,70,,40,47.5,52.5,,80,92.5,100,,222.5,90,Amateur Open,F,SBD,Wraps,Yes,70,52.5,100,1989
1,Yana Tkachenko,Яна Ткаченко,Ukraine,1984-07-07,56,90,100,110,,47.5,52.5,-57.5,,90,97.5,102.5,,265,56,Amateur Submasters 33-39,F,SBD,Wraps,Yes,110,52.5,102.5,1984
1,Larisa Kalyuzhna,Лариса Калюжна,Ukraine,1974-07-29,48,-60,60,75,,35,40,-42.5,,70,80,-90,,195,48,Amateur Masters 40-44,F,SBD,Wraps,Yes,75,40,80,1974
1,Yuliya Chumaeva,Юлія Чумаєва,Ukraine,1973-04-17,59.3,82.5,92.5,100,,47.5,52.5,-55,,95,107.5,112.5,,265,60,Amateur Masters 45-49,F,SBD,Wraps,Yes,100,52.5,112.5,1973
1,Olga Kritikova,Ольга Крітікова,Ukraine,1971-05-30,65.4,120,130,-140,,70,77.5,82.5,,120,130,135,,347.5,67.5,Amateur Masters 45-49,F,SBD,Wraps,Yes,130,82.5,135,1971
1,Anzhelika Antonova,Анжеліка Антонова,Ukraine,1969-02-18,75,60,70,80,,50,55,60,,70,90,105,,245,75,Amateur Masters 45-49,F,SBD,Wraps,Yes,80,60,105,1969
2,Oksana Muzika,Оксана Музика,Ukraine,1969-11-25,68,35,,,,60,62.5,65,,55,,,,155,75,Amateur Masters 45-49,F,SBD,Wraps,Yes,35,65,55,1969
1,Svitlana Zhadan,Світлана Жадан,Ukraine,1964-04-06,47.4,-50,50,55,,30,-35,35,,75,-80,80,,170,48,Amateur Masters 50-54,F,SBD,Wraps,Yes,55,35,80,1964
1,Yuliya Chumaeva,Юлія Чумаєва,Ukraine,1973-04-17,59.3,82.5,92.5,100,,47.5,52.5,-55,,95,107.5,112.5,,265,60,Amateur Military/Fire/Police,F,SBD,Wraps,Yes,100,52.5,112.5,1973
1,Denis Saevskiy,Денис Саєвський,Ukraine,1995-12-16,71.7,150,160,170,,100,105,110,,180,195,-205,,475,75,Pro Juniors 20-23,M,SBD,Wraps,No,170,110,195,1995
1,Nazariy Shargan,Назарій Шарган,Ukraine,1996-05-20,103.7,-220,220,-230,,160,170,-175,,260,275,-292.5,,665,110,Pro Juniors 20-23,M,SBD,Wraps,No,220,170,275,1996
1,Mikita Mitryukhin,Микита Мітрюхін,Ukraine,1997-10-31,132.5,-220,220,240,,180,190,-200,,270,280,-290,,710,140,Pro Juniors 20-23,M,SBD,Wraps,No,240,190,280,1997
1,Andriy Boyko,Андрій Бойко,Ukraine,1993-08-20,78.9,225,240,250,,120,125,130,,225,-240,-240,,605,82.5,Pro Open,M,SBD,Wraps,No,250,130,225,1993
2,Artem Timchenko,Артем Тимченко,Ukraine,1992-03-29,80.6,150,160,-167.5,,105,112.5,-120,,140,155,170,,442.5,82.5,Pro Open,M,SBD,Wraps,No,160,112.5,170,1992
1,Mikola Tishuk,Микола Тишук,Ukraine,1992-03-12,90,250,265,275,,157.5,162.5,165,,260,275,280,,720,90,Pro Open,M,SBD,Wraps,No,275,165,280,1992
1,Yukhim Stepatskiy,Юхим Степацький,Ukraine,1987-05-07,95.3,-230,230,250,,160,170,-180,,260,282.5,-290,,702.5,100,Pro Open,M,SBD,Wraps,No,250,170,282.5,1987
2,Viktor Rublyov,Віктор Рубльов,Ukraine,1975-10-26,99.2,-260,-270,270,,170,-180,-180,,250,260,-265,,700,100,Pro Open,M,SBD,Wraps,No,270,170,260,1975
1,Dmitro Gotlashov,Дмитро Готлашов,Ukraine,1985-06-29,108.4,280,300,-310,,160,165,170,,280,300,-310,,770,110,Pro Open,M,SBD,Wraps,No,300,170,300,1985
1,Oleksandr Desyatskiy,Олександр Десяцький,Ukraine,1976-11-24,125,-250,250,260,,190,205,215,220,280,-300,-300,,755,125,Pro Open,M,SBD,Wraps,No,260,215,280,1976
1,Dmitro Gotlashov,Дмитро Готлашов,Ukraine,1985-06-29,108.4,280,300,-310,,160,165,170,,280,300,-310,,770,110,Pro Submasters 33-39,M,SBD,Wraps,No,300,170,300,1985
1,Vyacheslav Vakhrushev,Вячеслав Вахрушев,Ukraine,1977-08-17,81.4,-175,180,-190,,125,130,135,,175,182.5,187.5,,502.5,82.5,Pro Masters 40-44,M,SBD,Wraps,No,180,135,187.5,1977
1,Viktor Rublyov,Віктор Рубльов,Ukraine,1975-10-26,99.2,-260,-270,270,,170,-180,-180,,250,260,-265,,700,100,Pro Open,M,SBD,Wraps,No,270,170,260,1975
1,Oleg Cherchel,,Moldova,1978-02-15,103.8,225,-245,245,,130,135,-137.5,,210,220,-227.5,,600,110,Pro Open,M,SBD,Wraps,No,245,135,220,1978
1,Oleksandr Desyatskiy,Олександр Десяцький,Ukraine,1976-11-24,125,-250,250,260,,190,205,215,220,280,-300,-300,,755,125,Pro Open,M,SBD,Wraps,No,260,215,280,1976
1,Andriy Boyko,Андрій Бойко,Ukraine,1993-08-20,78.9,225,240,250,,120,125,130,,225,-240,-240,,605,82.5,Pro Military/Fire/Police,M,SBD,Wraps,No,250,130,225,1993
1,Yukhim Stepatskiy,Юхим Степацький,Ukraine,1987-05-07,95.3,-230,230,250,,160,170,-180,,260,282.5,-290,,702.5,100,Pro Military/Fire/Police,M,SBD,Wraps,No,250,170,282.5,1987
1,Tetyana Brodetska,Тетяна Бродецька,Ukraine,1996-04-20,73.8,180,-190,-200,,85,90,97.5,-100,170,-180,-180,,447.5,75,Pro Juniors 20-23,F,SBD,Wraps,No,180,97.5,170,1996
1,Svitlana Glatman,Світлана Глатман,Ukraine,1981-09-05,64.2,135,145,155,,67.5,72.5,77.5,,140,150,160,,392.5,67.5,Pro Open,F,SBD,Wraps,No,155,77.5,160,1981
1,Nataliya Mavdrik,Наталія Мавдрик,Ukraine,1984-05-12,72.9,175,185,190,,105,110,115,,190,200,-205,,505,75,Pro Open,F,SBD,Wraps,No,190,115,200,1984
2,Tetyana Brodetska,Тетяна Бродецька,Ukraine,1996-04-20,73.8,180,-190,-200,,85,90,97.5,-100,170,-180,-180,,447.5,75,Pro Open,F,SBD,Wraps,No,180,97.5,170,1996
1,Nataliya Mavdrik,Наталія Мавдрик,Ukraine,1984-05-12,72.9,175,185,190,,105,110,115,,190,200,-205,,505,75,Pro Submasters 33-39,F,SBD,Wraps,No,190,115,200,1984
1,Dmitro Rozhanskiy,Дмитро Рожанський,Ukraine,2004-08-09,69.2,125,140,150,,72.5,80,-87.5,,130,145,160,,390,75,Pro Teen 13-15,M,SBD,Multi-ply,No,150,80,160,2004
1,Mikhaylo Rimarchuk,Михайло Римарчук,Ukraine,2010-09-22,39.6,,,,,27.5,-32.5,-32.5,,,,,,27.5,44,Amateur Children 8,M,B,Raw,Yes,,27.5,,2010
1,Artem Domkin,Артем Дьомкін,Ukraine,2005-11-02,53.9,,,,,45,47.5,-50,,,,,,47.5,56,Amateur Children 11-12,M,B,Raw,Yes,,47.5,,2005
1,Igor Rimarchuk,Ігор Римарчук,Ukraine,2004-02-20,70.1,,,,,72.5,80,-82.5,,,,,,80,75,Amateur Teen 13-15,M,B,Raw,Yes,,80,,2004
1,Danilo Trukhanov,Данило Труханов,Ukraine,2002-04-14,59.4,,,,,90,95,100,,,,,,100,60,Amateur Teen 16-17,M,B,Raw,Yes,,100,,2002
2,Vyacheslav Sereda,Вячеслав Середа,Ukraine,2001-08-28,58,,,,,-75,90,95,,,,,,95,60,Amateur Teen 16-17,M,B,Raw,Yes,,95,,2001
1,Volodimir Tyutyushkin,Володимир Тютюшкін,Ukraine,2001-07-24,74,,,,,170,175,180,-185,,,,,180,75,Amateur Teen 16-17,M,B,Raw,Yes,,180,,2001
1,Oleksandr Ovcharenko,Олександр Овчаренко,Ukraine,2001-01-30,84.2,,,,,115,-125,125,,,,,,125,90,Amateur Teen 16-17,M,B,Raw,Yes,,125,,2001
1,Denis Boyko,Денис Бойко,Ukraine,2000-04-05,69.5,,,,,-95,100,-110,,,,,,100,75,Amateur Teen 18-19,M,B,Raw,Yes,,100,,2000
1,Vasil Kovalchuk,Василь Ковальчук,Ukraine,1999-01-28,80.2,,,,,132.5,137.5,142.5,,,,,,142.5,82.5,Amateur Teen 18-19,M,B,Raw,Yes,,142.5,,1999
1,Petro Kalinovskiy,Петро Калиновський,Ukraine,1996-05-28,66.6,,,,,117.5,122.5,127.5,,,,,,127.5,67.5,Amateur Juniors 20-23,M,B,Raw,Yes,,127.5,,1996
1,Sergiy Afanasev,Сергій Афанасьєв,Ukraine,1994-12-28,75.9,,,,,150,-157.5,157.5,,,,,,157.5,82.5,Amateur Juniors 20-23,M,B,Raw,Yes,,157.5,,1994
2,Oleksandr Nayden,Олександр Найден,Ukraine,1997-05-24,80.8,,,,,107.5,-115,115,,,,,,115,82.5,Amateur Juniors 20-23,M,B,Raw,Yes,,115,,1997
1,Viktor Bordichev,Віктор Бордичев,Ukraine,1997-07-14,88.6,,,,,145,-150,-150,,,,,,145,90,Amateur Juniors 20-23,M,B,Raw,Yes,,145,,1997
2,Valentin Grabovik,Валентин Грабовик,Ukraine,1998-01-19,87.5,,,,,90,102.5,-110,,,,,,102.5,90,Amateur Juniors 20-23,M,B,Raw,Yes,,102.5,,1998
1,Yuriy Ivanishin,Юрій Іванишин,Ukraine,1996-05-05,107.8,,,,,155,162.5,-170,,,,,,162.5,110,Amateur Juniors 20-23,M,B,Raw,Yes,,162.5,,1996
1,Mikhaylo Rimarchuk,Михайло Римарчук,Ukraine,2010-09-22,39.6,,,,,27.5,-32.5,-32.5,,,,,,27.5,44,Amateur Open,M,B,Raw,Yes,,27.5,,2010
1,Yuliya Siruk,Юлія Сірук,Ukraine,1992-11-03,55.8,,,,,35,37.5,40,,,,,,40,56,Amateur Open,M,B,Raw,Yes,,40,,1992
1,Makhmud Khridin,Махмуд Хридин,Ukraine,1994-08-18,67.5,,,,,65,72.5,77.5,,,,,,77.5,67.5,Amateur Open,M,B,Raw,Yes,,77.5,,1994
1,Volodimir Tyutyushkin,Володимир Тютюшкін,Ukraine,2001-07-24,74,,,,,170,175,180,-185,,,,,180,75,Amateur Open,M,B,Raw,Yes,,180,,2001
2,Sergiy Melnik,Сергій Мельник,Ukraine,1982-02-10,70.4,,,,,125,130,135,,,,,,135,75,Amateur Open,M,B,Raw,Yes,,135,,1982
3,Igor Rimarchuk,Ігор Римарчук,Ukraine,2004-02-20,70.1,,,,,72.5,80,-82.5,,,,,,80,75,Amateur Open,M,B,Raw,Yes,,80,,2004
4,Sergiy Belimenko,Сергій Беліменко,Ukraine,1989-10-13,72.4,,,,,75,-80,-80,,,,,,75,75,Amateur Open,M,B,Raw,Yes,,75,,1989
2,Oleksiy Prudnikov,Олексій Прудніков,Ukraine,1983-07-14,82,,,,,137.5,-145,-145,,,,,,137.5,82.5,Amateur Open,M,B,Raw,Yes,,137.5,,1983
3,Artem Oliynik,Артем Олійник,Ukraine,1990-05-07,81.7,,,,,110,115,117.5,,,,,,117.5,82.5,Amateur Open,M,B,Raw,Yes,,117.5,,1990
4,Dmitro Bilobrov,Дмитро Білобров,Ukraine,1988-12-15,77.2,,,,,-100,100,105,,,,,,105,82.5,Amateur Open,M,B,Raw,Yes,,105,,1988
5,Dmitro Prikhodko,Дмитро Приходько,Ukraine,1991-09-19,81.2,,,,,90,92.5,-97.5,,,,,,92.5,82.5,Amateur Open,M,B,Raw,Yes,,92.5,,1991
1,Oleksandr Klimenko,Олександр Кліменко,Ukraine,1990-03-03,82.8,,,,,150,155,160,,,,,,160,90,Amateur Open,M,B,Raw,Yes,,160,,1990
2,Yuriy Pets,Юрій Пець,Ukraine,1988-04-07,83.3,,,,,155,157.5,-160,,,,,,157.5,90,Amateur Open,M,B,Raw,Yes,,157.5,,1988
3,Igor Zagorskiy,Ігор Загорський,Ukraine,1988-06-10,86,,,,,120,130,-135,,,,,,130,90,Amateur Open,M,B,Raw,Yes,,130,,1988
4,Oleksandr Ovcharenko,Олександр Овчаренко,Ukraine,2001-01-30,84.2,,,,,115,-125,125,,,,,,125,90,Amateur Open,M,B,Raw,Yes,,125,,2001
5,Valentin Grabovik,Валентин Грабовик,Ukraine,1998-01-19,87.5,,,,,90,102.5,-110,,,,,,102.5,90,Amateur Open,M,B,Raw,Yes,,102.5,,1998
1,Sergiy Kurazhenko,Сергій Кураженко,Ukraine,1985-03-21,97.1,,,,,160,170,-175,,,,,,170,100,Amateur Open,M,B,Raw,Yes,,170,,1985
2,Volodimir Brizhenyuk,Володимир Бриженюк,Ukraine,1987-05-30,99.7,,,,,165,170,-175,,,,,,170,100,Amateur Open,M,B,Raw,Yes,,170,,1987
3,Oleksiy Shulgin,Олексій Шульгін,Ukraine,1984-10-18,99.6,,,,,160,165,-170,,,,,,165,100,Amateur Open,M,B,Raw,Yes,,165,,1984
4,Maksim Zhuravel,Максим Журавель,Ukraine,1987-11-18,98.1,,,,,150,157.5,160,,,,,,160,100,Amateur Open,M,B,Raw,Yes,,160,,1987
5,Ruslan Kuyan,Руслан Куян,Ukraine,1987-07-04,95.9,,,,,155,-160,,,,,,,155,100,Amateur Open,M,B,Raw,Yes,,155,,1987
1,V'yacheslav Telyura,В'ячеслав Телюра,Ukraine,1967-03-20,109.7,,,,,195,-200,-200,,,,,,195,110,Amateur Open,M,B,Raw,Yes,,195,,1967
2,Sergiy Bessel,Сергій Бессель,Ukraine,1984-12-27,106,,,,,180,185,-190,,,,,,185,110,Amateur Open,M,B,Raw,Yes,,185,,1984
1,Sergiy Shumskiy,Сергій Шумський,Ukraine,1985-04-05,118.9,,,,,160,172.5,175,,,,,,175,125,Amateur Open,M,B,Raw,Yes,,175,,1985
2,Viktor Bozhukha,Віктор Божуха,Ukraine,1978-09-06,111.7,,,,,160,165,-172.5,,,,,,165,125,Amateur Open,M,B,Raw,Yes,,165,,1978
3,Andriy Danilyuk,Андрій Данилюк,Ukraine,1982-06-01,111.4,,,,,-140,140,-150,,,,,,140,125,Amateur Open,M,B,Raw,Yes,,140,,1982
1,Oleksandr Kalkutin,Олександр Калкутін,Ukraine,1965-09-07,128,,,,,130,-140,-140,,,,,,130,140,Amateur Open,M,B,Raw,Yes,,130,,1965
2,Oleksandr Tolmachov,Олександр Толмачов,Ukraine,1974-05-23,129,,,,,110,115,-120,,,,,,115,140,Amateur Open,M,B,Raw,Yes,,115,,1974
1,Oleg Brazhnik,Олег Бражник,Ukraine,1970-05-06,152.8,,,,,100,,,,,,,,100,140+,Amateur Open,M,B,Raw,Yes,,100,,1970
1,Mikhaylo Bugremenko,Михайло Бугременко,Ukraine,1979-05-13,79.9,,,,,135,142.5,-150,,,,,,142.5,82.5,Amateur Submasters 33-39,M,B,Raw,Yes,,142.5,,1979
2,Dmitro Romanenko,Дмитро Романенко,Ukraine,1983-09-22,80.7,,,,,112.5,-120,-125,,,,,,112.5,82.5,Amateur Submasters 33-39,M,B,Raw,Yes,,112.5,,1983
1,Dmitro Tsilyurik,Дмитро Цилюрик,Ukraine,1981-12-13,89.8,,,,,135,140,145,,,,,,145,90,Amateur Submasters 33-39,M,B,Raw,Yes,,145,,1981
2,Ivan Vanin,Іван Ванін,Ukraine,1980-11-12,83.7,,,,,135,140,-150,,,,,,140,90,Amateur Submasters 33-39,M,B,Raw,Yes,,140,,1980
1,Sergiy Kurazhenko,Сергій Кураженко,Ukraine,1985-03-21,97.1,,,,,160,170,-175,,,,,,170,100,Amateur Submasters 33-39,M,B,Raw,Yes,,170,,1985
2,Oleksiy Shulgin,Олексій Шульгін,Ukraine,1984-10-18,99.6,,,,,160,165,-170,,,,,,165,100,Amateur Submasters 33-39,M,B,Raw,Yes,,165,,1984
1,Andriy Danilyuk,Андрій Данилюк,Ukraine,1982-06-01,111.4,,,,,-140,140,-150,,,,,,140,125,Amateur Submasters 33-39,M,B,Raw,Yes,,140,,1982
DQ,Vladislav Trotsenko,Владислав Троценко,Ukraine,1976-10-10,80.8,,,,,-105,-105,-105,,,,,,,82.5,Amateur Masters 40-44,M,B,Raw,Yes,,,,1976
1,V'yacheslav Bevzyuk,В'ячеслав Бевзюк,Ukraine,1975-07-02,86.7,,,,,140,-142.5,142.5,,,,,,142.5,90,Amateur Masters 40-44,M,B,Raw,Yes,,142.5,,1975
1,Viktor Bozhukha,Віктор Божуха,Ukraine,1978-09-06,111.7,,,,,160,165,-172.5,,,,,,165,125,Amateur Masters 40-44,M,B,Raw,Yes,,165,,1978
1,Oleksandr Tolmachov,Олександр Толмачов,Ukraine,1974-05-23,129,,,,,110,115,-120,,,,,,115,140,Amateur Masters 40-44,M,B,Raw,Yes,,115,,1974
1,Oleksandr Kashinskiy,Олександр Кашинський,Ukraine,1972-12-09,99.8,,,,,170,180,-185,,,,,,180,100,Amateur Masters 45-49,M,B,Raw,Yes,,180,,1972
1,Oleg Brazhnik,Олег Бражник,Ukraine,1970-05-06,152.8,,,,,100,,,,,,,,100,140+,Amateur Masters 45-49,M,B,Raw,Yes,,100,,1970
1,Sergiy Yakovenko,Сергій Яковенко,Ukraine,1966-12-06,89.7,,,,,140,-147.5,-152.5,,,,,,140,90,Amateur Masters 50-54,M,B,Raw,Yes,,140,,1966
1,V'yacheslav Telyura,В'ячеслав Телюра,Ukraine,1967-03-20,109.7,,,,,195,-200,-200,,,,,,195,110,Amateur Masters 50-54,M,B,Raw,Yes,,195,,1967
1,Oleksandr Kalkutin,Олександр Калкутін,Ukraine,1965-09-07,128,,,,,130,-140,-140,,,,,,130,140,Amateur Masters 50-54,M,B,Raw,Yes,,130,,1965
1,Igor Orlov #2,Ігор Орлов,Ukraine,1959-12-24,96,,,,,100,-110,-110,,,,,,100,100,Amateur Masters 55-59,M,B,Raw,Yes,,100,,1959
1,Sergiy Marushkin,Сергій Марушкін,Ukraine,1992-12-09,80,,,,,125,132.5,-140,,,,,,132.5,82.5,Amateur Military/Fire/Police,M,B,Raw,Yes,,132.5,,1992
2,Dmitro Romanenko,Дмитро Романенко,Ukraine,1983-09-22,80.7,,,,,112.5,-120,-125,,,,,,112.5,82.5,Amateur Military/Fire/Police,M,B,Raw,Yes,,112.5,,1983
1,Veronika Korolova,Вероніка Корольова,Ukraine,2006-01-26,43.4,,,,,-35,35,37.5,,,,,,37.5,44,Amateur Children 11-12,F,B,Raw,Yes,,37.5,,2006
1,Orina Borovkova,Оріна Боровкова,Ukraine,2002-04-17,55.2,,,,,60,62.5,-65,,,,,,62.5,56,Amateur Teen 16-17,F,B,Raw,Yes,,62.5,,2002
1,Anastasiya Telyatnikova,Анастасія Телятнікова,Ukraine,2000-07-20,55.2,,,,,40,45,-47.5,,,,,,45,56,Amateur Teen 18-19,F,B,Raw,Yes,,45,,2000
1,Karina Bakhtadze,Каріна Бахтадзе,Ukraine,1997-06-11,48,,,,,42.5,-50,-50,,,,,,42.5,48,Amateur Juniors 20-23,F,B,Raw,Yes,,42.5,,1997
1,Sevda Kondrashova,Севда Кондрашова,Ukraine,1995-01-23,51.7,,,,,45,50,52.5,,,,,,52.5,52,Amateur Juniors 20-23,F,B,Raw,Yes,,52.5,,1995
1,Valeriya Tsyuprik,Валерія Цюприк,Ukraine,1995-11-08,54.5,,,,,50,52.5,55,,,,,,55,56,Amateur Juniors 20-23,F,B,Raw,Yes,,55,,1995
1,Margarita Kasparova,Маргарита Каспарова,Ukraine,1995-02-28,59.8,,,,,55,60,-65,,,,,,60,60,Amateur Juniors 20-23,F,B,Raw,Yes,,60,,1995
1,Olga Zaderyaka,Ольга Задеряка,Ukraine,1996-03-07,63,,,,,45,50,52.5,,,,,,52.5,67.5,Amateur Juniors 20-23,F,B,Raw,Yes,,52.5,,1996
1,Oksana Motrunchik,Оксана Мотрунчик,Ukraine,1992-08-06,47.1,,,,,52.5,-57.5,57.5,,,,,,57.5,48,Amateur Open,F,B,Raw,Yes,,57.5,,1992
2,Tetyana Stepatska,Тетяна Степацька,Ukraine,1989-11-29,47.9,,,,,50,55,-57.5,,,,,,55,48,Amateur Open,F,B,Raw,Yes,,55,,1989
1,Katerina Yarushina,Катерина Ярушина,Ukraine,1990-11-06,54,,,,,50,52.5,-55,,,,,,52.5,56,Amateur Open,F,B,Raw,Yes,,52.5,,1990
2,Yana Tkachenko,Яна Ткаченко,Ukraine,1984-07-07,56,,,,,47.5,52.5,-57.5,,,,,,52.5,56,Amateur Open,F,B,Raw,Yes,,52.5,,1984
1,Kapitalina Gushchina,Капітоліна Гущина,Ukraine,1982-11-25,57.5,,,,,57.5,60,62.5,,,,,,62.5,60,Amateur Open,F,B,Raw,Yes,,62.5,,1982
2,Yuliya Chumaeva,Юлія Чумаєва,Ukraine,1973-04-17,59.3,,,,,47.5,52.5,-55,,,,,,52.5,60,Amateur Open,F,B,Raw,Yes,,52.5,,1973
1,Irina Zhuravel,Ірина Журавель,Ukraine,1985-04-05,61,,,,,35,40,42.5,,,,,,42.5,67.5,Amateur Open,F,B,Raw,Yes,,42.5,,1985
1,Oksana Muzika,Оксана Музика,Ukraine,1969-11-25,68,,,,,60,62.5,65,,,,,,65,75,Amateur Open,F,B,Raw,Yes,,65,,1969
2,Anzhelika Antonova,Анжеліка Антонова,Ukraine,1969-02-18,75,,,,,50,55,60,,,,,,60,75,Amateur Open,F,B,Raw,Yes,,60,,1969
1,Olena Boyko,Олена Бойко,Ukraine,1989-09-20,89.6,,,,,40,47.5,52.5,,,,,,52.5,90,Amateur Open,F,B,Raw,Yes,,52.5,,1989
1,Yana Tkachenko,Яна Ткаченко,Ukraine,1984-07-07,56,,,,,47.5,52.5,-57.5,,,,,,52.5,56,Amateur Submasters 33-39,F,B,Raw,Yes,,52.5,,1984
1,Svitlana Ovzyak,Світлана Овзяк,Ukraine,1983-07-07,62.8,,,,,47.5,55,60,,,,,,60,67.5,Amateur Submasters 33-39,F,B,Raw,Yes,,60,,1983
1,Svitlana Mostova,Світлана Мостова,Ukraine,1977-06-24,59.7,,,,,60,-65,65,,,,,,65,60,Amateur Masters 40-44,F,B,Raw,Yes,,65,,1977
1,Yuliya Chumaeva,Юлія Чумаєва,Ukraine,1973-04-17,59.3,,,,,47.5,52.5,-55,,,,,,52.5,60,Amateur Masters 45-49,F,B,Raw,Yes,,52.5,,1973
1,Olga Kritikova,Ольга Крітікова,Ukraine,1971-05-30,65.4,,,,,70,77.5,82.5,,,,,,82.5,67.5,Amateur Masters 45-49,F,B,Raw,Yes,,82.5,,1971
1,Oksana Muzika,Оксана Музика,Ukraine,1969-11-25,68,,,,,60,62.5,65,,,,,,65,75,Amateur Masters 45-49,F,B,Raw,Yes,,65,,1969
2,Anzhelika Antonova,Анжеліка Антонова,Ukraine,1969-02-18,75,,,,,50,55,60,,,,,,60,75,Amateur Masters 45-49,F,B,Raw,Yes,,60,,1969
DQ,Liliya Voloshina,Лілія Волошина,Ukraine,1966-07-01,55,,,,,-45,-47.5,-47.5,,,,,,,56,Amateur Masters 50-54,F,B,Raw,Yes,,,,1966
1,Yuliya Chumaeva,Юлія Чумаєва,Ukraine,1973-04-17,59.3,,,,,47.5,52.5,-55,,,,,,52.5,60,Amateur Military/Fire/Police,F,B,Raw,Yes,,52.5,,1973
1,Natalya Rudenko #2,Наталя Руденко,Ukraine,1976-02-24,63,,,,,40,45,-50,,,,,,45,67.5,Amateur Paralympian,F,B,Raw,Yes,,45,,1976
1,Roman Nikolin,Роман Ніколін,Ukraine,1994-12-05,84.2,,,,,157.5,162.5,167.5,,,,,,167.5,90,Pro Juniors 20-23,M,B,Raw,No,,167.5,,1994
DQ,Dmitro Grigorev,Дмитро Григорьєв,Ukraine,1997-06-20,115,,,,,180,,,,,,,,,125,Pro Juniors 20-23,M,B,Raw,No,,180,,1997
1,Oleksandr Statnik,Олександр Статник,Ukraine,1988-06-05,87.6,,,,,180,187.5,,,,,,,187.5,90,Pro Open,M,B,Raw,No,,187.5,,1988
2,Vitaliy Zinchenko,Віталій Зінченко,Ukraine,1980-03-28,90,,,,,170,-185,185,,,,,,185,90,Pro Open,M,B,Raw,No,,185,,1980
3,Sergiy Mazur,Сергій Мазур,Ukraine,1981-06-01,89.5,,,,,160,-170,170,,,,,,170,90,Pro Open,M,B,Raw,No,,170,,1981
4,Dmitro Lomeyko,Дмитро Ломейко,Ukraine,1983-09-14,83.8,,,,,150,160,-165,,,,,,160,90,Pro Open,M,B,Raw,No,,160,,1983
1,Viktor Rublyov,Віктор Рубльов,Ukraine,1975-10-26,99.2,,,,,170,-180,-180,,,,,,170,100,Pro Open,M,B,Raw,No,,170,,1975
2,Roman Sidenko,Роман Сиденко,Ukraine,1988-08-22,97.4,,,,,155,165,-170,,,,,,165,100,Pro Open,M,B,Raw,No,,165,,1988
3,Anton Chirkov,Антон Чирков,Ukraine,1993-08-27,94.8,,,,,150,155,-160,,,,,,155,100,Pro Open,M,B,Raw,No,,155,,1993
DQ,Maksim Medvid,Максим Медвідь,Ukraine,1988-03-24,99.8,,,,,-175,-175,-175,,,,,,,100,Pro Open,M,B,Raw,No,,,,1988
1,Andriy Levitskiy,Андрій Левицький,Ukraine,1988-06-04,100.9,,,,,170,180,-190,,,,,,180,110,Pro Open,M,B,Raw,No,,180,,1988
2,Artem Medvedev,Артем Медведєв,Ukraine,1990-02-12,103.1,,,,,160,170,-180,,,,,,170,110,Pro Open,M,B,Raw,No,,170,,1990
3,Dmitro Gotlashov,Дмитро Готлашов,Ukraine,1985-06-29,108.4,,,,,160,165,170,,,,,,170,110,Pro Open,M,B,Raw,No,,170,,1985
1,Mikola Prezhin,Микола Прежин,Ukraine,1981-10-10,123.6,,,,,200,220,-227.5,,,,,,220,125,Pro Open,M,B,Raw,No,,220,,1981
2,Anton Mazur,Антон Мазур,Ukraine,1987-02-18,115.9,,,,,160,170,-175,,,,,,170,125,Pro Open,M,B,Raw,No,,170,,1987
1,Artem Ushenko,Артем Ушенко,Ukraine,1992-01-03,157.4,,,,,212.5,220,-230,,,,,,220,140+,Pro Open,M,B,Raw,No,,220,,1992
1,Vitaliy Zinchenko,Віталій Зінченко,Ukraine,1980-03-28,90,,,,,170,-185,185,,,,,,185,90,Pro Submasters 33-39,M,B,Raw,No,,185,,1980
2,Sergiy Mazur,Сергій Мазур,Ukraine,1981-06-01,89.5,,,,,160,-170,170,,,,,,170,90,Pro Submasters 33-39,M,B,Raw,No,,170,,1981
3,Dmitro Lomeyko,Дмитро Ломейко,Ukraine,1983-09-14,83.8,,,,,150,160,-165,,,,,,160,90,Pro Submasters 33-39,M,B,Raw,No,,160,,1983
1,Dmitro Gotlashov,Дмитро Готлашов,Ukraine,1985-06-29,108.4,,,,,160,165,170,,,,,,170,110,Pro Submasters 33-39,M,B,Raw,No,,170,,1985
2,Roman Krasitskiy,Роман Красицький,Ukraine,1980-08-24,106.9,,,,,145,155,160,,,,,,160,110,Pro Submasters 33-39,M,B,Raw,No,,160,,1980
3,Andriy Babenko,Андрій Бабенко,Ukraine,2004-05-07,104.7,,,,,125,130,132.5,,,,,,132.5,110,Pro Submasters 33-39,M,B,Raw,No,,132.5,,2004
1,Mikola Prezhin,Микола Прежин,Ukraine,1981-10-10,123.6,,,,,200,220,-227.5,,,,,,220,125,Pro Submasters 33-39,M,B,Raw,No,,220,,1981
1,Viktor Rublyov,Віктор Рубльов,Ukraine,1975-10-26,99.2,,,,,170,-180,-180,,,,,,170,100,Pro Masters 40-44,M,B,Raw,No,,170,,1975
DQ,Dmitro Chernish,Дмитро Черниш,Ukraine,1976-01-05,124,,,,,-185,-185,-185,,,,,,,125,Pro Masters 40-44,M,B,Raw,No,,,,1976
1,Dmitro Chebakov,Дмитро Чебаков,Ukraine,1973-06-29,99.3,,,,,160,170,180,,,,,,180,100,Pro Masters 45-49,M,B,Raw,No,,180,,1973
2,Andriy Shemenov,Андрій Шеменьов,Ukraine,1970-08-05,96.9,,,,,-140,145,-155,,,,,,145,100,Pro Masters 45-49,M,B,Raw,No,,145,,1970
1,Oleksiy Glatman,Олексій Глатман,Ukraine,1973-07-25,103.6,,,,,132.5,-140,140,,,,,,140,110,Pro Masters 45-49,M,B,Raw,No,,140,,1973
1,Sergiy Avramenko,Сергій Авраменко,Ukraine,1971-08-16,114,,,,,115,120,,,,,,,120,125,Pro Masters 45-49,M,B,Raw,No,,120,,1971
1,Boris Shuster,Борис Шустер,Ukraine,1965-03-18,80,,,,,85,92.5,97.5,,,,,,97.5,82.5,Pro Masters 50-54,M,B,Raw,No,,97.5,,1965
1,Vitaliy Zinchenko,Віталій Зінченко,Ukraine,1980-03-28,90,,,,,170,-185,185,,,,,,185,90,Pro Military/Fire/Police,M,B,Raw,No,,185,,1980
1,Roman Sidenko,Роман Сиденко,Ukraine,1988-08-22,97.4,,,,,155,165,-170,,,,,,165,100,Pro Military/Fire/Police,M,B,Raw,No,,165,,1988
1,Andriy Levitskiy,Андрій Левицький,Ukraine,1988-06-04,100.9,,,,,170,180,-190,,,,,,180,110,Pro Military/Fire/Police,M,B,Raw,No,,180,,1988
1,Sergiy Avramenko,Сергій Авраменко,Ukraine,1971-08-16,114,,,,,115,120,,,,,,,120,125,Pro Military/Fire/Police,M,B,Raw,No,,120,,1971
1,Tetyana Brodetska,Тетяна Бродецька,Ukraine,1996-04-20,73.8,,,,,85,90,97.5,-100,,,,,97.5,75,Pro Juniors 20-23,F,B,Raw,No,,97.5,,1996
1,Viktoriya Demura,Вікторія Демура,Ukraine,1985-02-27,48,,,,,-40,40,-45,,,,,,40,48,Pro Open,F,B,Raw,No,,40,,1985
2,Yuliya Levankova,Юлія Леванькова,Ukraine,1988-09-29,58.2,,,,,35,40,-45,,,,,,40,60,Pro Open,F,B,Raw,No,,40,,1988
1,Yulia Shenkarenko,Юлія Шенкаренко,Ukraine,1986-12-23,66.9,,,,,110,120,125,,,,,,125,67.5,Pro Open,F,B,Raw,No,,125,,1986
2,Irina Nikolaenko,Ірина Ніколаєнко,Ukraine,1979-11-28,67.5,,,,,85,-90,-90,,,,,,85,67.5,Pro Open,F,B,Raw,No,,85,,1979
3,Svitlana Glatman,Світлана Глатман,Ukraine,1981-09-05,64.2,,,,,67.5,72.5,77.5,,,,,,77.5,67.5,Pro Open,F,B,Raw,No,,77.5,,1981
1,Nadiya Tishchenko,Надія Тищенко,Ukraine,1993-09-30,73.3,,,,,115,120,125,,,,,,125,75,Pro Open,F,B,Raw,No,,125,,1993
2,Nataliya Mavdrik,Наталія Мавдрик,Ukraine,1984-05-12,72.9,,,,,105,110,115,,,,,,115,75,Pro Open,F,B,Raw,No,,115,,1984
1,Irina Nikolaenko,Ірина Ніколаєнко,Ukraine,1979-11-28,67.5,,,,,85,-90,-90,,,,,,85,67.5,Pro Submasters 33-39,F,B,Raw,No,,85,,1979
1,Nataliya Mavdrik,Наталія Мавдрик,Ukraine,1984-05-12,72.9,,,,,105,110,115,,,,,,115,75,Pro Submasters 33-39,F,B,Raw,No,,115,,1984
2,Olena Golubitska,Олена Голубицька,Ukraine,1981-11-27,74.8,,,,,60,65,67.5,,,,,,67.5,75,Pro Submasters 33-39,F,B,Raw,No,,67.5,,1981
1,Olena Lyubimova,Олена Любімова,Ukraine,1975-01-03,57.4,,,,,62.5,-65,-65,,,,,,62.5,60,Pro Masters 40-44,F,B,Raw,No,,62.5,,1975
1,Stanislav Chigirinskiy,Станіслав Чигиринський,Ukraine,1994-01-16,74.5,,,,,-120,120,-130,,,,,,120,75,Pro Open,M,B,Multi-ply,No,,120,,1994
1,Sergiy Dem'yanov,Сергій Дем'янов,Ukraine,1986-10-25,91.9,,,,,220,227.5,237.5,,,,,,237.5,100,Pro Open,M,B,Multi-ply,No,,237.5,,1986
2,Oleksandr Avakumov,Олександр Авакумов,Ukraine,1983-06-26,90.8,,,,,170,180,-190,,,,,,180,100,Pro Open,M,B,Multi-ply,No,,180,,1983
3,Volodimir Chigirinskiy,Володимир Чигиринський,Ukraine,1962-12-07,94.9,,,,,150,160,170,,,,,,170,100,Pro Open,M,B,Multi-ply,No,,170,,1962
1,Stanislav Nikolaenko,Станіслав Ніколаєнко,Ukraine,1978-09-27,115.9,,,,,285,-300,-300,,,,,,285,125,Pro Open,M,B,Multi-ply,No,,285,,1978
1,Oleksandr Avakumov,Олександр Авакумов,Ukraine,1983-06-26,90.8,,,,,170,180,-190,,,,,,180,100,Pro Submasters 33-39,M,B,Multi-ply,No,,180,,1983
1,Stanislav Nikolaenko,Станіслав Ніколаєнко,Ukraine,1978-09-27,115.9,,,,,285,-300,-300,,,,,,285,125,Pro Masters 40-44,M,B,Multi-ply,No,,285,,1978
1,Volodimir Chigirinskiy,Володимир Чигиринський,Ukraine,1962-12-07,94.9,,,,,150,160,170,,,,,,170,100,Pro Masters 55-59,M,B,Multi-ply,No,,170,,1962
1,Oleksandr Varenya,Олександр Вареня,Ukraine,1990-01-11,108.1,,,,,190,-200,200,,,,,,200,125,Pro Open,M,B,Multi-ply,No,,200,,1990
1,Denis Kovalov,Денис Ковальов,Ukraine,1978-08-01,98,,,,,235,250,260,,,,,,260,100,Pro Masters 40-44,M,B,Multi-ply,No,,260,,1978
DQ,Irina Nikolaenko,Ірина Ніколаєнко,Ukraine,1979-11-28,67.5,,,,,-125,-130,-130,-130,,,,,,75,Pro Open,F,B,Multi-ply,No,,,,1979
DQ,Irina Nikolaenko,Ірина Ніколаєнко,Ukraine,1979-11-28,67.5,,,,,-125,-130,-130,-130,,,,,,75,Pro Submasters 33-39,F,B,Multi-ply,No,,,,1979
1,Mikhaylo Rimarchuk,Михайло Римарчук,Ukraine,2010-09-22,39.6,,,,,,,,,35,42.5,-47.5,,42.5,44,Amateur Children 8,M,D,Raw,Yes,,,42.5,2010
1,Ivan Konev #3,Іван Конєв,Ukraine,2000-02-13,65.8,,,,,,,,,152.5,165,170,,170,67.5,Amateur Teen 18-19,M,D,Raw,Yes,,,170,2000
1,Nazariy Levitskiy,Назарій Левицький,Ukraine,2000-04-28,79.5,,,,,,,,,195,202.5,207.5,,207.5,82.5,Amateur Teen 18-19,M,D,Raw,Yes,,,207.5,2000
1,Vadim Sugonyako,Вадим Сугоняко,Ukraine,2000-06-29,90,,,,,,,,,220,240,260,,260,90,Amateur Teen 18-19,M,D,Raw,Yes,,,260,2000
1,Bogdan Pavlishak,Богдан Павлишак,Ukraine,1995-04-24,72.9,,,,,,,,,195,210,222.5,,222.5,75,Amateur Juniors 20-23,M,D,Raw,Yes,,,222.5,1995
2,Vasil Pavlishak,Василь Павлишак,Ukraine,1997-05-20,73.6,,,,,,,,,185,195,-200,,195,75,Amateur Juniors 20-23,M,D,Raw,Yes,,,195,1997
1,Evgen Nikolenko,Євген Ніколенко,Ukraine,1994-11-27,82.4,,,,,,,,,-220,230,-240,,230,82.5,Amateur Juniors 20-23,M,D,Raw,Yes,,,230,1994
2,Oleksandr Nayden,Олександр Найден,Ukraine,1997-05-24,80.8,,,,,,,,,215,-225,-225,,215,82.5,Amateur Juniors 20-23,M,D,Raw,Yes,,,215,1997
3,Ivan Yarmolyuk,Іван Ярмолюк,Ukraine,1998-10-02,77.2,,,,,,,,,195,202.5,210,,210,82.5,Amateur Juniors 20-23,M,D,Raw,Yes,,,210,1998
1,Valentin Grabovik,Валентин Грабовик,Ukraine,1998-01-19,87.5,,,,,,,,,160,175,-185,,175,90,Amateur Juniors 20-23,M,D,Raw,Yes,,,175,1998
1,Bogdan Strizhevskiy,Богдан Стрижевський,Ukraine,1996-02-09,96.7,,,,,,,,,222.5,240,-250,,240,100,Amateur Juniors 20-23,M,D,Raw,Yes,,,240,1996
1,Mikhaylo Rimarchuk,Михайло Римарчук,Ukraine,2010-09-22,39.6,,,,,,,,,35,42.5,-47.5,,42.5,44,Amateur Open,M,D,Raw,Yes,,,42.5,2010
1,Evgen Bezkorovayniy,Євген Безкоровайний,Ukraine,1990-05-29,73.6,,,,,,,,,195,222.5,227.5,,227.5,75,Amateur Open,M,D,Raw,Yes,,,227.5,1990
2,Bogdan Pavlishak,Богдан Павлишак,Ukraine,1995-04-24,72.9,,,,,,,,,195,210,222.5,,222.5,75,Amateur Open,M,D,Raw,Yes,,,222.5,1995
3,Vasil Pavlishak,Василь Павлишак,Ukraine,1997-05-20,73.6,,,,,,,,,185,195,-200,,195,75,Amateur Open,M,D,Raw,Yes,,,195,1997
1,Evgen Nikolenko,Євген Ніколенко,Ukraine,1994-11-27,82.4,,,,,,,,,-220,230,-240,,230,82.5,Amateur Open,M,D,Raw,Yes,,,230,1994
2,Taras Smachilo,Тарас Смачило,Ukraine,1987-07-27,80.9,,,,,,,,,185,190,-192.5,,190,82.5,Amateur Open,M,D,Raw,Yes,,,190,1987
3,Dmitro Prikhodko,Дмитро Приходько,Ukraine,1991-09-19,81.2,,,,,,,,,-120,132.5,142.5,,142.5,82.5,Amateur Open,M,D,Raw,Yes,,,142.5,1991
4,Artem Oliynik,Артем Олійник,Ukraine,1990-05-07,81.7,,,,,,,,,130,140,-150,,140,82.5,Amateur Open,M,D,Raw,Yes,,,140,1990
1,Sergiy Yurchuk,Сергій Юрчук,Ukraine,1986-05-12,87.5,,,,,,,,,230,-240,-240,,230,90,Amateur Open,M,D,Raw,Yes,,,230,1986
2,Igor Zagorskiy,Ігор Загорський,Ukraine,1988-06-10,86,,,,,,,,,180,200,-220,,200,90,Amateur Open,M,D,Raw,Yes,,,200,1988
3,Sergiy Shevchenko,Сергій Шевченко,Ukraine,1973-08-29,89.2,,,,,,,,,167.5,177.5,-180,,177.5,90,Amateur Open,M,D,Raw,Yes,,,177.5,1973
4,Valentin Grabovik,Валентин Грабовик,Ukraine,1998-01-19,87.5,,,,,,,,,160,175,-185,,175,90,Amateur Open,M,D,Raw,Yes,,,175,1998
1,Ruslan Kuyan,Руслан Куян,Ukraine,1987-07-04,95.9,,,,,,,,,235,250,260,,260,100,Amateur Open,M,D,Raw,Yes,,,260,1987
2,Kirilo Almaz,Кирило Алмаз,Ukraine,1994-09-01,97.9,,,,,,,,,245,252.5,260,,260,100,Amateur Open,M,D,Raw,Yes,,,260,1994
3,Bogdan Strizhevskiy,Богдан Стрижевський,Ukraine,1996-02-09,96.7,,,,,,,,,222.5,240,-250,,240,100,Amateur Open,M,D,Raw,Yes,,,240,1996
4,Oleksandr Ageenko,Олександр Агеєнко,Ukraine,1976-02-16,99.8,,,,,,,,,220,235,-250,,235,100,Amateur Open,M,D,Raw,Yes,,,235,1976
1,Volodimir Ogloblin,Володимир Оглоблін,Ukraine,1965-08-15,106.4,,,,,,,,,275,285,-290,,285,110,Amateur Open,M,D,Raw,Yes,,,285,1965
2,Sergiy Bessel,Сергій Бессель,Ukraine,1984-12-27,106,,,,,,,,,245,260,270,,270,110,Amateur Open,M,D,Raw,Yes,,,270,1984
3,Oleksiy Boychuk,Олексій Бойчук,Ukraine,1986-11-18,106,,,,,,,,,240,-250,-250,,240,110,Amateur Open,M,D,Raw,Yes,,,240,1986
1,Oleksandr Kalkutin,Олександр Калкутін,Ukraine,1965-09-07,128,,,,,,,,,210,,,,210,140,Amateur Open,M,D,Raw,Yes,,,210,1965
2,Oleksandr Tolmachov,Олександр Толмачов,Ukraine,1974-05-23,129,,,,,,,,,150,160,170,,170,140,Amateur Open,M,D,Raw,Yes,,,170,1974
1,Oleg Brazhnik,Олег Бражник,Ukraine,1970-05-06,152.8,,,,,,,,,170,190,200,,200,140+,Amateur Open,M,D,Raw,Yes,,,200,1970
1,Dmitro Romanenko,Дмитро Романенко,Ukraine,1983-09-22,80.7,,,,,,,,,185,207.5,,,207.5,82.5,Amateur Submasters 33-39,M,D,Raw,Yes,,,207.5,1983
1,Oleksandr Merkulov,Олександр Меркулов,Ukraine,1979-08-11,97,,,,,,,,,170,180,190,,190,100,Amateur Submasters 33-39,M,D,Raw,Yes,,,190,1979
1,Oleksandr Ageenko,Олександр Агеєнко,Ukraine,1976-02-16,99.8,,,,,,,,,220,235,-250,,235,100,Amateur Masters 40-44,M,D,Raw,Yes,,,235,1976
1,Oleksandr Tolmachov,Олександр Толмачов,Ukraine,1974-05-23,129,,,,,,,,,150,160,170,,170,140,Amateur Masters 40-44,M,D,Raw,Yes,,,170,1974
1,Sergiy Shevchenko,Сергій Шевченко,Ukraine,1973-08-29,89.2,,,,,,,,,167.5,177.5,-180,,177.5,90,Amateur Masters 45-49,M,D,Raw,Yes,,,177.5,1973
1,Oleg Brazhnik,Олег Бражник,Ukraine,1970-05-06,152.8,,,,,,,,,170,190,200,,200,140+,Amateur Masters 45-49,M,D,Raw,Yes,,,200,1970
1,Volodimir Ogloblin,Володимир Оглоблін,Ukraine,1965-08-15,106.4,,,,,,,,,275,285,-290,,285,110,Amateur Masters 50-54,M,D,Raw,Yes,,,285,1965
1,Oleksandr Kalkutin,Олександр Калкутін,Ukraine,1965-09-07,128,,,,,,,,,210,,,,210,140,Amateur Masters 50-54,M,D,Raw,Yes,,,210,1965
1,Igor Orlov #2,Ігор Орлов,Ukraine,1959-12-24,96,,,,,,,,,140,150,-160,,150,100,Amateur Masters 55-59,M,D,Raw,Yes,,,150,1959
1,Oleg Piskun,Олег Піскун,Ukraine,1962-09-26,107,,,,,,,,,202.5,217.5,227.5,,227.5,110,Amateur Masters 55-59,M,D,Raw,Yes,,,227.5,1962
1,Dmitro Romanenko,Дмитро Романенко,Ukraine,1983-09-22,80.7,,,,,,,,,185,207.5,,,207.5,82.5,Amateur Military/Fire/Police,M,D,Raw,Yes,,,207.5,1983
DQ,Veronika Dubova,Вероніка Дубова,Ukraine,2002-09-05,62,,,,,,,,,50,,,,,67.5,Amateur Teen 16-17,F,D,Raw,Yes,,,50,2002
1,Yuliya Kolyagina,Юлія Колягіна,Ukraine,1999-08-07,47.3,,,,,,,,,95,100,105,,105,48,Amateur Teen 18-19,F,D,Raw,Yes,,,105,1999
DQ,Yuliya Mukha,Юлія Муха,Ukraine,1999-08-21,51.4,,,,,,,,,-100,-100,-100,,,52,Amateur Teen 18-19,F,D,Raw,Yes,,,,1999
1,Marina Bondarchuk,Марина Бондарчук,Ukraine,1996-05-30,47.2,,,,,,,,,85,-90,90,,90,48,Amateur Juniors 20-23,F,D,Raw,Yes,,,90,1996
1,Sevda Kondrashova,Севда Кондрашова,Ukraine,1995-01-23,51.7,,,,,,,,,102.5,110,115,,115,52,Amateur Juniors 20-23,F,D,Raw,Yes,,,115,1995
1,Margarita Kasparova,Маргарита Каспарова,Ukraine,1995-02-28,59.8,,,,,,,,,115,120,125,,125,60,Amateur Juniors 20-23,F,D,Raw,Yes,,,125,1995
1,Olga Zaderyaka,Ольга Задеряка,Ukraine,1996-03-07,63,,,,,,,,,-115,115,120,,120,67.5,Amateur Juniors 20-23,F,D,Raw,Yes,,,120,1996
1,Nadiya Osaenko,Надія Осаєнко,Ukraine,1990-05-07,42.9,,,,,,,,,90,95,-100,,95,44,Amateur Open,F,D,Raw,Yes,,,95,1990
1,Oksana Motrunchik,Оксана Мотрунчик,Ukraine,1992-08-06,47.1,,,,,,,,,110,120,125,,125,48,Amateur Open,F,D,Raw,Yes,,,125,1992
2,Yuliya Kolyagina,Юлія Колягіна,Ukraine,1999-08-07,47.3,,,,,,,,,95,100,105,,105,48,Amateur Open,F,D,Raw,Yes,,,105,1999
3,Marina Bondarchuk,Марина Бондарчук,Ukraine,1996-05-30,47.2,,,,,,,,,85,-90,90,,90,48,Amateur Open,F,D,Raw,Yes,,,90,1996
4,Tetyana Adamchuk,Тетяна Адамчук,Ukraine,1989-05-29,48,,,,,,,,,65,-72.5,72.5,,72.5,48,Amateur Open,F,D,Raw,Yes,,,72.5,1989
1,Ganna Panchenko,Ганна Панченко,Ukraine,1986-07-01,51,,,,,,,,,-100,100,-110,,100,52,Amateur Open,F,D,Raw,Yes,,,100,1986
2,Tetyana Shilyuk,Тетяна Шилюк,Ukraine,1980-08-02,51.6,,,,,,,,,90,95,100,,100,52,Amateur Open,F,D,Raw,Yes,,,100,1980
1,Katerina Yarushina,Катерина Ярушина,Ukraine,1990-11-06,54,,,,,,,,,115,120,-125,,120,56,Amateur Open,F,D,Raw,Yes,,,120,1990
2,Olena Korpusenko,Олена Корпусенко,Ukraine,1990-08-17,55.6,,,,,,,,,100,107.5,-110,,107.5,56,Amateur Open,F,D,Raw,Yes,,,107.5,1990
3,Yana Tkachenko,Яна Ткаченко,Ukraine,1984-07-07,56,,,,,,,,,90,97.5,102.5,,102.5,56,Amateur Open,F,D,Raw,Yes,,,102.5,1984
1,Darina Kayuk,Дарина Каюк,Ukraine,1990-05-30,59.1,,,,,,,,,125,130,135,,135,60,Amateur Open,F,D,Raw,Yes,,,135,1990
2,Olena Kuznetsova,Олена Кузнєцова,Ukraine,1992-06-25,59.8,,,,,,,,,125,135,-140,,135,60,Amateur Open,F,D,Raw,Yes,,,135,1992
3,Kapitalina Gushchina,Капітоліна Гущина,Ukraine,1982-11-25,57.5,,,,,,,,,122.5,127.5,132.5,,132.5,60,Amateur Open,F,D,Raw,Yes,,,132.5,1982
4,Yuliya Chumaeva,Юлія Чумаєва,Ukraine,1973-04-17,59.3,,,,,,,,,95,107.5,112.5,,112.5,60,Amateur Open,F,D,Raw,Yes,,,112.5,1973
5,Anastasiya Abakunova,Анастасія Абакунова,Ukraine,1994-06-23,59.2,,,,,,,,,100,105,-110,,105,60,Amateur Open,F,D,Raw,Yes,,,105,1994
1,Irina Bozhko,Ірина Божко,Ukraine,1993-11-13,63,,,,,,,,,125,130,135,,135,67.5,Amateur Open,F,D,Raw,Yes,,,135,1993
2,Nataliya Tkachuk,Наталія Ткачук,Ukraine,1971-06-01,61.6,,,,,,,,,80,85,90,,90,67.5,Amateur Open,F,D,Raw,Yes,,,90,1971
1,Anzhelika Antonova,Анжеліка Антонова,Ukraine,1969-02-18,75,,,,,,,,,70,90,105,,105,75,Amateur Open,F,D,Raw,Yes,,,105,1969
2,Oksana Muzika,Оксана Музика,Ukraine,1969-11-25,68,,,,,,,,,55,,,,55,75,Amateur Open,F,D,Raw,Yes,,,55,1969
1,Olena Boyko,Олена Бойко,Ukraine,1989-09-20,89.6,,,,,,,,,80,92.5,100,,100,90,Amateur Open,F,D,Raw,Yes,,,100,1989
1,Tetyana Shilyuk,Тетяна Шилюк,Ukraine,1980-08-02,51.6,,,,,,,,,90,95,100,,100,52,Amateur Submasters 33-39,F,D,Raw,Yes,,,100,1980
1,Yana Tkachenko,Яна Ткаченко,Ukraine,1984-07-07,56,,,,,,,,,90,97.5,102.5,,102.5,56,Amateur Submasters 33-39,F,D,Raw,Yes,,,102.5,1984
1,Nina Romanenko,Ніна Романенко,Ukraine,1983-03-25,58.2,,,,,,,,,110,115,125,,125,60,Amateur Submasters 33-39,F,D,Raw,Yes,,,125,1983
1,Yuliya Chumaeva,Юлія Чумаєва,Ukraine,1973-04-17,59.3,,,,,,,,,95,107.5,112.5,,112.5,60,Amateur Masters 45-49,F,D,Raw,Yes,,,112.5,1973
1,Nataliya Tkachuk,Наталія Ткачук,Ukraine,1971-06-01,61.6,,,,,,,,,80,85,90,,90,67.5,Amateur Masters 45-49,F,D,Raw,Yes,,,90,1971
1,Anzhelika Antonova,Анжеліка Антонова,Ukraine,1969-02-18,75,,,,,,,,,70,90,105,,105,75,Amateur Masters 45-49,F,D,Raw,Yes,,,105,1969
2,Oksana Muzika,Оксана Музика,Ukraine,1969-11-25,68,,,,,,,,,55,,,,55,75,Amateur Masters 45-49,F,D,Raw,Yes,,,55,1969
1,Yuliya Chumaeva,Юлія Чумаєва,Ukraine,1973-04-17,59.3,,,,,,,,,95,107.5,112.5,,112.5,60,Amateur Military/Fire/Police,F,D,Raw,Yes,,,112.5,1973
1,Dmitro Gumanenko,Дмитро Гуманенко,Ukraine,1999-01-11,93.8,,,,,,,,,210,225,-235,,225,100,Pro Teen 18-19,M,D,Raw,No,,,225,1999
1,Denis Saevskiy,Денис Саєвський,Ukraine,1995-12-16,71.7,,,,,,,,,180,195,-205,,195,75,Pro Juniors 20-23,M,D,Raw,No,,,195,1995
1,Nazariy Shargan,Назарій Шарган,Ukraine,1996-05-20,103.7,,,,,,,,,260,275,-292.5,,275,110,Pro Juniors 20-23,M,D,Raw,No,,,275,1996
1,Glib Orlovskiy,Гліб Орловський,Ukraine,1987-11-17,64.7,,,,,,,,,150,160,170,,170,67.5,Pro Open,M,D,Raw,No,,,170,1987
1,Boris Novoselov,Борис Новоселов,Ukraine,1992-02-27,73.8,,,,,,,,,210,220,,,220,75,Pro Open,M,D,Raw,No,,,220,1992
1,Andriy Boyko,Андрій Бойко,Ukraine,1993-08-20,78.9,,,,,,,,,225,-240,-240,,225,82.5,Pro Open,M,D,Raw,No,,,225,1993
1,Oleksii Melnyk,Олексій Мельник,Ukraine,1990-04-26,89.9,,,,,,,,,300,310,-317.5,,310,90,Pro Open,M,D,Raw,No,,,310,1990
3,V'yacheslav Kravchenko #1,Вячеслав Кравченко,Ukraine,1969-12-02,87.9,,,,,,,,,260,270,-280,,270,90,Pro Open,M,D,Raw,No,,,270,1969
1,Yukhim Stepatskiy,Юхим Степацький,Ukraine,1987-05-07,95.3,,,,,,,,,260,282.5,-290,,282.5,100,Pro Open,M,D,Raw,No,,,282.5,1987
2,Oleksiy Panenko,Олексій Паненко,Ukraine,1980-10-04,97.5,,,,,,,,,260,-270,-270,,260,100,Pro Open,M,D,Raw,No,,,260,1980
1,Dmitro Gotlashov,Дмитро Готлашов,Ukraine,1985-06-29,108.4,,,,,,,,,280,300,-310,,300,110,Pro Open,M,D,Raw,No,,,300,1985
2,Valeriy Gazaev,Валерій Газаєв,Ukraine,1987-10-20,108.1,,,,,,,,,280,290,-300,,290,110,Pro Open,M,D,Raw,No,,,290,1987
3,Andriy Levitskiy,Андрій Левицький,Ukraine,1988-06-04,100.9,,,,,,,,,240,260,270,,270,110,Pro Open,M,D,Raw,No,,,270,1988
1,Oleksiy Panenko,Олексій Паненко,Ukraine,1980-10-04,97.5,,,,,,,,,260,-270,-270,,260,100,Pro Submasters 33-39,M,D,Raw,No,,,260,1980
2,Oleksandr Litvin,Олександр Литвин,Ukraine,1978-10-10,97,,,,,,,,,220,-230,-230,,220,100,Pro Submasters 33-39,M,D,Raw,No,,,220,1978
1,Dmitro Gotlashov,Дмитро Готлашов,Ukraine,1985-06-29,108.4,,,,,,,,,280,300,-310,,300,110,Pro Submasters 33-39,M,D,Raw,No,,,300,1985
2,Vitaliy Chunikhovskiy,Віталій Чуніховський,Ukraine,1983-04-11,105.3,,,,,,,,,280,-292.5,-292.5,,280,110,Pro Submasters 33-39,M,D,Raw,No,,,280,1983
1,Vyacheslav Vakhrushev,Вячеслав Вахрушев,Ukraine,1977-08-17,81.4,,,,,,,,,175,182.5,187.5,,187.5,82.5,Pro Masters 40-44,M,D,Raw,No,,,187.5,1977
1,V'yacheslav Kravchenko #1,Вячеслав Кравченко,Ukraine,1969-12-02,87.9,,,,,,,,,260,270,-280,,270,90,Pro Masters 45-49,M,D,Raw,No,,,270,1969
1,Andriy Shemenov,Андрій Шеменьов,Ukraine,1970-08-05,96.9,,,,,,,,,160,180,200,,200,100,Pro Masters 45-49,M,D,Raw,No,,,200,1970
1,Andriy Boyko,Андрій Бойко,Ukraine,1993-08-20,78.9,,,,,,,,,225,-240,-240,,225,82.5,Pro Military/Fire/Police,M,D,Raw,No,,,225,1993
1,Yukhim Stepatskiy,Юхим Степацький,Ukraine,1987-05-07,95.3,,,,,,,,,260,282.5,-290,,282.5,100,Pro Military/Fire/Police,M,D,Raw,No,,,282.5,1987
1,Andriy Levitskiy,Андрій Левицький,Ukraine,1988-06-04,100.9,,,,,,,,,240,260,270,,270,110,Pro Military/Fire/Police,M,D,Raw,No,,,270,1988
1,Tetyana Brodetska,Тетяна Бродецька,Ukraine,1996-04-20,73.8,,,,,,,,,170,-180,-180,,170,75,Pro Juniors 20-23,F,D,Raw,No,,,170,1996
1,Alona Babenko,Альона Бабенко,Ukraine,1986-12-24,56,,,,,,,,,67.5,75,-80,,75,56,Pro Open,F,D,Raw,No,,,75,1986
1,Svitlana Glatman,Світлана Глатман,Ukraine,1981-09-05,64.2,,,,,,,,,140,150,160,,160,67.5,Pro Open,F,D,Raw,No,,,160,1981
1,Nataliya Mavdrik,Наталія Мавдрик,Ukraine,1984-05-12,72.9,,,,,,,,,190,200,-205,,200,75,Pro Open,F,D,Raw,No,,,200,1984
1,Nataliya Mavdrik,Наталія Мавдрик,Ukraine,1984-05-12,72.9,,,,,,,,,190,200,-205,,200,75,Pro Submasters 33-39,F,D,Raw,No,,,200,1984
1,Olena Lyubimova,Олена Любімова,Ukraine,1975-01-03,57.4,,,,,,,,,110,115,-120,,115,60,Pro Masters 40-44,F,D,Raw,No,,,115,1975
1,Yaroslav Apalkov,Ярослав Апальков,Ukraine,1993-10-12,137.5,,,,,,,,,330,360,-380,,360,140,Pro Open,M,D,Multi-ply,No,,,360,1993
1,Yuriy Maligin,Юрій Малигін,Ukraine,1967-06-30,94.5,,,,,,,,,120,,,,120,100,Pro Masters 50-54,M,D,Multi-ply,No,,,120,1967
