Division,WeightClassKg,Place,Name,Team,BodyweightKg,Best3SquatKg,Best3BenchKg,Best3DeadliftKg,TotalKg,Equipment,Event,Sex
Boys,51.71,1,Tien Nguyen,Nederland,51.71,156.49,86.18,161.03,403.7,Single-ply,SBD,M
Boys,51.71,2,Jared Ali,Conroe The Woodlands,51.44,124.74,74.84,161.03,360.61,Single-ply,SBD,M
Boys,51.71,3,Adrian Ballew,Clute Brazoswood,51.35,133.81,81.65,142.88,358.34,Single-ply,SBD,M
Boys,51.71,4,Hector Gonzalez,Baytown Goose Creek Memorial,50.8,127.01,83.91,142.88,353.8,Single-ply,SBD,M
Boys,51.71,5,Michael Vargas,Beaumont West Brook,50.53,127.01,68.04,129.27,324.32,Single-ply,SBD,M
Boys,51.71,6,Chase Stansbury,Vidor,48.9,120.2,70.31,120.2,310.71,Single-ply,SBD,M
Boys,51.71,7,Dandrea Hutchinson,Dickinson,48.35,122.47,61.23,120.2,303.91,Single-ply,SBD,M
Boys,51.71,8,Boone Beyer,Magnolia,50.44,117.93,63.5,115.67,297.1,Single-ply,SBD,M
Boys,51.71,9,Hank Hewgley,Conroe The Woodlands,50.98,111.13,70.31,111.13,292.57,Single-ply,SBD,M
Boys,51.71,10,Nate Provost,Conroe The Woodlands,51.17,102.06,49.9,122.47,274.42,Single-ply,SBD,M
Boys,51.71,DQ,Alec Ohnheiser,Conroe,50.35,,,,,Single-ply,SBD,M
Boys,55.79,1,Matthew Longoria,Dickinson,55.61,195.04,149.69,167.83,512.56,Single-ply,SBD,M
Boys,55.79,2,Brady Price,Vidor,54.88,174.63,108.86,163.29,446.79,Single-ply,SBD,M
Boys,55.79,3,Ethan Torres,New Caney,55.16,167.83,90.72,161.03,419.57,Single-ply,SBD,M
Boys,55.79,4,Nate Colborn,Montgomery,54.79,172.37,79.38,154.22,405.97,Single-ply,SBD,M
Boys,55.79,5,Jacob Cavness,Santa Fe,55.25,161.03,92.99,136.08,390.09,Single-ply,SBD,M
Boys,55.79,6,Ty Pafford,Dayton,55.16,161.03,77.11,142.88,381.02,Single-ply,SBD,M
Boys,55.79,7,Cameron Yale,Magnolia,55.16,151.95,79.38,142.88,374.21,Single-ply,SBD,M
Boys,55.79,8,Kase Mitchell,Conroe The Woodlands,54.52,140.61,86.18,140.61,367.41,Single-ply,SBD,M
Boys,55.79,9,Matt Provost,Conroe The Woodlands,54.25,136.08,56.7,142.88,335.66,Single-ply,SBD,M
Boys,55.79,10,Blaise Ohnheiser,Conroe,54.98,151.95,86.18,,238.14,Single-ply,SB,M
Boys,55.79,DQ,Ian Alvarez,Conroe The Woodlands,55.7,,,,,Single-ply,SB,M
Boys,55.79,DQ,Mac Postel,Magnolia,54.88,,,,,Single-ply,SB,M
Boys,59.87,1,Jessy Yanez,Channelview,59.33,206.38,99.79,206.38,512.56,Single-ply,SBD,M
Boys,59.87,2,Jeremiah Coleman,Dickinson,59.69,185.97,88.45,195.04,469.47,Single-ply,SBD,M
Boys,59.87,3,Bailey Lepore,Texas City,59.87,174.63,111.13,167.83,453.59,Single-ply,SBD,M
Boys,59.87,4,Zach Mills,Conroe Woodlands College Park,59.24,183.7,83.91,183.7,451.32,Single-ply,SBD,M
Boys,59.87,5,Alec Ruiz,Pearland Dawson,58.6,188.24,83.91,174.63,446.79,Single-ply,SBD,M
Boys,59.87,6,Ian Keck,Magnolia West,58.88,165.56,95.25,174.63,435.45,Single-ply,SBD,M
Boys,59.87,7,Tyler Boggs,Magnolia,59.87,167.83,90.72,170.1,428.64,Single-ply,SBD,M
Boys,59.87,8,Michael Castaneda,Texas City,58.79,154.22,92.99,154.22,401.43,Single-ply,SBD,M
Boys,59.87,9,Dario Santillan,New Caney,58.51,138.35,95.25,145.15,378.75,Single-ply,SBD,M
Boys,59.87,10,Armando Cabriales,Clute Brazoswood,58.79,163.29,,,163.29,Single-ply,S,M
Boys,59.87,11,Juan Chavez,New Caney,59.78,156.49,,,156.49,Single-ply,S,M
Boys,59.87,12,Oscar Puente,New Caney,58.79,140.61,,,140.61,Single-ply,S,M
Boys,67.13,1,Kelbe Sylvan,Katy Taylor,65.86,185.97,115.67,233.6,535.24,Single-ply,SBD,M
Boys,67.13,2,Nicholas Sauer,Texas City,65.59,204.12,108.86,208.65,521.63,Single-ply,SBD,M
Boys,67.13,3,Efren Ramirez,Alvin,65.95,204.12,115.67,179.17,498.95,Single-ply,SBD,M
Boys,67.13,4,Josiah Griffith,Dayton,62.87,185.97,111.13,192.78,489.88,Single-ply,SBD,M
Boys,67.13,5,Ja'tavion McWilliams,Texas City,65.95,217.72,99.79,167.83,485.34,Single-ply,SBD,M
Boys,67.13,6,Enoc Villagomez,Conroe Caney Creek,67.04,190.51,102.06,174.63,467.2,Single-ply,SBD,M
Boys,67.13,7,Edwin Uribe,Cleveland,67.04,172.37,113.4,179.17,464.93,Single-ply,SBD,M
Boys,67.13,8,Osvaldo Reta,Cleveland,67.13,172.37,102.06,174.63,449.06,Single-ply,SBD,M
Boys,67.13,9,Cody Costello,Magnolia West,65.5,174.63,108.86,163.29,446.79,Single-ply,SBD,M
Boys,67.13,10,Regie Marges,Alvin Shadow Creek,65.68,147.42,92.99,195.04,435.45,Single-ply,SBD,M
Boys,67.13,11,Chase Dudley,Santa Fe,66.04,167.83,92.99,174.63,435.45,Single-ply,SBD,M
Boys,67.13,DQ,Cole Hebert,Magnolia,63.68,,,,,Single-ply,SBD,M
Boys,67.13,DQ,DeMarcus Coleman,Beaumont West Brook,67.13,,,,,Single-ply,SBD,M
Boys,74.84,1,Ivan Fuentes,Willis,72.21,222.26,120.2,247.21,589.67,Single-ply,SBD,M
Boys,74.84,2,Derrick Cobbs,Dickinson,74.12,219.99,113.4,244.94,578.33,Single-ply,SBD,M
Boys,74.84,3,Preston Pugh,Montgomery Lake Creek,73.12,219.99,129.27,226.8,576.06,Single-ply,SBD,M
Boys,74.84,4,Luis Sanchez,Dickinson,74.12,222.26,133.81,215.46,571.53,Single-ply,SBD,M
Boys,74.84,5,KeShaun Jnoffin,Baytown Goose Creek Memorial,74.66,222.26,127.01,204.12,553.38,Single-ply,SBD,M
Boys,74.84,6,Robert Galindo,Dickinson,73.66,215.46,111.13,208.65,535.24,Single-ply,SBD,M
Boys,74.84,7,Ricardo Alaniz,Alvin,73.57,199.58,99.79,226.8,526.17,Single-ply,SBD,M
Boys,74.84,8,Zach Browning,Beaumont West Brook,73.84,206.38,129.27,183.7,519.36,Single-ply,SBD,M
Boys,74.84,9,Christian Ream,Montgomery Lake Creek,73.94,192.78,106.59,215.46,514.83,Single-ply,SBD,M
Boys,74.84,10,Weston Tuttle,Conroe The Woodlands,73.12,195.04,111.13,204.12,510.29,Single-ply,SBD,M
Boys,74.84,11,Evan Dickerson,Pearland Dawson,74.48,215.46,106.59,183.7,505.76,Single-ply,SBD,M
Boys,74.84,12,Caleb Evans-Pickens,New Caney Porter,72.85,181.44,120.2,199.58,501.22,Single-ply,SBD,M
Boys,74.84,13,JC Marshall,Vidor,71.58,197.31,,,197.31,Single-ply,S,M
Boys,82.1,1,Mario Vega,Clute Brazoswood,80.83,231.33,161.03,242.67,635.03,Single-ply,SBD,M
Boys,82.1,2,Luke McAffety,Magnolia West,79.92,254.01,136.08,226.8,616.89,Single-ply,SBD,M
Boys,82.1,3,Perry Irchirl,Conroe Woodlands College Park,79.74,217.72,145.15,249.48,612.35,Single-ply,SBD,M
Boys,82.1,4,Dj McCoy,Montgomery,80.65,249.48,122.47,240.4,612.35,Single-ply,SBD,M
Boys,82.1,5,Joseph McCarty-Davis,Texas City,80.2,229.06,124.74,224.53,578.33,Single-ply,SBD,M
Boys,82.1,6,David Aviles,Alvin,77.11,233.6,115.67,190.51,539.77,Single-ply,SBD,M
Boys,82.1,7,Nathan Leone,Conroe The Woodlands,77.2,210.92,106.59,204.12,521.63,Single-ply,SBD,M
Boys,82.1,8,Arciel Barrera,Conroe,81.47,222.26,106.59,183.7,512.56,Single-ply,SBD,M
Boys,82.1,9,Adrian Tabares,Conroe,76.57,188.24,106.59,215.46,510.29,Single-ply,SBD,M
Boys,82.1,10,Jacob Smith,Port Neches-Groves,77.56,192.78,,,192.78,Single-ply,S,M
Boys,82.1,11,Jace Halbaedier,Willis,79.38,185.97,,,185.97,Single-ply,S,M
Boys,82.1,DQ,Lawrence Vaughn,Port Neches-Groves,77.66,,,,,Single-ply,S,M
Boys,89.81,1,Branden Clay,Conroe The Woodlands,88.45,249.48,136.08,283.5,669.05,Single-ply,SBD,M
Boys,89.81,2,Grant Johnson,Vidor,89.18,242.67,158.76,242.67,644.1,Single-ply,SBD,M
Boys,89.81,3,Colby Lord,Montgomery Lake Creek,87.63,226.8,172.37,219.99,619.15,Single-ply,SBD,M
Boys,89.81,4,Gage Slaughter,Santa Fe,89.45,251.74,145.15,219.99,616.89,Single-ply,SBD,M
Boys,89.81,5,Joey Minassian,Magnolia West,85.82,249.48,124.74,235.87,610.08,Single-ply,SBD,M
Boys,89.81,6,Ashton Williams,Conroe,89.81,235.87,138.35,235.87,610.08,Single-ply,SBD,M
Boys,89.81,7,Justin Denson,Vidor,88.09,233.6,138.35,226.8,598.74,Single-ply,SBD,M
Boys,89.81,8,Gavin Bennett,Dayton,88.36,231.33,131.54,222.26,585.13,Single-ply,SBD,M
Boys,89.81,9,Aaron Sims,Cleveland,89.45,242.67,131.54,197.31,571.53,Single-ply,SBD,M
Boys,89.81,10,Albert Alfaro,Texas City,88.09,215.46,138.35,213.19,566.99,Single-ply,SBD,M
Boys,89.81,11,Micaiah Loop,Conroe,88.45,201.85,124.74,233.6,560.19,Single-ply,SBD,M
Boys,89.81,12,Cobe Lane,Texas City,88.72,235.87,127.01,195.04,557.92,Single-ply,SBD,M
Boys,99.79,1,Jose Rodriguez,Dickinson,98.52,288.03,172.37,249.48,709.87,Single-ply,SBD,M
Boys,99.79,2,Max Gonzalez,Conroe Oak Ridge,98.25,256.28,149.69,292.57,698.53,Single-ply,SBD,M
Boys,99.79,3,Devin Nixon,Vidor,97.89,278.96,167.83,249.48,696.26,Single-ply,SBD,M
Boys,99.79,4,Josh Ferguson,Katy Taylor,95.07,272.16,170.1,238.14,680.39,Single-ply,SBD,M
Boys,99.79,5,Brandon Diaz,Crosby,98.25,276.69,154.22,240.4,671.32,Single-ply,SBD,M
Boys,99.79,6,Joey Avalos,Manvel,92.9,244.94,170.1,249.48,664.51,Single-ply,SBD,M
Boys,99.79,7,Ian Wooten,Vidor,95.71,238.14,165.56,254.01,657.71,Single-ply,SBD,M
Boys,99.79,8,Nick McBride,Conroe The Woodlands,99.06,265.35,158.76,222.26,646.37,Single-ply,SBD,M
Boys,99.79,9,Jonathan Garcia #3,Magnolia West,94.89,249.48,147.42,229.06,625.96,Single-ply,SBD,M
Boys,99.79,10,Chris Garcia #11,Conroe Caney Creek,96.07,254.01,127.01,235.87,616.89,Single-ply,SBD,M
Boys,99.79,11,Geraldo Moya,Conroe,95.25,238.14,127.01,249.48,614.62,Single-ply,SBD,M
Boys,99.79,12,Gabe Garcia,Conroe Caney Creek,95.16,235.87,142.88,231.33,610.08,Single-ply,SBD,M
Boys,109.77,1,Michael Bush,Channelview,103.6,272.16,165.56,278.96,716.68,Single-ply,SBD,M
Boys,109.77,2,Dalton Taylor,Magnolia,107.59,281.23,170.1,219.99,671.32,Single-ply,SBD,M
Boys,109.77,3,Adonte Woodard,Vidor,104.78,265.35,165.56,226.8,657.71,Single-ply,SBD,M
Boys,109.77,4,Jordan Thomas #3,Port Arthur Memorial,109.77,238.14,151.95,251.74,641.83,Single-ply,SBD,M
Boys,109.77,5,Kaleb Manning,Clute Brazoswood,106.32,233.6,149.69,238.14,621.42,Single-ply,SBD,M
Boys,109.77,6,Aaron Mata,Alvin,107.95,254.01,136.08,226.8,616.89,Single-ply,SBD,M
Boys,109.77,7,Marcos Hernandez,Cleveland,100.79,242.67,151.95,215.46,610.08,Single-ply,SBD,M
Boys,109.77,8,Jordan Lewis,New Caney Porter,109.77,263.08,133.81,213.19,610.08,Single-ply,SBD,M
Boys,109.77,9,Donoven Jackson,Port Arthur Memorial,104.42,247.21,124.74,226.8,598.74,Single-ply,SBD,M
Boys,109.77,10,Carlos Ortiz #1,Magnolia,105.41,256.28,124.74,217.72,598.74,Single-ply,SBD,M
Boys,109.77,11,Payton Korolyk,Conroe Grand Oaks,108.5,226.8,149.69,206.38,582.87,Single-ply,SBD,M
Boys,109.77,12,Jamaal Edwards,Beaumont United,106.68,249.48,,,249.48,Single-ply,S,M
Boys,124.74,1,Joseph Cotie,Cleveland,122.56,306.17,231.33,244.94,782.45,Single-ply,SBD,M
Boys,124.74,2,Jonathan Nguyen,Nederland,123.56,294.84,145.15,242.67,682.66,Single-ply,SBD,M
Boys,124.74,3,Jonathan Reyes,Conroe Caney Creek,118.93,317.51,133.81,229.06,680.39,Single-ply,SBD,M
Boys,124.74,4,Abner Mancillas,Channelview,117.39,265.35,167.83,240.4,673.58,Single-ply,SBD,M
Boys,124.74,5,Marko Milosavljevic,Conroe The Woodlands,113.13,254.01,158.76,256.28,669.05,Single-ply,SBD,M
Boys,124.74,6,Jaden Barnett,Cleveland,116.85,258.55,158.76,242.67,659.98,Single-ply,SBD,M
Boys,124.74,7,Sam Anderson,Pearland Dawson,121.56,274.42,145.15,235.87,655.44,Single-ply,SBD,M
Boys,124.74,8,Caleb Williams #4,Conroe Woodlands College Park,117.12,260.82,158.76,231.33,650.91,Single-ply,SBD,M
Boys,124.74,9,Julian Allen,Texas City,123.83,244.94,149.69,238.14,632.76,Single-ply,SBD,M
Boys,124.74,10,Albert Regis,La Porte,116.66,242.67,154.22,229.06,625.96,Single-ply,SBD,M
Boys,124.74,11,Kade Bond,Magnolia,123.47,229.06,158.76,231.33,619.15,Single-ply,SBD,M
Boys,124.74,12,Joel Otero,Dickinson,118.84,238.14,138.35,224.53,601.01,Single-ply,SBD,M
Boys,124.74+,1,Timothy Randall,Conroe Oak Ridge,129.64,317.51,197.31,281.23,796.05,Single-ply,SBD,M
Boys,124.74+,2,Marcus White,Dickinson,138.35,335.66,172.37,254.01,762.04,Single-ply,SBD,M
Boys,124.74+,3,Ronald Williams,Texas City,126.82,294.84,145.15,265.35,705.34,Single-ply,SBD,M
Boys,124.74+,4,Cedric Harris,Magnolia,136.8,278.96,151.95,263.08,694,Single-ply,SBD,M
Boys,124.74+,5,Brandon Rangel,Dickinson,137.26,281.23,163.29,242.67,687.19,Single-ply,SBD,M
Boys,124.74+,6,Paula Vaipulu,Channelview,136.44,294.84,140.61,249.48,684.92,Single-ply,SBD,M
Boys,124.74+,7,Josh Bankhead,Conroe Woodlands College Park,146.78,272.16,190.51,219.99,682.66,Single-ply,SBD,M
Boys,124.74+,8,Markale White,Dickinson,135.26,276.69,163.29,238.14,678.12,Single-ply,SBD,M
Boys,124.74+,9,Byron Henderson,Channelview,139.71,272.16,170.1,226.8,669.05,Single-ply,SBD,M
Boys,124.74+,10,Tyler Talavera,New Caney Porter,133.63,272.16,156.49,226.8,655.44,Single-ply,SBD,M
Boys,124.74+,11,Noah Barajas,Alvin,142.07,267.62,145.15,238.14,650.91,Single-ply,SBD,M
Boys,124.74+,12,Ryan Neugent,Conroe,128.28,272.16,154.22,,426.38,Single-ply,SB,M
