Place,Sex,Name,CyrillicName,BodyweightKg,Squat1Kg,Squat2Kg,Squat3Kg,Best3SquatKg,Squat4Kg,Bench1Kg,Bench2Kg,Bench3Kg,Best3BenchKg,Bench4Kg,Deadlift1Kg,Deadlift2Kg,Deadlift3Kg,Best3DeadliftKg,Deadlift4Kg,TotalKg,WeightClassKg,Event,Equipment,Tested,Division,Age,BirthDate
1,F,Ekaterina Nazarova,Екатерина Назарова,46.7,-67.5,70,72.5,72.5,,37.5,-40,-42.5,37.5,,90,95,97.5,97.5,,207.5,48,SBD,Raw,Yes,Open,34,1986-06-19
1,F,Vera Poloynikova,Вера Полойникова,50.9,90,95,-97.5,95,,47.5,50,-52.5,50,,105,115,-117.5,115,,260,52,SBD,Raw,Yes,Open,34,1986-05-20
1,F,Ekaterina Dedkova,Екатерина Дедкова,54.9,-92.5,92.5,-100,92.5,,42.5,47.5,-52.5,47.5,,95,105,115,115,,255,56,SBD,Raw,Yes,Open,30,1989-12-14
DQ,F,Tatyana Dokukina,Татьяна Докукина,58.8,-85,-85,-85,,,,,,,,,,,,,,60,SBD,Raw,Yes,Open,34,1986-04-17
1,F,Ekaterina Nazaruk,Екатерина Назарук,65.9,82.5,85,-90,85,,50,52.5,-55,52.5,,90,95,-97.5,95,,232.5,67.5,SBD,Raw,Yes,Teen 18-19,18,2002-07-12
1,M,Dmitriy Shcherbakov,Дмитрий Щербаков,55.6,65,70,72.5,72.5,,50,60,-62.5,60,,80,100,105,105,,237.5,56,SBD,Raw,Yes,Teen 16-17,16,2004-08-08
1,M,Daniil Shestakov,Даниил Шестаков,73.4,135,140,-145,140,,92.5,-97.5,-97.5,92.5,,-140,140,150,150,,382.5,75,SBD,Raw,Yes,Teen 18-19,19,2001-08-11
1,M,Kirill Tyulkin,Кирилл Тюлькин,80.8,155,165,175,175,,135,140,-145,140,,-185,185,,185,,500,82.5,SBD,Raw,Yes,Open,37,1982-10-20
1,M,Oleg Gerasimenko,Олег Герасименко,80.9,150,165,175,175,,100,107.5,-112.5,107.5,,-170,185,200,200,,482.5,82.5,SBD,Raw,Yes,Masters 40-44,44,1975-11-20
1,M,Sergey Kuznetsov,Сергей Кузнецов,53.9,75,-80,82.5,82.5,,75,80,82.5,82.5,,105,107.5,,107.5,,272.5,56,SBD,Raw,No,Open,38,1982-08-31
1,M,Aleksandr Mukhin,Александр Мухин,87.5,175,185,-200,185,,155,-165,-165,155,,190,210,215,215,,555,90,SBD,Raw,No,Open,24,1996-05-19
1,M,Viktor Krylov,Виктор Крылов,146.6,230,240,250,250,,200,-210,,200,,300,-325,-325,300,,750,140+,SBD,Raw,No,Open,35,1985-05-20
1,M,Aleksandr Romanov,Александр Романов,110.9,217.5,-230,-232.5,217.5,,185,192.5,-197.5,192.5,,245,260,-270,260,,670,125,SBD,Wraps,No,Open,47,1973-02-02
1,M,Oleg Baranov,Олег Баранов,85.2,,,,,,80,-90,-90,80,,105,115,-125,115,,195,90,BD,Raw,Yes,Teen 16-17,17,2003-05-23
1,F,Ekaterina Dedkova,Екатерина Дедкова,54.9,-92.5,92.5,-100,92.5,,,,,,,,,,,,92.5,56,S,Raw,Yes,Open,30,1989-12-14
1,F,Olga Novlyanskaya,Ольга Новлянская,51.3,,,,,,45,47.5,-50,47.5,,,,,,,47.5,52,B,Raw,Yes,Open,39,1981-02-01
2,F,Alyona Gryazeva,Алёна Грязева,49.9,,,,,,-45,45,-50,45,,,,,,,45,52,B,Raw,Yes,Open,27,1992-10-08
1,F,Olga Romanenko,Ольга Романенко,58.8,,,,,,67.5,-70,-70,67.5,,,,,,,67.5,60,B,Raw,Yes,Open,25,1995-03-14
1,F,Valeriya Chichkova-Bazhenova,Валерия Чичкова-Баженова,57.8,,,,,,40,-50,-50,40,,,,,,,40,60,B,Raw,Yes,Masters 45-49,46,1974-08-18
1,F,Darya Fedchenko,Дарья Федченко,66.8,,,,,,-67.5,72.5,-85,72.5,,,,,,,72.5,67.5,B,Raw,Yes,Teen 16-17,17,2003-02-21
1,M,Sergey Khrapko,Сергей Храпко,64.5,,,,,,107.5,115,-120,115,,,,,,,115,67.5,B,Raw,Yes,Teen 18-19,19,2000-11-03
2,M,Andrey Gerasimenko,Андрей Герасименко,65.3,,,,,,55,60,65,65,,,,,,,65,67.5,B,Raw,Yes,Teen 16-17,16,2004-05-27
1,M,Dmitriy Katargin,Дмитрий Катаргин,65,,,,,,-90,90,-107.5,90,,,,,,,90,67.5,B,Raw,Yes,Juniors 20-23,20,2000-09-21
1,M,Alexey Kuzmin,Алексей Кузьмин,67.1,,,,,,120,125,-127.5,125,,,,,,,125,67.5,B,Raw,Yes,Open,25,1995-07-29
1,M,Karim Kolesov,Карим Колесов,73.1,,,,,,-97.5,100,102.5,102.5,,,,,,,102.5,75,B,Raw,Yes,Teen 16-17,16,2003-10-15
1,M,Maksim Petrichenko,Максим Петриченко,82.4,,,,,,155,160,-162.5,160,,,,,,,160,82.5,B,Raw,Yes,Open,33,1987-05-31
2,M,Kirill Tyulkin,Кирилл Тюлькин,80.8,,,,,,135,140,-145,140,,,,,,,140,82.5,B,Raw,Yes,Open,37,1982-10-20
1,M,Vasiliy Shipilov,Василий Шипилов,87.3,,,,,,175,177.5,180,180,,,,,,,180,90,B,Raw,Yes,Open,34,1986-05-13
2,M,Denis Shevyakov,Денис Шевяков,85.4,,,,,,157.5,160,-165,160,,,,,,,160,90,B,Raw,Yes,Open,37,1983-04-15
3,M,Evgeniy Rodionov,Евгений Родионов,87.5,,,,,,145,147.5,-150,147.5,,,,,,,147.5,90,B,Raw,Yes,Open,35,1985-10-02
4,M,Nikolay Usatov,Николай Усатов,87.5,,,,,,140,145,-152.5,145,,,,,,,145,90,B,Raw,Yes,Open,34,1986-06-25
5,M,Sergey Lalas,Сергей Лалас,88.1,,,,,,140,-145,-145,140,,,,,,,140,90,B,Raw,Yes,Open,35,1985-05-10
1,M,Mikhail Zhiganov,Михаил Жиганов,95.7,,,,,,170,-175,-175,170,,,,,,,170,100,B,Raw,Yes,Open,39,1981-06-07
1,M,Dmitriy Grigorev,Дмитрий Григорьев,136.7,,,,,,157.5,165,-170,165,,,,,,,165,140,B,Raw,Yes,Open,27,1993-03-23
DQ,F,Lidiya Fedorova,Лидия Федорова,52,,,,,,-65,-67.5,-67.5,,,,,,,,,52,B,Raw,No,Open,31,1989-08-25
1,M,Yaroslav Murtsev,Ярослав Мурцев,41.8,,,,,,25,30,32.5,32.5,,,,,,,32.5,52,B,Raw,No,Youth,10,2010-06-07
1,M,Aleksandr Mukhin,Александр Мухин,87.5,,,,,,155,-165,-165,155,,,,,,,155,90,B,Raw,No,Open,24,1996-05-19
1,M,Ruslan Korenevskiy,Руслан Кореневский,98.8,,,,,,-170,-170,170,170,,,,,,,170,100,B,Raw,No,Open,39,1980-12-29
1,M,Yuriy Modonov,Юрий Модонов,105.2,,,,,,180,-192.5,-192.5,180,,,,,,,180,110,B,Raw,No,Open,25,1995-06-01
2,M,Eduard Sanikidze,Эдуард Саникидзе,102.9,,,,,,-90,-90,100,100,,,,,,,100,110,B,Raw,No,Open,38,1981-11-18
1,M,Ivan Rabotkin,Иван Работкин,109,,,,,,-145,145,157.5,157.5,,,,,,,157.5,110,B,Single-ply,No,Masters 40-44,40,1980-03-23
1,M,Dmitriy Tolstov,Дмитрий Толстов,100.9,,,,,,185,200,-205,200,,,,,,,200,110,B,Unlimited,Yes,Masters 45-49,46,1973-10-26
1,M,Maksim Tovstonog,Максим Товстоног,76.3,,,,,,170,180,-195,180,,,,,,,180,82.5,B,Unlimited,No,Open,37,1983-06-05
1,F,Tatyana Dokukina,Татьяна Докукина,58.8,,,,,,,,,,,92.5,102.5,115,115,,115,60,D,Raw,Yes,Open,34,1986-04-17
1,M,Aleksandr Gerasimenko,Александр Герасименко,72.7,,,,,,,,,,,140,155,-170,155,,155,75,D,Raw,Yes,Juniors 20-23,23,1997-08-16
2,M,Egor Zheronkin,Егор Жеронкин,73.1,,,,,,,,,,,145,-165,-165,145,,145,75,D,Raw,Yes,Juniors 20-23,22,1998-08-15
1,M,Igor Kryukov,Игорь Крюков,68.5,,,,,,,,,,,175,182.5,195,195,,195,75,D,Raw,Yes,Open,28,1991-11-20
1,M,Anton Arkhipov,Антон Архипов,78.4,,,,,,,,,,,190,195,200,200,,200,82.5,D,Raw,Yes,Open,26,1994-06-23
1,M,Kim Lysenko,Ким Лысенко,97.2,,,,,,,,,,,200,-210,-210,200,,200,100,D,Raw,Yes,Open,33,1987-08-20
DQ,M,Roman Durnov,Роман Дурнов,75,,,,,,,,,,,-200,,,,,,75,D,Single-ply,Yes,Open,34,1986-09-23
