Place,Name,CyrillicName,Division,Team,Sex,BirthDate,WeightClassKg,BodyweightKg,Squat1Kg,Squat2Kg,Squat3Kg,Best3SquatKg,Bench1Kg,Bench2Kg,Bench3Kg,Best3BenchKg,Deadlift1Kg,Deadlift2Kg,Deadlift3Kg,Best3DeadliftKg,TotalKg,Event,Equipment
1,Natalya Paramonova,Наталья Парамонова,Pro Open,Чаны,F,1972-06-02,52,51.7,70,80,-85,80,45,52.5,-55,52.5,80,95,105,105,237.5,SBD,Raw
1,Yuliya Dubrovina,Юлия Дубровина,Pro Open,Сектор Силы,F,1983-06-30,56,55.7,60,-65,65,65,42.5,47.5,-50,47.5,90,100,,100,212.5,SBD,Raw
2,Anna Volkhonskaya,Анна Волхонская,Pro Open,Чаны,F,1996-08-07,56,53.1,50,60,65,65,30,35,-40,35,75,85,95,95,195,SBD,Raw
1,Natalya Besperstova,Наталья Бесперстова,Pro Open,Энергия. ДЮСШ 14,F,1991-02-23,60,59.5,85,90,95,95,50,52.5,-55,52.5,110,120,125,125,272.5,SBD,Raw
2,Kseniya Baskakova,Ксения Баскакова,Pro Open,Сектор Силы,F,1992-02-23,60,60,70,80,-87.5,80,55,60,-62.5,60,105,115,-120,115,255,SBD,Raw
1,Natalya Korenkova,Наталья Коренкова,Pro Open,Чаны,F,1980-01-07,67.5,67.2,100,110,115,115,85,90,-95,90,130,140,150,150,355,SBD,Raw
2,Alina Isakova,Алина Исакова,Pro Open,Сектор Силы,F,1992-01-09,67.5,60.3,75,85,95,95,55,60,,60,90,100,107.5,107.5,262.5,SBD,Raw
1,Elena Tokareva,Елена Токарева,Pro Open,Сектор Силы,F,1988-06-04,75,68.1,80,90,100,100,55,60,-62.5,60,90,100,110,110,270,SBD,Raw
2,Angelina Chernenko,Ангелина Черненко,Pro Open,Без Клуба,F,1979-09-15,75,74,70,80,-90,80,30,-40,,30,80,85,90,90,200,SBD,Raw
1,Svetlana Dubrovina,Светлана Дубровина,Pro Open,Сектор Силы,F,,90,84,-65,65,-72.5,65,45,-50,50,50,80,90,100,100,215,SBD,Raw
1,Elena Konovalova,Елена Коновалова,Pro Open,Чаны,F,1978-08-03,90+,105.6,90,100,107.5,107.5,55,62.5,-67.5,62.5,90,105,115,115,285,SBD,Raw
1,Aleksandr Krestinin,Александр Крестинин,Pro Teen,Сектор Силы,M,1992-11-15,52,50.1,90,102.5,107.5,107.5,55,60,65,65,110,120,135,135,307.5,SBD,Raw
2,Roman Markaryan,Роман Маркарян,Pro Teen,Чаны,M,1993-02-09,52,50.4,70,80,85,85,60,-62.5,,60,100,110,120,120,265,SBD,Raw
3,Maksim Polyakov,Максим Поляков,Pro Teen,Энергия. ДЮСШ 14,M,1995-11-27,52,51.3,65,75,80,80,50,55,-57.5,55,-110,110,115,115,250,SBD,Raw
4,Aleksandr Shumskikh,Александр Шумских,Pro Teen,Кольцово,M,1997-10-10,52,51.7,75,80,85,85,40,45,-47.5,45,80,90,-95,90,220,SBD,Raw
1,Aleksandr Krestinin,Александр Крестинин,Pro Open,Сектор Силы,M,1992-11-15,52,50.1,90,102.5,107.5,107.5,55,60,65,65,110,120,135,135,307.5,SBD,Raw
2,Maksim Polyakov,Максим Поляков,Pro Open,Энергия. ДЮСШ 14,M,1995-11-27,52,51.3,65,75,80,80,50,55,-57.5,55,-110,110,115,115,250,SBD,Raw
1,Vyacheslav Mironenko,Вячеслав Мироненко,Pro Youth,Энергия. ДЮСШ 14,M,1999-06-30,56,54.9,80,90,-100,90,55,60,-65,60,110,120,-125,120,270,SBD,Raw
2,Georgiy Ryadinskiy,Георгий Рядинский,Pro Teen,Чаны,M,1994-05-18,56,55.4,70,80,85,85,-60,65,-70,65,90,100,115,115,265,SBD,Raw
3,Eldar Aliev,Элдар Алиев,Pro Teen,Чаны,M,1996-09-19,56,53.3,-70,70,80,80,50,60,62.5,62.5,80,90,100,100,242.5,SBD,Raw
1,Igor Gorlach,Игорь Горлач,Pro Open,Сектор Силы,M,1987-01-21,56,55.3,70,-80,85,85,70,77.5,82.5,82.5,100,110,120,120,287.5,SBD,Raw
2,Vyacheslav Mironenko,Вячеслав Мироненко,Pro Open,Энергия. ДЮСШ 14,M,1999-06-30,56,54.9,80,90,-100,90,55,60,-65,60,110,120,-125,120,270,SBD,Raw
1,Minas Karapetyan,Минас Карапетян,Pro Teen,Сектор Силы,M,1994-06-30,60,60,125,135,-140,135,105,115,120,120,-155,155,170,170,425,SBD,Raw
2,Ruslan Abdrakhmanov,Руслан Абдрахманов,Pro Teen,Чаны,M,1995-11-11,60,60,-100,105,115,115,80,-85,-85,80,140,150,170,170,365,SBD,Raw
3,Aleksandr Novak,Александр Новак,Pro Teen,Чаны,M,1995-06-30,60,60,90,100,-110,100,50,55,60,60,115,125,132.5,132.5,292.5,SBD,Raw
4,Demur Khorava,Демур Хорава,Pro Teen,Сектор Силы,M,1995-06-06,60,57.6,85,95,-102.5,95,60,-65,-65,60,120,130,,130,285,SBD,Raw
5,Timofey Korotkikh,Тимофей Коротких,Pro Juniors 20-23,Кольцово,M,1990-08-20,60,57,75,80,85,85,65,67.5,-70,67.5,-95,100,105,105,257.5,SBD,Raw
6,Anton Vurm,Антон Вурм,Pro Teen,Чаны,M,1997-11-28,60,60,60,70,-80,70,35,40,-47.5,40,95,105,-115,105,215,SBD,Raw
DQ,Nikita Gordeev,Никита Гордеев,Pro Teen,Сектор Силы,M,1996-03-16,60,59.8,95,-105,-105,95,-77,-77.5,-82.5,,,,,,,SBD,Raw
1,Aleksey Balachiy,Алексей Балачий,Pro Open,Легион,M,1987-03-03,60,59.8,125,130,140,140,80,90,-100,90,160,185,200,200,430,SBD,Raw
2,Demur Khorava,Демур Хорава,Pro Open,Сектор Силы,M,1995-06-06,60,57.6,85,95,-102.5,95,60,-65,-65,60,120,130,,130,285,SBD,Raw
1,Dmitriy Kolmykov,Дмитрий Колмыков,Pro Teen,Чаны,M,1993-03-13,67.5,66.6,150,-160,-170,150,80,85,92.5,92.5,200,210,217.5,217.5,460,SBD,Raw
2,Pavel Evtushenko,Павел Евтушенко,Pro Teen,Алтай,M,1992-01-06,67.5,65.8,-130,135,142.5,142.5,75,80,-85,80,180,190,200,200,422.5,SBD,Raw
3,Konstantin Klekovkin,Константин Клековкин,Pro Teen,Без Клуба,M,1996-06-01,67.5,67.4,-50,50,-60,50,55,62.5,65,65,95,105,115,115,230,SBD,Raw
1,Pavel Kaminskiy,Павел Каминский,Pro Open,Сектор Силы,M,1984-06-30,67.5,67.3,140,155,165,165,115,120,125,125,180,195,-205,195,485,SBD,Raw
2,Aleksandr Murzin,Александр Мурзин,Pro Open,Сектор Силы,M,1987-06-30,67.5,65.8,140,150,-160,150,100,107.5,-112.5,107.5,170,182.5,195,195,452.5,SBD,Raw
3,Pavel Evtushenko,Павел Евтушенко,Pro Open,Алтай,M,1992-01-06,67.5,65.8,-130,135,142.5,142.5,75,80,-85,80,180,190,200,200,422.5,SBD,Raw
4,Viktor Shumskikh,Виктор Шумских,Pro Open,Кольцово,M,1989-06-28,67.5,67.3,-150,150,160,160,90,-100,-100,90,-150,150,165,165,415,SBD,Raw
5,Aleksey Krestinin,Алексей Крестинин,Pro Open,Сектор Силы,M,1991-07-05,67.5,63.9,100,-110,115,115,75,-80,82.5,82.5,120,130,140,140,337,SBD,Raw
6,Valeriy Vishnyakov,Валерий Вишняков,Pro Open,Без Клуба,M,1984-06-30,67.5,67.5,110,120,-130,120,50,-60,-60,50,130,140,-150,140,310,SBD,Raw
1,Vyacheslav Sokolov,Вячеслав Соколов,Pro Teen,Сектор Силы,M,1993-06-30,75,71.5,130,140,150,150,85,90,95,95,180,190,195,195,440,SBD,Raw
2,Grigoriy Borodin,Григорий Бородин,Pro Teen,Сектор Силы,M,1994-06-30,75,72.7,-120,130,140,140,70,80,-87.5,80,160,170,180,180,400,SBD,Raw
3,Aleksey Zabolotskiy,Алексей Заболоцкий,Pro Teen,Обь,M,,75,70.7,120,130,-145,130,80,90,95,95,130,145,152.5,152.5,377.5,SBD,Raw
4,Dmitriy Kovalevskiy,Дмитрий Ковалевский,Pro Teen,Энергия. ДЮСШ 14,M,1994-06-30,75,74.5,100,110,120,120,85,90,-95,90,140,150,160,160,370,SBD,Raw
5,Ivan Vorobey,Иван Воробей,Pro Teen,Без Клуба,M,1994-03-15,75,69.7,105,110,115,115,70,75,77.5,77.5,150,-160,160,160,352.5,SBD,Raw
6,Vladislav Vtorushin,Владислав Вторушин,Pro Teen,Чаны,M,1995-09-14,75,71.1,75,-85,-85,75,40,45,50,50,-135,135,145,145,270,SBD,Raw
7,Dmitriy Podchasov,Дмитрий Подчасов,Pro Teen,Сектор Силы,M,,75,74.3,75,-85,-90,75,65,70,-80,70,120,-125,125,125,270,SBD,Raw
1,Aleksey Samoylov,Алексей Самойлов,Pro Open,Обь,M,,75,72,145,155,162.5,162.5,120,127.5,132.5,132.5,205,215,222.5,222.5,517.5,SBD,Raw
2,Denis Shidlovskiy,Денис Шидловский,Pro Open,Сектор Силы,M,,75,75,150,160,167.5,167.5,105,115,-122.5,115,185,195,-205,195,477.5,SBD,Raw
3,Aleksey Polubatonov,Алексей Полубатонов,Pro Open,Без Клуба,M,,75,75,125,-135,135,135,82.5,95,-105,95,125,140,155,155,385,SBD,Raw
4,Mikhail Rybanin,Михаил Рыбанин,Pro Open,Без Клуба,M,1985-03-03,75,70,120,-130,130,130,80,85,87.5,87.5,135,150,160,160,377.5,SBD,Raw
5,Vitaliy Drozdov,Виталий Дроздов,Pro Open,Сектор Силы,M,1984-03-30,75,74.8,-125,125,-135,125,85,-90,90,90,140,145,150,150,365,SBD,Raw
6,Vasiliy Kashnikov,Василий Кашников,Pro Open,Без Клуба,M,1982-08-24,75,74.5,-110,110,115,115,90,-100,-100,90,130,140,150,150,355,SBD,Raw
1,Sergey Nesov,Сергей Несов,Pro Teen,Чаны,M,1991-06-30,82.5,82.5,150,160,170,170,100,-110,-110,100,170,190,210,210,480,SBD,Raw
2,Sergey Kurilov,Сергей Курилов,Pro Teen,Алтай,M,1994-11-30,82.5,80.9,-160,160,-170,160,117.5,-125,-125,117.5,-170,170,200,200,477.5,SBD,Raw
3,Aleksandr Kurmashov,Александр Курмашов,Pro Teen,Атлант,M,1993-07-13,82.5,78.5,145,155,-162.5,155,90,100,110,110,160,175,185,185,450,SBD,Raw
4,Evgeniy Mashkov,Евгений Машков,Pro Teen,Без Клуба,M,1994-06-30,82.5,79.8,120,130,-140,130,100,-105,-105,100,145,157.5,170,170,400,SBD,Raw
5,Sergey Zubov,Сергей Зубов,Pro Teen,Кольцово,M,1994-02-02,82.5,81.6,140,-145,-145,140,90,-95,-95,90,140,150,160,160,390,SBD,Raw
6,Ruslan Knaub,Руслан Кнауб,Pro Teen,Без Клуба,M,1991-11-07,82.5,76.7,127.5,-137.5,140,140,-90,90,95,95,140,152.5,-162.5,152.5,387.5,SBD,Raw
7,Anton Vasilchenko,Антон Васильченко,Pro Teen,Без Клуба,M,1995-06-03,82.5,78.9,100,110,117.5,117.5,85,-95,-95,85,140,150,157.5,157.5,360,SBD,Raw
1,Aleksandr Kuchin,Александр Кучин,Pro Open,Новая Обь,M,1987-06-30,82.5,81.5,160,170,182.5,182.5,110,125,132.5,132.5,200,220,240,240,555,SBD,Raw
2,Viktor Shamin,Виктор Шамин,Pro Open,Сектор Силы,M,1982-10-30,82.5,82.5,170,185,200,200,130,-145,-150,130,190,210,225,225,555,SBD,Raw
3,Egor Varvarinskiy,Егор Варваринский,Pro Open,Без Клуба,M,1976-07-05,82.5,79.6,150,160,167.5,167.5,120,-130,130,130,180,200,215,215,512.5,SBD,Raw
4,Aleksandr Zyryanov,Александр Зырянов,Pro Open,Сектор Силы,M,1991-06-30,82.5,77.8,170,180,-185,180,110,115,-120,115,190,210,212,212,507,SBD,Raw
5,Andrey Lavrentev,Андрей Лавреньтьев,Pro Open,Сектор Силы,M,1973-04-04,82.5,77.4,165,-170,-175,165,90,95,102.5,102.5,-175,180,-185,180,447.5,SBD,Raw
6,Sergey Gostishchev,Сергей Гостищев,Pro Open,Кольцово,M,1982-04-07,82.5,81.2,-135,135,145,145,100,105,-107.5,105,135,155,165,165,415,SBD,Raw
1,Timofey Ermolaev,Тимофей Ермолаев,Pro Teen,Сектор Силы,M,1991-06-30,90,85.3,170,180,-185,180,120,130,140,140,190,200,215,215,535,SBD,Raw
2,Anton Pechenenko,Антон Печененко,Pro Teen,Алтай,M,1991-10-13,90,86,150,-160,160,160,100,110,-115,110,-230,230,240,240,510,SBD,Raw
3,Vlad Kosachev,Влад Косачев,Pro Teen,Сектор Силы,M,1992-06-30,90,85.7,95,102.5,-110,102.5,80,85,-90,85,140,150,160,160,347.5,SBD,Raw
1,Evgeniy Fedyakin,Евгений Федякин,Pro Open,Сектор Силы,M,1980-11-26,90,86.9,200,215,230,230,180,190,-200,190,250,270,-275,270,690,SBD,Raw
2,Dmitriy Spyrgin,Дмитрий Спыргин,Pro Open,Без Клуба,M,1987-06-10,90,83.7,125,135,-145,135,95,105,-115,105,-135,135,160,160,400,SBD,Raw
1,Oleg Vrublevskiy,Олег Врублевский,Pro Masters,Тиерра,M,1968-06-30,90,89.4,170,180,190,190,135,145,-150,145,200,220,-230,220,555,SBD,Raw
1,Geogriy Usov,Геогрий Усов,Pro Teen,Атлант,M,1993-09-01,100,95.6,155,170,180,180,85,100,110,110,175,190,200,200,490,SBD,Raw
2,Pavel Kunievskiy,Павел Куниевский,Pro Teen,Сектор Силы,M,1992-06-30,100,99.7,105,115,120,120,65,-70,70,70,140,150,-160,150,340,SBD,Raw
1,Anatoliy Turtsyn,Анатолий Турцын,Pro Open,Без Клуба,M,1982-11-20,100,95.1,230,240,250,250,140,155,160,160,265,275,285,285,695,SBD,Raw
2,Ilya Guryanov,Илья Гурьянов,Pro Open,Сектор Силы,M,1982-06-30,100,96.4,230,-235,,230,180,190,195,195,250,260,,260,685,SBD,Raw
1,Aleksandr Alekseenko,Александр Алексеенко,Pro Masters,Сектор Силы,M,1963-09-25,110,106.8,170,180,-190,180,145,155,-165,155,200,215,225,225,560,SBD,Raw
1,Aleksandr Alekseenko,Александр Алексеенко,Pro Masters,Сектор Силы,M,1963-09-25,110,106.8,170,180,-190,180,145,155,-165,155,200,215,225,225,560,SBD,Raw
1,Dmitriy Ivanov,Дмитрий Иванов,Pro Teen,Чаны,M,1993-11-28,125,114.3,120,130,140,140,95,105,-107.5,105,150,-160,165,165,410,SBD,Raw
DQ,Dmitriy Kraynov,Дмитрий Крайнов,Pro Teen,Алтай,M,1992-08-12,125,111.9,160,180,-200,180,-120,-120,-120,,,,,,,SBD,Raw
1,Andrey Bondarenko,Андрей Бондаренко,Pro Open,Сектор Силы,M,1981-05-21,125,112,220,230,240,240,190,200,207.5,207.5,250,270,,270,717.5,SBD,Raw
DQ,Dmitriy Kraynov,Дмитрий Крайнов,Pro Open,Алтай,M,1992-08-12,125,111.9,160,180,-200,180,-120,-120,-120,,,,,,,SBD,Raw
DQ,Aleksey Bagrentsev,Алексей Багренцев,Pro Open,Без Клуба,M,1989-07-30,125,111.6,-160,,-160,,,,,,,,,,,SBD,Raw
1,Evgeniy Lomivorotov,Евгений Ломиворотов,Pro Open,Сектор Силы,M,1984-06-30,140,125.5,190,205,215,215,140,150,157.5,157.5,200,215,225,225,597.5,SBD,Raw
2,Sergey Borisov,Сергей Борисов,Pro Open,Сектор Силы,M,1980-06-30,140,125.7,140,150,162.5,162.5,135,145,-150,145,210,225,-235,225,532.5,SBD,Raw
1,Natalya Paramonova,Наталья Парамонова,Pro Open,Чаны,F,1978-06-30,52,51.1,100,110,-125,110,45,52.5,-55,52.5,110,120,-125,120,282.5,SBD,Multi-ply
1,Yuliya Dubrovina,Юлия Дубровина,Pro Open,Сектор Силы,F,1983-06-30,56,55.5,90,100,110,110,45,-50,50,50,90,100,110,110,270,SBD,Multi-ply
1,Alina Isakova,Алина Исакова,Pro Open,Сектор Силы,F,1992-06-30,60,58.7,130,145,157.5,157.5,80,-85,,80,110,120,125,125,362.5,SBD,Multi-ply
2,Kseniya Baskakova,Ксения Баскакова,Pro Open,Сектор Силы,F,1992-06-30,60,60,122.5,130,137.5,137.5,80,85,-90,85,120,130,137.5,137.5,360,SBD,Multi-ply
1,Sveta Vakueva,Света Вакуева,Pro Open,Сектор Силы,F,1973-06-30,67.5,66.4,110,120,130,130,50,55,60,60,110,120,130,130,320,SBD,Multi-ply
1,Yuliya Medvedeva #1,Юлия Медведева,Pro Open,Энергия. ДЮСШ 14,F,,75,74.5,240,,,240,170,,,170,210,230,,230,640,SBD,Multi-ply
1,Irina Nikulina,Ирина Никулина,Pro Open,Обь,F,1988-06-30,82.5,78.9,150,,,150,112.5,-120,,112.5,140,150,,150,412.5,SBD,Multi-ply
DQ,Elena Tvorogova,Елена Творогова,Pro Open,Чаны,F,1979-06-30,90+,108.1,-90,-90,-90,,,,,,,,,,,SBD,Multi-ply
1,Aleksandr Krestinin,Александр Крестинин,Pro Teen,Сектор Силы,M,1992-06-30,52,50.5,-130,135,150,150,50,57.5,70,70,140,150,175,175,395,SBD,Multi-ply
2,Sergey Velts,Сергей Вельц,Pro Teen,Чаны,M,1996-06-30,52,51.4,125,-145,145,145,65,-70,-70,65,-130,130,147.5,147.5,357.5,SBD,Multi-ply
DQ,Rustam Kudusov,Рустам Кудусов,Pro Teen,Энергия. ДЮСШ 14,M,1997-06-30,52,44.1,-80,-80,-80,,,,,,,,,,,SBD,Multi-ply
1,Aleksandr Krestinin,Александр Крестинин,Pro Open,Сектор Силы,M,1992-06-30,52,50.5,-130,135,150,150,50,57.5,70,70,140,150,175,175,395,SBD,Multi-ply
1,Aleksandr Kudrin,Александр Кудрин,Pro Teen,Без Клуба,M,1995-06-30,56,56,125,-140,140,140,-55,55,-60,55,125,135,140,140,335,SBD,Multi-ply
DQ,Vyacheslav Mironenko,Вячеслав Мироненко,Pro Teen,Энергия. ДЮСШ 14,M,1994-06-30,56,54.4,-120,125,-135,125,-65,-65,-65,,,,,,,SBD,Multi-ply
1,Igor Gorlach,Игорь Горлач,Pro Open,Сектор Силы,M,1987-06-30,56,54.9,100,110,-120,110,90,-100,-100,90,100,,,100,300,SBD,Multi-ply
DQ,Vyacheslav Mironenko,Вячеслав Мироненко,Pro Open,Энергия. ДЮСШ 14,M,1994-06-30,56,54.4,-120,125,-135,125,-65,-65,-65,,,,,,,SBD,Multi-ply
1,Ruslan Abdrakhmanov,Руслан Абдрахманов,Pro Teen,Чаны,M,1995-06-30,60,59.1,185,-195,,185,90,97.5,100,100,185,200,-210,200,485,SBD,Multi-ply
2,Vladimir Lobov,Владимир Лобов,Pro Teen,Энергия. ДЮСШ 14,M,1995-06-30,60,60,140,150,160,160,80,85,,85,130,140,145,145,390,SBD,Multi-ply
3,Aleksandr Novak,Александр Новак,Pro Teen,Чаны,M,1995-06-30,60,59.6,-140,150,155,155,60,-65,65,65,140,152.5,160,160,380,SBD,Multi-ply
4,Demur Khorava,Демур Хорава,Pro Teen,Сектор Силы,M,1995-06-30,60,57.6,120,130,140,140,-80,80,-85,80,135,-145,145,145,365,SBD,Multi-ply
1,Aleksey Balachiy,Алексей Балачий,Pro Open,Легион,M,1987-06-30,60,59.7,190,,200,200,90,97,-102.5,97,190,200,210,210,507,SBD,Multi-ply
2,Vladimir Lobov,Владимир Лобов,Pro Open,Энергия. ДЮСШ 14,M,1995-06-30,60,60,140,150,160,160,80,85,,85,130,140,145,145,390,SBD,Multi-ply
3,Demur Khorava,Демур Хорава,Pro Open,Сектор Силы,M,1995-06-30,60,57.6,120,130,140,140,-80,80,-85,80,135,-145,145,145,365,SBD,Multi-ply
1,Evgeniy Gansh,Евгений Ганш,Pro Teen,Алтай,M,1994-04-10,67.5,67.2,-260,-260,260,260,-145,145,-155,145,190,210,220,220,625,SBD,Multi-ply
2,Dmitriy Kolmykov,Дмитрий Колмыков,Pro Teen,Чаны,M,1993-03-31,67.5,66.7,-200,210,-220,210,90,100,-107.5,100,215,225,-235,225,535,SBD,Multi-ply
3,Edgar Margaryan,Эдгар Маргарян,Pro Teen,Чаны,M,1992-11-30,67.5,66.7,190,-200,200,200,92.5,-97.5,-97.5,92.5,185,195,-205,195,487.5,SBD,Multi-ply
4,Aleksandr Zhurov,Александр Журов,Pro Teen,Энергия. ДЮСШ 14,M,1995-06-30,67.5,67.5,210,-230,-230,210,80,-95,-95,80,140,,,140,430,SBD,Multi-ply
1,Evgeniy Gansh,Евгений Ганш,Pro Open,Алтай,M,1994-04-10,67.5,67.2,-260,-260,260,260,-145,145,-155,145,190,210,220,220,625,SBD,Multi-ply
2,Pavel Kaminskiy,Павел Каминский,Pro Open,Без Клуба,M,1984-12-17,67.5,67.5,210,-225,230,230,130,135,140,140,200,215,-220,215,585,SBD,Multi-ply
3,Aleksandr Ivanov,Александр Иванов,Pro Open,Легион,M,1983-06-20,67.5,65.1,210,225,-240,225,100,110,-115,110,200,220,240,240,575,SBD,Multi-ply
4,Aleksandr Murzin,Александр Мурзин,Pro Open,Сектор Силы,M,1989-09-11,67.5,66.1,-220,-220,220,220,130,135,-142.5,135,190,200,-202.5,200,555,SBD,Multi-ply
1,Vyacheslav Sokolov,Вячеслав Соколов,Pro Teen,Сектор Силы,M,1992-02-16,75,71.2,-215,215,-230,215,102.5,-107.5,-107.5,102.5,-205,215,222.5,222.5,540,SBD,Multi-ply
2,Stepan Pakhomov,Степан Пахомов,Pro Teen,Без Клуба,M,1991-08-04,75,73.1,215,225,-235,225,100,107.5,112.5,112.5,180,192.5,200,200,537.5,SBD,Multi-ply
3,Grigoriy Borodin,Григорий Бородин,Pro Teen,Сектор Силы,M,1994-06-30,75,72.8,-190,-190,190,190,-90,95,-102.5,95,165,180,190,190,475,SBD,Multi-ply
DQ,Dmitriy Kobtsev,Дмитрий Кобцев,Pro Teen,Алтай,M,1994-05-20,75,70.2,-205,-205,-205,,105,110,-115,110,,,,,,SBD,Multi-ply
1,Maksim Shvarts,Максим Шварц,Pro Open,Легион,M,1989-11-29,75,70.4,250,-260,270,270,135,145,150,150,230,245,255,255,675,SBD,Multi-ply
2,Konstantin Polyakov,Константин Поляков,Pro Open,Обь,M,1976-04-21,75,74.4,220,-240,-240,220,130,140,145,145,210,220,225,225,590,SBD,Multi-ply
3,Vyacheslav Sokolov,Вячеслав Соколов,Pro Open,Сектор Силы,M,1992-02-16,75,71.2,-215,215,-230,215,102.5,-107.5,-107.5,102.5,-205,215,222.5,222.5,540,SBD,Multi-ply
4,Viktor Chechulin,Виктор Чечулин,Pro Open,Легион,M,1989-12-17,75,73.4,120,135,145,145,80,-90,-90,80,130,145,155,155,380,SBD,Multi-ply
DQ,Yuriy Mikhaylov,Юрий Михайлов,Pro Open,Сектор Силы,M,1987-07-22,75,74.1,-205,-205,-205,,,,,,,,,,,SBD,Multi-ply
1,Aleksandr Mikheev,Александр Михеев,Pro Teen,Сектор Силы,M,1993-06-30,82.5,77.6,-202.5,202.5,212.5,212.5,100,-105,-105,100,182.5,192.5,-202.5,192.5,505,SBD,Multi-ply
2,Kirill Shein,Кирилл Шеин,Pro Teen,Обь,M,1994-03-13,82.5,81.2,140,-160,170,170,75,85,95,95,150,170,190,190,455,SBD,Multi-ply
1,Vyacheslav Yurov,Вячеслав Юров,Pro Open,Алтай,M,1991-02-17,82.5,80.4,-310,-310,320,320,230,-240,,230,260,280,-300,280,830,SBD,Multi-ply
2,Aleksandr Druzhinin,Александр Дружинин,Pro Open,Обь,M,1989-05-27,82.5,82.3,280,300,310,310,180,195,-200,195,260,280,-290,280,785,SBD,Multi-ply
3,Denis Shidlovskiy,Денис Шидловский,Pro Open,Сектор Силы,M,1983-12-20,82.5,75.1,220,240,-250,240,130,137.5,-145,137.5,160,185,200,200,577.5,SBD,Multi-ply
1,Vadim Vandakurov,Вадим Вандакуров,Pro Teen,Алтай,M,1992-06-30,90,86.3,300,-320,-342.5,300,170,190,,190,270,300,-325,300,790,SBD,Multi-ply
2,Sergey Nesov,Сергей Несов,Pro Teen,Чаны,M,1991-06-30,90,84.5,230,240,-250,240,120,127.5,-132.5,127.5,225,235,240,240,607.5,SBD,Multi-ply
3,Vlad Kosachev,Влад Косачев,Pro Teen,Сектор Силы,M,1993-06-30,90,85.1,150,162.5,172.5,172.5,90,-95,-95,90,155,-165,-165,155,417.5,SBD,Multi-ply
1,Vadim Vandakurov,Вадим Вандакуров,Pro Open,Алтай,M,1992-06-30,90,86.3,300,-320,-342.5,300,170,190,,190,270,300,-325,300,790,SBD,Multi-ply
2,Mikhail Makarov,Михаил Макаров,Pro Open,Без Клуба,M,1985-06-30,90,88.6,270,290,300,300,170,177.5,182.5,182.5,270,290,302.5,302.5,785,SBD,Multi-ply
3,Anton Zherebtsov,Антон Жеребцов,Pro Open,Обь,M,1987-06-30,90,84.6,200,-220,-230,200,120,-127.5,-127.5,120,200,210,-215,210,530,SBD,Multi-ply
1,Valeriy Laryushkin,Валерий Ларюшкин,Pro Masters,Сектор Силы,M,1945-06-30,90,88.3,110,130,-150,130,-80,80,-90,80,140,155,,155,365,SBD,Multi-ply
1,Danil Fomenko,Данил Фоменко,Pro Teen,Легион,M,1992-01-30,100,99.1,200,220,240,240,-155,155,165,165,200,210,230,230,635,SBD,Multi-ply
2,Stanislav Shishkin,Станислав Шишкин,Pro Teen,Без Клуба,M,1992-12-30,100,93.5,200,210,220,220,120,-130,-130,120,200,220,,220,560,SBD,Multi-ply
3,Pavel Kunievskiy,Павел Куниевский,Pro Teen,Сектор Силы,M,1994-07-19,100,99.6,-150,160,167.5,167.5,-85,-85,85,85,140,150,-160,150,402.5,SBD,Multi-ply
1,Anatoliy Turtsyn,Анатолий Турцын,Pro Open,Без Клуба,M,1982-11-20,100,95,300,320,-332.5,320,180,190,200,200,280,295,305,305,825,SBD,Multi-ply
2,Vladislav Filipovich,Владислав Филипович,Pro Open,Обь,M,1991-01-28,100,91.7,300,-320,325,325,200,-210,210,210,-250,270,287.5,287.5,822.5,SBD,Multi-ply
3,Sergey Kuzmin,Сергей Кузьмин,Pro Open,Сектор Силы,M,,100,97.1,-230,-230,230,230,170,-180,-180,170,230,-250,-250,230,630,SBD,Multi-ply
1,Artem Feofilov,Артем Феофилов,Pro Open,Легион,M,1989-05-05,110,106.8,290,310,330,330,180,195,205,205,250,260,270,270,805,SBD,Multi-ply
2,Aleksandr Alekseenko,Александр Алексеенко,Pro Open,Сектор Силы,M,1963-09-25,110,105.6,210,230,250,250,190,205,,205,200,220,-235,220,675,SBD,Multi-ply
1,Aleksandr Alekseenko,Александр Алексеенко,Pro Masters,Сектор Силы,M,1963-09-25,110,105.6,210,230,250,250,190,205,,205,200,220,-235,220,675,SBD,Multi-ply
2,Aleksandr Doronin,Александр Доронин,Pro Masters,Чаны,M,1943-02-28,110,100.9,150,160,170,170,80,85,-90,85,200,215,225,225,480,SBD,Multi-ply
1,Dmitriy Ivanov,Дмитрий Иванов,Pro Teen,Чаны,M,1993-11-08,125,111.8,155,165,175,175,100,-105,-105,100,155,-165,-165,155,430,SBD,Multi-ply
1,Andrey Bondarenko,Андрей Бондаренко,Pro Open,Сектор Силы,M,1981-05-21,125,112,240,260,275,275,190,200,-210,200,240,250,270,270,745,SBD,Multi-ply
1,Natalya Paramonova,Наталья Парамонова,Pro Open,Чаны,F,1972-06-02,52,51.7,,,,,45,52.5,-55,52.5,,,,,52.5,B,Raw
2,Valeriya Muraveva,Валерия Муравьева,Pro Open,Алтай,F,1996-01-12,52,51.5,,,,,47.5,-55,-55,47.5,,,,,47.5,B,Raw
1,Aya Antipova,Ая Антипова,Pro Open,Алтай,F,1988-03-09,56,52.9,,,,,75,-80,-80,75,,,,,75,B,Raw
2,Yuliya Dubrovina,Юлия Дубровина,Pro Open,Сектор Силы,F,1983-06-30,56,55.7,,,,,42.5,47.5,-50,47.5,,,,,47.5,B,Raw
1,Kseniya Baskakova,Ксения Баскакова,Pro Open,Сектор Силы,F,1992-02-23,60,60,,,,,55,60,-62.5,60,,,,,60,B,Raw
2,Natalya Besperstova,Наталья Бесперстова,Pro Open,Энергия. ДЮСШ 14,F,1991-02-23,60,59.5,,,,,50,52.5,-55,52.5,,,,,52.5,B,Raw
1,Natalya Korenkova,Наталья Коренкова,Pro Open,Чаны,F,1980-01-07,67.5,67.2,,,,,85,90,-95,90,,,,,90,B,Raw
2,Alina Isakova,Алина Исакова,Pro Open,Сектор Силы,F,1992-01-09,67.5,60.3,,,,,55,60,,60,,,,,60,B,Raw
1,Yuliya Medvedeva #1,Юлия Медведева,Pro Open,Энергия. ДЮСШ 14,F,1979-07-08,75,74.5,,,,,125,135,-140,135,,,,,135,B,Raw
1,Irina Nikulina,Ирина Никулина,Pro Open,Обь,F,,82.5,79.7,,,,,105,110,-115,110,,,,,110,B,Raw
1,Svetlana Dubrovina,Светлана Дубровина,Pro Open,Сектор Силы,F,,90,84,,,,,45,-50,50,50,,,,,50,B,Raw
1,Elena Konovalova,Елена Коновалова,Pro Open,Чаны,F,1978-08-03,90+,105.6,,,,,55,62.5,-67.5,62.5,,,,,62.5,B,Raw
2,Elena Tvorogova,Елена Творогова,Pro Open,Чаны,F,1979-08-12,90+,108.4,,,,,45,50,-52.5,50,,,,,50,B,Raw
1,Aleksandr Krestinin,Александр Крестинин,Pro Teen,Сектор Силы,M,1992-11-15,52,50.1,,,,,55,60,65,65,,,,,65,B,Raw
2,Roman Markaryan,Роман Маркарян,Pro Teen,Чаны,M,1993-02-09,52,50.4,,,,,60,-62.5,,60,,,,,60,B,Raw
3,Maksim Polyakov,Максим Поляков,Pro Teen,Энергия. ДЮСШ 14,M,1995-11-27,52,51.3,,,,,50,55,-57.5,55,,,,,55,B,Raw
4,Timur Tashtemirov,Тимур Таштемиров,Pro Teen,Тиерра,M,1996-06-30,52,50.3,,,,,47.5,-50,50,50,,,,,50,B,Raw
1,Ilya Korin,Илья Корин,Pro Open,Чаны,M,1990-12-04,52,50.7,,,,,60,65,67.5,67.5,,,,,67.5,B,Raw
2,Aleksandr Krestinin,Александр Крестинин,Pro Open,Сектор Силы,M,1992-11-15,52,50.1,,,,,55,60,65,65,,,,,65,B,Raw
3,Maksim Polyakov,Максим Поляков,Pro Open,Энергия. ДЮСШ 14,M,1995-11-27,52,51.3,,,,,50,55,-57.5,55,,,,,55,B,Raw
1,Ildar Gatiatulin,Ильдар Гатиатулин,Pro Teen,Викинг,M,1992-06-30,56,53.7,,,,,60,65,-70,65,,,,,65,B,Raw
2,Georgiy Ryadinskiy,Георгий Рядинский,Pro Teen,Чаны,M,1994-05-18,56,55.4,,,,,-60,65,-70,65,,,,,65,B,Raw
3,Eldar Aliev,Элдар Алиев,Pro Teen,Чаны,M,1996-09-19,56,53.3,,,,,50,60,62.5,62.5,,,,,62.5,B,Raw
4,Vyacheslav Mironenko,Вячеслав Мироненко,Pro Youth,Энергия. ДЮСШ 14,M,1999-06-30,56,54.9,,,,,55,60,-65,60,,,,,60,B,Raw
1,Igor Gorlach,Игорь Горлач,Pro Open,Сектор Силы,M,1987-01-21,56,55.3,,,,,70,77.5,82.5,82.5,,,,,82.5,B,Raw
2,Vyacheslav Mironenko,Вячеслав Мироненко,Pro Open,Энергия. ДЮСШ 14,M,1999-06-30,56,54.9,,,,,55,60,-65,60,,,,,60,B,Raw
1,Minas Karapetyan,Минас Карапетян,Pro Teen,Сектор Силы,M,1994-06-30,60,60,,,,,105,115,120,120,,,,,120,B,Raw
2,Nikolay Adamovich,Николай Адамович,Pro Teen,Чаны,M,1992-01-06,60,59.4,,,,,92.5,97.5,100,100,,,,,100,B,Raw
3,Stepan Dolgushin,Степан Долгушин,Pro Teen,Тиерра,M,1995-06-30,60,59.8,,,,,70,82.5,-85,82.5,,,,,82.5,B,Raw
1,Dmitriy Glotov,Дмитрий Глотов,Pro Open,Сектор Силы,M,1978-06-30,60,59.6,,,,,110,115,-120,115,,,,,115,B,Raw
2,Demur Khorava,Демур Хорава,Pro Open,Сектор Силы,M,1995-06-06,60,57.6,,,,,60,-65,-65,60,,,,,60,B,Raw
1,Dmitriy Kolmykov,Дмитрий Колмыков,Pro Teen,Чаны,M,1993-03-13,67.5,66.6,,,,,80,85,92.5,92.5,,,,,92.5,B,Raw
1,Dmitriy Kaygorodov,Дмитрий Кайгородов,Pro Open,Тиерра,M,1983-09-24,67.5,64.1,,,,,130,137.5,140,140,,,,,140,B,Raw
2,Kakhramon Dekhkonov,Кахрамон Дехконов,Pro Open,Сектор Силы,M,1988-09-08,67.5,67.2,,,,,130,135,-137.5,135,,,,,135,B,Raw
3,Aleksey Krestinin,Алексей Крестинин,Pro Open,Сектор Силы,M,1991-07-05,67.5,63.9,,,,,75,-80,82.5,82.5,,,,,82,B,Raw
1,Petr Nesterenko,Петр Нестеренко,Pro Teen,Без Клуба,M,1991-08-04,75,74.7,,,,,115,120,-122.5,120,,,,,120,B,Raw
2,Dmitriy Kovalevskiy,Дмитрий Ковалевский,Pro Teen,Энергия. ДЮСШ 14,M,1994-06-30,75,74.5,,,,,85,90,-95,90,,,,,90,B,Raw
3,Edgar Margaryan,Эдгар Маргарян,Pro Teen,Чаны,M,1992-11-30,75,68.9,,,,,75,82.5,85,85,,,,,85,B,Raw
1,Daniil Lamanov,Даниил Ламанов,Pro Open,Атлант,M,1987-06-30,75,70.5,,,,,135,145,150,150,,,,,150,B,Raw
2,Sergey Stakheev,Сергей Стахеев,Pro Open,Викинг,M,1984-11-22,75,74,,,,,140,-150,150,150,,,,,150,B,Raw
3,Aleksandr Sorokin,Александр Сорокин,Pro Open,Обь,M,1980-05-29,75,75,,,,,145,150,-152.5,150,,,,,150,B,Raw
4,Sergey Zhuganenko,Сергей Жуганенко,Pro Open,Без Клуба,M,1987-02-11,75,74.5,,,,,100,110,115,115,,,,,115,B,Raw
5,Denis Shidlovskiy,Денис Шидловский,Pro Open,Сектор Силы,M,,75,75,,,,,105,115,-122.5,115,,,,,115,B,Raw
1,Nikolay Shekhonin,Николай Шехонин,Pro Teen,Легион,M,1992-06-30,82.5,80.6,,,,,130,140,147.5,147.5,,,,,147.5,B,Raw
2,Denis Zenin,Денис Зенин,Pro Teen,Тиерра,M,1993-06-30,82.5,82.2,,,,,-140,140,-147.5,140,,,,,140,B,Raw
3,Eduard Kolbakh,Эдуард Кольбах,Pro Teen,Без Клуба,M,1995-05-01,82.5,82.5,,,,,85,-100,100,100,,,,,100,B,Raw
4,Sergey Nesov,Сергей Несов,Pro Teen,Чаны,M,1991-06-30,82.5,82.5,,,,,100,-110,-110,100,,,,,100,B,Raw
1,Nikolay Berezovskiy,Николай Березовский,Pro Open,Proff Лига,M,1987-06-30,82.5,80.8,,,,,155,165,170,170,,,,,170,B,Raw
2,Viktor Shamin,Виктор Шамин,Pro Open,Сектор Силы,M,1982-10-30,82.5,82.5,,,,,130,-145,-150,130,,,,,130,B,Raw
3,Maksim Razon,Максим Разон,Pro Open,Без Клуба,M,1990-03-24,82.5,77,,,,,90,-97.5,-97.5,90,,,,,90,B,Raw
1,Sergey Boldin,Сергей Болдин,Pro Masters,Без Клуба,M,1971-06-03,82.5,82.4,,,,,120,-125,-125,120,,,,,120,B,Raw
1,Timofey Ermolaev,Тимофей Ермолаев,Pro Teen,Сектор Силы,M,1991-06-30,90,85.3,,,,,120,130,140,140,,,,,140,B,Raw
1,Sergey Panin,Сергей Панин,Pro Open,Сектор Силы,M,1975-06-18,90,87.8,,,,,190,200,-205,200,,,,,200,B,Raw
2,Evgeniy Fedyakin,Евгений Федякин,Pro Open,Сектор Силы,M,1980-11-26,90,86.9,,,,,180,190,-200,190,,,,,190,B,Raw
3,Aleksandr Gantimurov,Александр Гантимуров,Pro Open,Сектор Силы,M,1985-06-19,90,90,,,,,170,180,187.5,187.5,,,,,187.5,B,Raw
4,Igor Ryzhov,Игорь Рыжов,Pro Open,Легион,M,1985-10-24,90,86.9,,,,,180,-185,185,185,,,,,185,B,Raw
5,Sergey Medvedev,Сергей Медведев,Pro Open,Энергия. ДЮСШ 14,M,1981-02-12,90,89.4,,,,,160,170,175,175,,,,,175,B,Raw
6,Aleksandr Smirnov,Александр Смирнов,Pro Open,Легион,M,1985-03-04,90,88.1,,,,,150,162.5,-165,162.5,,,,,162.5,B,Raw
7,Aleksey Zavorin,Алексей Заворин,Pro Open,Сектор Силы,M,1975-04-30,90,85.9,,,,,150,160,-165,160,,,,,160,B,Raw
8,Ilya Razuvaykin,Илья Разувайкин,Pro Open,Обь,M,1985-04-03,90,85.8,,,,,140,147.5,-150,147.5,,,,,147.5,B,Raw
9,Yuriy Mamontov,Юрий Мамонтов,Pro Open,Сектор Силы,M,1980-08-25,90,89.6,,,,,-120,-120,120,120,,,,,120,B,Raw
10,Igor Telichkin,Игорь Теличкин,Pro Open,Викинг,M,1988-07-26,90,86.4,,,,,100,105,107.5,107.5,,,,,107.5,B,Raw
1,Vsevolod Sandomirskiy,Всеволод Сандомирский,Pro Masters,Сектор Силы,M,1969-01-01,90,86.8,,,,,140,-150,-150,140,,,,,140,B,Raw
1,Alexey Merkulov,Алексей Меркулов,Pro Open,Алтай,M,1973-07-24,100,96.7,,,,,200,210,215,215,,,,,215,B,Raw
2,Ilya Guryanov,Илья Гурьянов,Pro Open,Сектор Силы,M,1982-06-30,100,96.4,,,,,180,190,195,195,,,,,195,B,Raw
3,Zaur Magerramov,Заур Магеррамов,Pro Open,Proff Лига,M,1988-05-07,100,98.6,,,,,162.5,172.5,177.5,177.5,,,,,177.5,B,Raw
4,Sergey Savoskin,Сергей Савоськин,Pro Open,Сектор Силы,M,1982-05-04,100,94,,,,,150,160,165,165,,,,,165,B,Raw
5,Ivan Klemenko,Иван Клеменко,Pro Open,Proff Лига,M,1980-11-20,100,97.8,,,,,160,165,-172.5,165,,,,,165,B,Raw
6,Igor Lepikhov,Игорь Лепихов,Pro Open,Без Клуба,M,1976-08-10,100,96.9,,,,,155,160,-162.5,160,,,,,160,B,Raw
7,Roman Belyavskiy,Роман Белявский,Pro Open,Proff Лига,M,1987-06-30,100,99.8,,,,,-155,-155,155,155,,,,,155,B,Raw
8,Sergey Lebedev,Сергей Лебедев,Pro Open,Кольцово,M,2001-08-15,100,93.8,,,,,140,150,,150,,,,,150,B,Raw
9,Pavel Zavyalov,Павел Завьялов,Pro Open,Сектор Силы,M,1989-04-17,100,90.9,,,,,135,140,-145,140,,,,,140,B,Raw
10,Mikhail Kiselev,Михаил Киселев,Pro Open,Сектор Силы,M,1976-09-29,100,97.5,,,,,130,140,-147.5,140,,,,,140,B,Raw
11,Aleksey Dvukhrechenskiy,Алексей Двухреченский,Pro Open,Без Клуба,M,1989-09-06,100,96.7,,,,,105,110,-115,110,,,,,110,B,Raw
1,Sergey Zheleshchikov,Сергей Желещиков,Pro Masters,Без Клуба,M,1970-06-04,100,98.4,,,,,120,130,-140,130,,,,,130,B,Raw
1,Andrey Shelest,Андрей Шелест,Pro Open,Викинг,M,1987-06-30,110,108.3,,,,,195,-205,205,205,,,,,205,B,Raw
2,Aleksandr Alekseenko,Александр Алексеенко,Pro Open,Сектор Силы,M,1963-09-25,110,106.8,,,,,145,155,-165,155,,,,,155,B,Raw
1,Aleksandr Alekseenko,Александр Алексеенко,Pro Masters,Сектор Силы,M,1963-09-25,110,106.8,,,,,145,155,-165,155,,,,,155,B,Raw
1,Dmitriy Ivanov,Дмитрий Иванов,Pro Teen,Чаны,M,1993-11-28,125,114.3,,,,,95,105,-107.5,105,,,,,105,B,Raw
1,Stanislav Kolachev,Станислав Колачев,Pro Open,Proff Лига,M,1987-03-20,125,114,,,,,210,220,225,225,,,,,225,B,Raw
2,Andrey Bondarenko,Андрей Бондаренко,Pro Open,Сектор Силы,M,1981-05-21,125,112,,,,,190,200,207.5,207.5,,,,,207.5,B,Raw
3,Nikolay Boykov,Николай Бойков,Pro Open,Proff Лига,M,1969-12-17,125,121.5,,,,,185,195,-205,195,,,,,195,B,Raw
4,Aleksey Gladkikh,Алексей Гладких,Pro Open,Без Клуба,M,1979-06-30,125,115,,,,,190,-195,,190,,,,,190,B,Raw
5,Stanislav Plyusov,Станислав Плюсов,Pro Open,Викинг,M,1988-07-30,125,112.2,,,,,105,-110,-110,105,,,,,105,B,Raw
1,Nikolay Boykov,Николай Бойков,Pro Masters,Proff Лига,M,1969-12-17,125,121.5,,,,,185,195,-205,195,,,,,195,B,Raw
1,Evgeniy Lomivorotov,Евгений Ломиворотов,Pro Open,Сектор Силы,M,1984-06-30,140,125.5,,,,,140,150,157.5,157.5,,,,,157.5,B,Raw
1,Yuliya Dubrovina,Юлия Дубровина,Pro Open,Сектор Силы,F,1983-06-30,56,55.5,,,,,45,-50,50,50,,,,,50,B,Multi-ply
1,Kseniya Baskakova,Ксения Баскакова,Pro Open,Сектор Силы,F,1992-06-30,60,60,,,,,80,85,-90,85,,,,,85,B,Multi-ply
2,Alina Isakova,Алина Исакова,Pro Open,Сектор Силы,F,1992-06-30,60,58.7,,,,,80,-85,,80,,,,,80,B,Multi-ply
1,Sveta Vakueva,Света Вакуева,Pro Open,Сектор Силы,F,1973-06-30,67.5,66.4,,,,,50,55,60,60,,,,,60,B,Multi-ply
1,Yuliya Medvedeva #1,Юлия Медведева,Pro Open,Энергия. ДЮСШ 14,F,,75,74.5,,,,,170,,,170,,,,,170,B,Multi-ply
1,Olesya Kudrina,Олеся Кудрина,Pro Open,Чаны,F,1974-06-30,90+,113,,,,,40,45,,45,,,,,45,B,Multi-ply
1,Aleksandr Krestinin,Александр Крестинин,Pro Teen,Сектор Силы,M,1992-06-30,52,50.5,,,,,50,57.5,70,70,,,,,70,B,Multi-ply
2,Roman Markaryan,Роман Маркарян,Pro Teen,Чаны,M,1993-06-30,52,50.6,,,,,65,-67.5,-70,65,,,,,65,B,Multi-ply
3,Sergey Velts,Сергей Вельц,Pro Teen,Чаны,M,1996-06-30,52,51.4,,,,,65,-70,-70,65,,,,,65,B,Multi-ply
1,Ilya Korin,Илья Корин,Pro Open,Чаны,M,1990-06-30,52,50.5,,,,,65,70,72.5,72.5,,,,,72.5,B,Multi-ply
2,Aleksandr Krestinin,Александр Крестинин,Pro Open,Сектор Силы,M,1992-06-30,52,50.5,,,,,50,57.5,70,70,,,,,70,B,Multi-ply
1,Igor Gorlach,Игорь Горлач,Pro Open,Сектор Силы,M,1987-06-30,56,54.9,,,,,90,-100,-100,90,,,,,90,B,Multi-ply
1,Vladimir Zhikan,Владимир Жикан,Pro Teen,Легион,M,1994-06-30,60,59.1,,,,,110,117.5,-120,117.5,,,,,117.5,B,Multi-ply
2,Vladimir Lobov,Владимир Лобов,Pro Teen,Энергия. ДЮСШ 14,M,1995-06-30,60,60,,,,,80,85,,85,,,,,85,B,Multi-ply
1,Vladimir Lobov,Владимир Лобов,Pro Open,Энергия. ДЮСШ 14,M,1995-06-30,60,60,,,,,80,85,,85,,,,,85,B,Multi-ply
1,Evgeniy Gansh,Евгений Ганш,Pro Teen,Алтай,M,1994-04-10,67.5,67.2,,,,,-145,145,-155,145,,,,,145,B,Multi-ply
2,Edgar Margaryan,Эдгар Маргарян,Pro Teen,Чаны,M,1992-11-30,67.5,66.7,,,,,92.5,-97.5,-97.5,92.5,,,,,92.5,B,Multi-ply
1,Evgeniy Gansh,Евгений Ганш,Pro Open,Алтай,M,1994-04-10,67.5,67.2,,,,,-145,145,-155,145,,,,,145,B,Multi-ply
1,Sergey Chalyy,Сергей Чалый,Pro Teen,Алтай,M,1992-03-24,75,74.9,,,,,120,125,130,130,,,,,130,B,Multi-ply
2,Roman Raspopin,Роман Распопин,Pro Teen,Легион,M,1996-03-15,75,69.5,,,,,100,110,120,120,,,,,120,B,Multi-ply
3,Dmitriy Kobtsev,Дмитрий Кобцев,Pro Teen,Алтай,M,1994-05-20,75,70.2,,,,,105,110,-115,110,,,,,110,B,Multi-ply
1,Andrey Pshenin,Андрей Пшенин,Pro Open,Без Клуба,M,1989-06-30,75,72.5,,,,,165,-175,-175,165,,,,,165,B,Multi-ply
2,Konstantin Polyakov,Константин Поляков,Pro Open,Обь,M,1976-04-21,75,74.4,,,,,130,140,145,145,,,,,145,B,Multi-ply
1,Aleksandr Mikheev,Александр Михеев,Pro Teen,Сектор Силы,M,1993-06-30,82.5,77.6,,,,,100,-105,-105,100,,,,,100,B,Multi-ply
1,Aleksandr Abramov,Александр Абрамов,Pro Open,Алтай,M,1987-07-30,82.5,80.8,,,,,210,-220,-225,210,,,,,210,B,Multi-ply
2,Aleksandr Druzhinin,Александр Дружинин,Pro Open,Обь,M,1989-05-27,82.5,82.3,,,,,180,195,-200,195,,,,,195,B,Multi-ply
3,Denis Shidlovskiy,Денис Шидловский,Pro Open,Сектор Силы,M,1983-12-20,82.5,75.1,,,,,130,137.5,-145,137.5,,,,,137.5,B,Multi-ply
1,Sergey Boldin,Сергей Болдин,Pro Masters,Без Клуба,M,1971-05-31,82.5,82.3,,,,,135,140,142.5,142.5,,,,,142.5,B,Multi-ply
1,Sergey Kharisov,Сергей Харисов,Pro Teen,Алтай,M,1991-06-30,90,89.1,,,,,130,190,,190,,,,,190,B,Multi-ply
1,Vadim Alekseev,Вадим Алексеев,Pro Open,Обь,M,1977-06-30,90,89.7,,,,,210,220,-225,220,,,,,220,B,Multi-ply
2,Sergey Kharisov,Сергей Харисов,Pro Open,Алтай,M,1991-06-30,90,89.1,,,,,130,190,,190,,,,,190,B,Multi-ply
3,Sergey Kalabukhov,Сергей Калабухов,Pro Open,Легион,M,1984-06-30,90,87.6,,,,,170,-190,-190,170,,,,,170,B,Multi-ply
4,Aleksandr Engelman,Александр Энгельман,Pro Open,Без Клуба,M,1985-06-30,90,89.1,,,,,145,-152.5,-155,145,,,,,145,B,Multi-ply
1,Danil Fomenko,Данил Фоменко,Pro Teen,Легион,M,1992-01-30,100,99.1,,,,,-155,155,165,165,,,,,165,B,Multi-ply
1,Ivan Vasyunin,Иван Васюнин,Pro Open,Алтай,M,1983-08-01,100,93.6,,,,,275,-290,-300,275,,,,,275,B,Multi-ply
2,Vladislav Filipovich,Владислав Филипович,Pro Open,Обь,M,1991-01-28,100,91.7,,,,,200,-210,210,210,,,,,210,B,Multi-ply
3,Sergey Kuzmin,Сергей Кузьмин,Pro Open,Сектор Силы,M,,100,97.1,,,,,170,-180,-180,170,,,,,170,B,Multi-ply
1,Konstantin Zakharov,Константин Захаров,Pro Open,Без Клуба,M,1981-06-22,110,102.8,,,,,195,205,215,215,,,,,215,B,Multi-ply
2,Aleksandr Alekseenko,Александр Алексеенко,Pro Open,Сектор Силы,M,1963-09-25,110,105.6,,,,,190,205,,205,,,,,205,B,Multi-ply
1,Aleksandr Alekseenko,Александр Алексеенко,Pro Masters,Сектор Силы,M,1963-09-25,110,105.6,,,,,190,205,,205,,,,,205,B,Multi-ply
1,Dmitriy Kraynov,Дмитрий Крайнов,Pro Teen,Алтай,M,1992-08-12,125,111.9,,,,,110,115,,115,,,,,115,B,Multi-ply
1,Aleksandr Guborenko,Александр Губоренко,Pro Teen,Без Клуба,M,1991-07-16,140,127.2,,,,,162.5,170,177.5,177.5,,,,,177.5,B,Multi-ply
1,Sergey Borisov,Сергей Борисов,Pro Open,Сектор Силы,M,1981-06-30,140,126.1,,,,,-160,162.5,-167.5,162.5,,,,,162.5,B,Multi-ply
