Place,Sex,Name,CyrillicName,BodyweightKg,Squat1Kg,Squat2Kg,Squat3Kg,Best3SquatKg,Squat4Kg,Bench1Kg,Bench2Kg,Bench3Kg,Best3BenchKg,Bench4Kg,Deadlift1Kg,Deadlift2Kg,Deadlift3Kg,Best3DeadliftKg,Deadlift4Kg,TotalKg,WeightClassKg,Event,Equipment,Tested,Division,BirthDate
1,F,Svetlana Pelikh,Светлана Пелих,43,60,62.5,-65,62.5,,32.5,35,37.5,37.5,,95,100,102.5,102.5,,202.5,44,SBD,Raw,No,Pro Open,1990-01-09
1,F,Varvara Burkut,Варвара Буркут,52.3,95,105,110,110,,60,65,-72.5,65,,120,130,135,135,,310,56,SBD,Raw,No,Pro Open,1985-01-28
1,F,Elena Talan,Елена Талан,59.3,80,85,-95,85,,40,-45,45,45,,112.5,,,112.5,,242.5,60,SBD,Raw,No,Pro Open,1986-10-30
1,M,Aleksey Nuyanzin,Алексей Нуянзин,65.9,-120,-120,120,120,,95,100,-102.5,100,,125,-130,-130,125,,345,67.5,SBD,Raw,No,Pro Teen 16-17,2000-11-03
1,M,Rusif Dzhabbarov,Русиф Джаббаров,62.6,140,160,-167.5,160,,100,107.5,-115,107.5,,180,200,207.5,207.5,,475,67.5,SBD,Raw,No,Pro Teen 18-19,1998-12-02
2,M,Vladimir Sukharev,Владимир Сухарев,66.6,-127.5,-127.5,127.5,127.5,,-105,107.5,-112.5,107.5,,150,157.5,170,170,,405,67.5,SBD,Raw,No,Pro Teen 18-19,2000-01-02
1,M,Sergey Shemelin,Сергей Шемелин,66,75,-85,90,90,,-65,70,-72.5,70,,110,120,130,130,,290,67.5,SBD,Raw,No,Pro Masters 65-69,1953-04-01
1,M,Dmitriy Beketov,Дмитрий Бекетов,74,-95,95,100,100,,-77.5,82.5,-87.5,82.5,,110,120,-130,120,,302.5,75,SBD,Raw,No,Pro Teen 16-17,2002-04-26
1,M,Sergey Sorokin,Сергей Сорокин,74.2,-165,165,172.5,172.5,,97.5,105,-110,105,,150,160,-167.5,160,,437.5,75,SBD,Raw,No,Pro Teen 18-19,1999-05-27
1,M,Aleksey Kurzantsev,Алексей Курзанцев,74.8,200,-210,-210,200,,-132.5,-132.5,132.5,132.5,,240,250,-280,250,,582.5,75,SBD,Raw,No,Pro Juniors 20-23,1995-04-30
1,M,Aleksey Kurzantsev,Алексей Курзанцев,74.8,200,-210,-210,200,,-132.5,-132.5,132.5,132.5,,240,250,-280,250,,582.5,75,SBD,Raw,No,Pro Open,1995-04-30
1,F,Tatyana Kashtanova,Татьяна Каштанова,55.8,115,122.5,130,130,,57.5,60,-62.5,60,,115,122.5,-130,122.5,,312.5,56,SBD,Raw,No,Pro Open,1985-03-27
2,F,Elena Malysheva,Елена Малышева,54.9,95,-102.5,102.5,102.5,,50,57.5,-60,57.5,,120,-127.5,132.5,132.5,,292.5,56,SBD,Raw,No,Pro Open,1981-03-18
3,F,Evgeniya Panova,Евгения Панова,55.4,105,-115,115,115,,57.5,60,62.5,62.5,,-105,105,-115,105,,282.5,56,SBD,Raw,No,Pro Open,1987-10-14
1,F,Svetlana Saburova,Светлана Сабурова,67.5,-117.5,117.5,-125,117.5,,52.5,57.5,-62.5,57.5,,-150,150,157.5,157.5,,332.5,67.5,SBD,Raw,No,Pro Masters 45-49,1972-02-20
1,F,Kseniya Suslova,Ксения Суслова,81,115,125,-132.5,125,,57.5,-65,-65,57.5,,115,-130,130,130,,312.5,82.5,SBD,Raw,No,Pro Open,1993-06-08
1,M,Dmitriy Kabakov,Дмитрий Кабаков,66.1,155,160,-165,160,,92.5,97.5,-100,97.5,,160,170,185,185,,442.5,67.5,SBD,Raw,No,Pro Teen 13-15,2002-12-04
1,M,Sergey Khazimuratov,Сергей Хазимуратов,73.7,160,170,177.5,177.5,,95,-100,-102.5,95,,-160,162.5,170,170,,442.5,75,SBD,Raw,No,Pro Open,1989-08-29
1,M,Pavel Aseev,Павел Асеев,81,-150,-150,150,150,,-85,85,92.5,92.5,,170,-180,185,185,,427.5,82.5,SBD,Raw,No,Pro Open,1980-10-25
1,M,Artem Safronov,Артем Сафронов,88.2,-160,-160,160,160,,110,-115,-115,110,,160,170,-180,170,,440,90,SBD,Raw,No,Pro Teen 13-15,2003-03-30
1,F,Lyubov Pugach,Любовь Пугач,67.5,-80,80,90,90,,50,-60,-60,50,,90,100,110,110,,250,67.5,SBD,Single-ply,No,Pro Open,1987-04-03
1,M,Anton Cheremushnikov,Антон Черемушников,70,170,185,200,200,,120,130,-137.5,130,,180,200,220,220,,550,75,SBD,Raw,No,Pro Open,1984-10-12
2,M,Aleksey Starkov,Алексей Старков,74.7,150,160,-165,160,,125,-132.5,135,135,,180,-190,190,190,,485,75,SBD,Raw,No,Pro Open,1991-08-21
1,M,Ivan Zarudnyy,Иван Зарудный,98.7,165,175,190,190,,115,125,135,135,,-175,180,-205,180,,505,100,SBD,Raw,No,Pro Juniors 20-23,1996-05-19
1,M,Ivan Zakharov,Иван Захаров,109,300,-310,-310,300,,180,190,195,195,,335,350,,350,,845,110,SBD,Raw,No,Pro Open,1990-02-15
2,M,Aleksandr Eremenko,Александр Еременко,105.7,240,260,-270,260,,170,180,190,190,,240,-260,-260,240,,690,110,SBD,Raw,No,Pro Open,1994-09-08
3,M,Sergey Misyachenko,Сергей Мисяченко,105.5,210,220,-235,220,,160,165,170,170,,220,230,250,250,,640,110,SBD,Raw,No,Pro Open,1974-09-03
4,M,Artem Zaytsev #1,Артем Зайцев,109.5,210,-220,-220,210,,170,180,190,190,,75,,,75,,475,110,SBD,Raw,No,Pro Open,1988-02-02
1,M,Sergey Misyachenko,Сергей Мисяченко,105.5,210,220,-235,220,,160,165,170,170,,220,230,250,250,,640,110,SBD,Raw,No,Pro Masters 40-44,1974-09-03
1,M,Vasiliy Ostanin,Василий Останин,124.9,240,260,-270,260,,190,197.5,-200,197.5,,260,-285,-285,260,,717.5,125,SBD,Raw,No,Pro Open,1974-05-18
2,M,Dmitriy Tretyakov,Дмитрий Третьяков,113.3,200,-210,-210,200,,185,190,,190,,230,240,-245,240,,630,125,SBD,Raw,No,Pro Open,1978-05-16
1,M,Vasiliy Ostanin,Василий Останин,124.9,240,260,-270,260,,190,197.5,-200,197.5,,260,-285,-285,260,,717.5,125,SBD,Raw,No,Pro Masters 40-44,1974-05-18
1,F,Aleksandra Nedorchuk,Александра Недорчук,66.9,150,165,172.5,172.5,,85,92.5,-100,92.5,,130,-145,145,145,,410,67.5,SBD,Raw,No,Pro Open,1990-03-05
1,F,Elena Safronova,Елена Сафронова,74.6,140,150,-160,150,,80,85,90,90,,140,150,-155,150,,390,75,SBD,Raw,No,Pro Open,1973-06-02
1,M,Pavel Kondratev,Павел Кондратьев,60,110,125,140,140,,70,80,85,85,,135,-145,155,155,,380,60,SBD,Raw,No,Pro Juniors 20-23,1996-11-19
1,M,Sergey Nikitenko,Сергей Никитенко,66.6,165,170,180,180,,110,-115,115,115,,145,-150,150,150,,445,67.5,SBD,Raw,No,Pro Teen 16-17,2000-06-09
1,M,Aleksey Kharkov,Алексей Харьков,80.8,200,210,220,220,,125,135,145,145,,-165,175,185,185,,550,82.5,SBD,Raw,No,Pro Open,1984-05-19
1,M,Aleksey Lalitin,Алексей Лалитин,79.5,150,170,-180,170,,130,135,-140,135,,140,150,160,160,,465,82.5,SBD,Raw,No,Pro Masters 45-49,1972-03-29
1,M,Aleksandr Podrugin,Александр Подругин,88.6,240,-260,-260,240,,135,145,-150,145,,-240,-245,245,245,,630,90,SBD,Raw,No,Pro Open,1980-05-19
2,M,Vyacheslav Gaykov,Вячеслав Гайков,89.5,230,-240,-240,230,,120,-130,130,130,,-210,210,-220,210,,570,90,SBD,Raw,No,Pro Open,1996-12-06
DQ,M,Vasiliy Krupkin,Василий Крупкин,88.3,-200,-210,-210,,,-130,,,,,-190,,,,,,90,SBD,Raw,No,Pro Open,1983-02-17
DQ,M,Dmitriy Efryushkin,Дмитрий Ефрюшкин,92.6,-180,-185,-187.5,,,-105,,,,,-215,,,,,,100,SBD,Raw,No,Pro Teen 16-17,2000-08-30
1,M,Aleksandr Shabanov,Александр Шабанов,96.1,270,290,302.5,302.5,,165,175,182.5,182.5,,250,272.5,-282.5,272.5,,757.5,100,SBD,Raw,No,Pro Open,1992-02-28
1,M,Vasiliy Bychkovskiy,Василий Бычковский,103.6,220,235,-250,235,,150,155,160,160,,-240,-240,240,240,,635,110,SBD,Raw,No,Pro Open,1991-02-05
DQ,M,Vitaliy Dyuzhiy,Виталий Дюжий,80.6,-270,-270,,,,-150,,,,,-240,,,,,,82.5,SBD,Single-ply,No,Pro Open,1985-11-13
1,M,Pavel Kulikov,Павел Куликов,89.3,250,-260,270,270,,150,-160,-162.5,150,,-235,240,-250,240,,660,90,SBD,Single-ply,No,Pro Open,1984-06-16
2,M,Grigoriy Ovchinnikov,Григорий Овчинников,87.4,230,-250,-250,230,,170,-180,-180,170,,210,225,-235,225,,625,90,SBD,Single-ply,No,Pro Open,1982-03-08
1,M,Stanislav Ovcharov,Станислав Овчаров,95,300,310,315,315,,200,215,-220,215,,270,-290,290,290,,820,100,SBD,Single-ply,No,Pro Open,1980-04-28
2,M,Aleksey Savishchenko,Алексей Савищенко,98.2,-240,240,260,260,,170,190,-210,190,,220,-240,250,250,,700,100,SBD,Single-ply,No,Pro Open,1984-02-09
1,M,Mikhail Shirokov,Михаил Широков,108.5,315,325,330,330,,240,245,250,250,,310,320,325,325,,905,110,SBD,Single-ply,No,Pro Teen 18-19,1999-06-03
1,M,Mikhail Shirokov,Михаил Широков,108.5,315,325,330,330,,240,245,250,250,,310,320,325,325,,905,110,SBD,Single-ply,No,Pro Open,1999-06-03
1,F,Olesya Gritsenko,Олеся Гриценко,46.7,,,,,,,,,,,-65,70,-80,70,,70,48,D,Raw,No,Pro Teen 18-19,1998-12-13
DQ,F,Yuliya Vakhterova,Юлия Вахтерова,47.7,,,,,,,,,,,-125,,,,,,48,D,Raw,No,Pro Open,1980-01-01
1,F,Albina Epshteyn #2,Альбина Эпштейн,51,,,,,,,,,,,115,-122.5,125,125,,125,52,D,Raw,No,Pro Open,1991-10-18
1,F,Elena Ivanova,Елена Иванова,54.7,,,,,,,,,,,80,85,90,90,,90,56,D,Raw,No,Pro Open,1982-04-06
1,F,Yulia Chistiakova,Юлия Чистякова,58.5,,,,,,,,,,,105,110,115,115,,115,60,D,Raw,No,Pro Teen 18-19,1999-02-23
1,F,Elena Talan,Елена Талан,59.3,,,,,,,,,,,110,117.5,127.5,127.5,,127.5,60,D,Raw,No,Pro Open,1986-10-30
2,F,Nadezhda Ryaboshapko,Надежда Рябошапко,58.1,,,,,,,,,,,110,120,-130,120,,120,60,D,Raw,No,Pro Open,1992-07-19
1,F,Svetlana Saburova,Светлана Сабурова,67.5,,,,,,,,,,,150,157.5,-160,157.5,,157.5,67.5,D,Raw,No,Pro Open,1972-02-20
1,F,Svetlana Saburova,Светлана Сабурова,67.5,,,,,,,,,,,150,157.5,-160,157.5,,157.5,67.5,D,Raw,No,Pro Masters 45-49,1972-02-20
1,F,Kseniya Suslova,Ксения Суслова,81,,,,,,,,,,,115,130,140,140,,140,82.5,D,Raw,No,Pro Open,1993-06-08
1,M,Nikita Uryvskiy,Никита Урывский,65.4,,,,,,,,,,,-150,165,-175,165,,165,67.5,D,Raw,No,Pro Teen 16-17,2001-11-24
1,M,Vladislav Ivashchenko,Владислав Иващенко,67.2,,,,,,,,,,,-150,150,-190,150,,150,67.5,D,Raw,No,Pro Open,1993-10-22
1,M,Elyar Bragin,Эльяр Брагин,74.1,,,,,,,,,,,170,177.5,185,185,,185,75,D,Raw,No,Pro Teen 16-17,2001-10-30
2,M,Ilya Rogov,Илья Рогов,69.2,,,,,,,,,,,-140,-142.5,142.5,142.5,,142.5,75,D,Raw,No,Pro Teen 16-17,2001-06-25
1,M,Kirill Borovkov,Кирилл Боровков,73.3,,,,,,,,,,,220,232.5,235,235,237.5,235,75,D,Raw,No,Pro Teen 18-19,2000-02-19
2,M,Maksim Lisiin,Максим Лисиин,70.9,,,,,,,,,,,177.5,-202.5,-202.5,177.5,,177.5,75,D,Raw,No,Pro Teen 18-19,1999-02-10
1,M,Kirill Borovkov,Кирилл Боровков,73.3,,,,,,,,,,,220,232.5,235,235,237.5,235,75,D,Raw,No,Pro Open,2000-02-19
2,M,Aleksandr Mamedov,Александр Мамедов,69.8,,,,,,,,,,,160,-180,180,180,,180,75,D,Raw,No,Pro Open,1988-11-25
1,M,Andrey Izaak,Андрей Изаак,74.8,,,,,,,,,,,-202.5,-202.5,202.5,202.5,,202.5,75,D,Raw,No,Pro Masters 40-44,1976-03-02
1,M,Maksim Son,Максим Сон,81.4,,,,,,,,,,,190,-207.5,-207.5,190,,190,82.5,D,Raw,No,Pro Open,1988-03-19
1,M,Denis Pazenko,Денис Пазенко,89.1,,,,,,,,,,,175,195,205,205,,205,90,D,Raw,No,Pro Teen 16-17,2000-07-17
1,M,Andrey Kolyukhov,Андрей Колюхов,86.8,,,,,,,,,,,195,212.5,222.5,222.5,,222.5,90,D,Raw,No,Pro Open,1979-04-25
1,M,Aleksandr Ryabov,Александр Рябов,86.5,,,,,,,,,,,125,130,-135,130,,130,90,D,Raw,No,Pro Masters 80+,1937-06-04
1,M,Dmitriy Kozinets,Дмитрий Козинец,99.9,,,,,,,,,,,-270,270,280,280,,280,100,D,Raw,No,Pro Open,1991-08-10
2,M,Danila Sedyshev,Данила Седышев,97.1,,,,,,,,,,,232.5,-252.5,-252.5,232.5,,232.5,100,D,Raw,No,Pro Open,1988-06-16
1,M,Dmitriy Nechesov,Дмитрий Нечесов,105,,,,,,,,,,,260,-280,-280,260,,260,110,D,Raw,No,Pro Open,1989-01-17
2,M,Dmitriy Golubev,Дмитрий Голубев,108,,,,,,,,,,,230,250,-275,250,,250,110,D,Raw,No,Pro Open,1990-01-31
3,M,Denis Tretyakov,Денис Третьяков,108.8,,,,,,,,,,,220,-240,-240,220,,220,110,D,Raw,No,Pro Open,1986-12-18
1,M,Konstantin Semenov,Константин Семенов,73.6,,,,,,,,,,,195,207.5,212.5,212.5,,212.5,75,D,Single-ply,No,Pro Open,1964-08-24
1,M,Konstantin Semenov,Константин Семенов,73.6,,,,,,,,,,,195,207.5,212.5,212.5,,212.5,75,D,Single-ply,No,Pro Masters 50-54,1964-08-24
DQ,M,Dmitriy Efryushkin,Дмитрий Ефрюшкин,92.6,,,,,,,,,,,-200,,,,,,100,D,Single-ply,No,Pro Teen 16-17,2000-08-30
1,M,Pavel Strepetilov,Павел Стрепетилов,99.4,,,,,,,,,,,270,-285,285,285,,285,100,D,Single-ply,No,Pro Open,1982-11-04
1,M,Aleksandr Petruk,Александр Петрук,72.8,,,,,,,,,,,155,-170,180,180,,180,75,D,Raw,No,Pro Open,1978-09-18
1,M,Oleg Zakharov,Олег Захаров,81.4,,,,,,,,,,,-255,260,-270,260,,260,82.5,D,Raw,No,Pro Open,1991-11-15
2,M,Sergey Borisov,Сергей Борисов,81.2,,,,,,,,,,,190,200,-205,200,,200,82.5,D,Raw,No,Pro Open,1985-04-20
1,M,Danil Kurzantsev,Даниил Курзанцев,86.7,,,,,,,,,,,280,300,-310,300,,300,90,D,Raw,No,Pro Open,1985-05-27
2,M,Grigoriy Fisenko,Григорий Фисенко,87.3,,,,,,,,,,,220,230,-240,230,,230,90,D,Raw,No,Pro Open,1988-06-10
1,M,Dmitriy Efryushkin,Дмитрий Ефрюшкин,92.6,,,,,,,,,,,-200,205,210,210,,210,100,D,Raw,No,Pro Teen 16-17,2000-08-30
1,M,Nikita Krasnobryzhiy,Никита Краснобрыжий,98.4,,,,,,,,,,,215,-225,225,225,,225,100,D,Raw,No,Pro Juniors 20-23,1996-09-18
1,M,Dmitriy Rupasov,Дмитрий Рупасов,95.3,,,,,,,,,,,270,280,290,290,,290,100,D,Raw,No,Pro Open,1991-10-18
2,M,Yuriy Katanov,Юрий Катанов,99.5,,,,,,,,,,,280,290,,290,,290,100,D,Raw,No,Pro Open,1981-01-14
1,M,Dmitriy Korchagin,Дмитрий Корчагин,98.7,,,,,,,,,,,280,305,-317.5,305,,305,100,D,Raw,No,Pro Masters 45-49,1972-08-14
1,M,Filipp Mikolinskiy,Филипп Миколинский,106.6,,,,,,,,,,,270,-285,-285,270,,270,110,D,Raw,No,Pro Juniors 20-23,1996-06-18
1,M,Artem Petrishchev,Артем Петрищев,106.8,,,,,,,,,,,260,-285,,260,,260,110,D,Raw,No,Pro Open,1988-12-19
1,M,Igor Luzin,Игорь Лузин,101.2,,,,,,,,,,,205,-215,-215,205,,205,110,D,Raw,No,Pro Masters 45-49,1969-11-04
1,M,Evgeniy Beletskiy,Евгений Белецкий,111.2,,,,,,,,,,,240,-272.5,,240,,240,125,D,Raw,No,Pro Masters 50-54,1964-05-02
1,M,Oleg Eremenko,Олег Еременко,104.5,,,,,,-185,185,-192.5,185,,,,,,,185,110,B,Unlimited,No,Pro Masters 45-49,1968-12-20
1,M,Igor Grachev,Игорь Грачев,107,,,,,,220,-242.5,-242.5,220,,,,,,,220,110,B,Unlimited,No,Pro Masters 50-54,1968-04-24
1,F,Irina Vasilenko,Ирина Василенко,53,,,,,,-65,70,75,75,,,,,,,75,56,B,Unlimited,No,Pro Open,1982-08-16
1,M,Vitaliy Murashko,Виталий Мурашко,79.9,,,,,,-172.5,-172.5,172.5,172.5,,,,,,,172.5,82.5,B,Unlimited,No,Pro Open,1983-01-28
1,M,Timur Radzhabov,Тимур Раджабов,97.3,,,,,,-170,170,185,185,,,,,,,185,100,B,Unlimited,No,Pro Open,1981-04-11
1,M,Denis Posazhennikov,Денис Посаженников,99.5,,,,,,200,230,240,240,,,,,,,240,100,B,Unlimited,No,Pro Masters 40-44,1977-11-20
1,M,Sergey Vasilev,Сергей Васильев,109.2,,,,,,305,310,325,325,,,,,,,325,110,B,Unlimited,No,Pro Open,1982-09-27
2,M,Dmitriy Vasilenko,Дмитрий Василенко,108,,,,,,290,310,315,315,,,,,,,315,110,B,Unlimited,No,Pro Open,1975-06-03
3,M,Gor Agababyan,Гор Агабабян,108.5,,,,,,260,-282.5,282.5,282.5,,,,,,,282.5,110,B,Unlimited,No,Pro Open,1990-09-11
4,M,Denis Tretyakov,Денис Третьяков,108.8,,,,,,-230,235,-255,235,,,,,,,235,110,B,Unlimited,No,Pro Open,1986-12-18
1,M,Dmitriy Vasilenko,Дмитрий Василенко,108,,,,,,290,310,315,315,,,,,,,315,110,B,Unlimited,No,Pro Masters 40-44,1975-06-03
2,M,Andrey Samodelkin,Андрей Самоделкин,110,,,,,,200,210,-215,210,,,,,,,210,110,B,Unlimited,No,Pro Masters 40-44,1974-01-26
1,M,Vladimir Stremuzhevskiy,Владимир Стремужевский,108.1,,,,,,230,242.5,250,250,,,,,,,250,110,B,Unlimited,No,Pro Masters 45-49,1969-08-02
1,F,Viktoriya Yakushevich,Виктория Якушевич,71.6,,,,,,90,100,107.5,107.5,,,,,,,107.5,75,B,Single-ply,No,Pro Open,1986-02-17
1,M,Mikhail Modlin,Михаил Модлин,98.8,,,,,,180,190,-200,190,,,,,,,190,100,B,Single-ply,No,Pro Open,1982-02-21
1,F,Larisa Zelyaeva,Лариса Зеляева,47.1,,,,,,32.5,35,-37.5,35,,,,,,,35,48,B,Raw,No,Pro Masters 40-44,1977-08-19
1,F,Irina Kravtsova,Ирина Кравцова,50.6,,,,,,55,60,-62.5,60,,,,,,,60,52,B,Raw,No,Pro Open,1998-11-24
1,F,Mariya Romanchenko,Мария Романченко,55.1,,,,,,60,-65,65,65,,,,,,,65,56,B,Raw,No,Pro Open,1988-10-21
2,F,Aleksandra Kirilyuk,Александра Кирилюк,54.2,,,,,,60,62.5,-65,62.5,,,,,,,62.5,56,B,Raw,No,Pro Open,1987-03-27
3,F,Mariya Lebedeva,Мария Лебедева,55.2,,,,,,60,-62.5,-62.5,60,,,,,,,60,56,B,Raw,No,Pro Open,1980-11-21
4,F,Evgeniya Panova,Евгения Панова,55.4,,,,,,57.5,-62.5,-62.5,57.5,,,,,,,57.5,56,B,Raw,No,Pro Open,1987-10-14
DQ,F,Mariya Novikova,Мария Новикова,55.3,,,,,,-50,-52.5,-55,,,,,,,,,56,B,Raw,No,Pro Open,1989-11-02
1,F,Aleksandra Perelygina,Александра Перелыгина,57.7,,,,,,-42.5,42.5,45,45,,,,,,,45,60,B,Raw,No,Pro Open,1988-07-27
1,F,Sofya Tsovbun,Софья Цовбун,62.5,,,,,,65,70,71,71,,,,,,,71,67.5,B,Raw,No,Pro Teen 13-15,2003-10-30
1,F,Anastasiya Privaltseva,Анастасия Привальцева,67.1,,,,,,-75,75,-80,75,,,,,,,75,67.5,B,Raw,No,Pro Open,1987-11-21
2,F,Sofya Tsovbun,Софья Цовбун,62.5,,,,,,65,70,71,71,,,,,,,71,67.5,B,Raw,No,Pro Open,2003-10-30
3,F,Elvira Mukina,Эльвира Мукина,66.6,,,,,,60,65,-70,65,,,,,,,65,67.5,B,Raw,No,Pro Open,1994-09-26
1,F,Irina Zinoveva,Ирина Зиновьева,63.6,,,,,,55,60,65,65,,,,,,,65,67.5,B,Raw,No,Pro Masters 50-54,1965-09-18
1,M,Kirill Shaposhnikov,Кирилл Шапошников,51.1,,,,,,105,-110,-110,105,,,,,,,105,52,B,Raw,No,Pro Open,1998-10-21
1,M,Ivan Demchenko #1,Иван Демченко,54.9,,,,,,-105,105,110,110,,,,,,,110,56,B,Raw,No,Pro Juniors 20-23,1998-04-18
1,M,Yuriy Murzin,Юрий Мурзин,60,,,,,,120,125,130,130,,,,,,,130,60,B,Raw,No,Pro Teen 16-17,2000-06-15
1,M,Aleksey Nuyanzin,Алексей Нуянзин,65.9,,,,,,95,,,95,,,,,,,95,67.5,B,Raw,No,Pro Teen 16-17,2000-11-03
2,M,Georgiy Ledida,Георгий Ледида,65.5,,,,,,70,75,-80,75,,,,,,,75,67.5,B,Raw,No,Pro Teen 16-17,2001-12-31
1,M,Vladimir Khan,Владимир Хан,67.5,,,,,,125,-127.5,127.5,127.5,,,,,,,127.5,67.5,B,Raw,No,Pro Masters 55-59,1962-04-18
1,M,Bogdan Yuskin,Богдан Юськин,65.6,,,,,,70,75,77.5,77.5,,,,,,,77.5,67.5,B,Raw,No,Pro Masters 60-64,1957-04-23
1,M,Mikhail Vyunov,Михаил Вьюнов,74.55,,,,,,92.5,-100,100,100,,,,,,,100,75,B,Raw,No,Pro Teen 13-15,2002-06-22
1,M,Aleksandr Kotlyarskiy,Александр Котлярский,73.8,,,,,,140,150,-155,150,,,,,,,150,75,B,Raw,No,Pro Teen 16-17,2001-11-24
1,M,Eduard Makhota,Эдуард Махота,69.9,,,,,,150,160,165,165,,,,,,,165,75,B,Raw,No,Pro Open,1983-01-10
2,M,Sergey Grigoryants,Сергей Григорьянц,74.2,,,,,,145,150,-155,150,,,,,,,150,75,B,Raw,No,Pro Open,1983-07-08
3,M,Roman Navolotskiy,Роман Наволоцкий,74.2,,,,,,127.5,132.5,135,135,,,,,,,135,75,B,Raw,No,Pro Open,1985-10-24
4,M,Ivan Frolov,Иван Фролов,75,,,,,,-125,125,135,135,,,,,,,135,75,B,Raw,No,Pro Open,1987-06-02
5,M,Aleksandr Davydenko,Александр Давыденко,70.9,,,,,,110,117.5,120,120,,,,,,,120,75,B,Raw,No,Pro Open,1986-07-08
6,M,Artem Avramich,Артем Аврамич,74.2,,,,,,117.5,-120,-120,117.5,,,,,,,117.5,75,B,Raw,No,Pro Open,1991-06-02
1,M,Semen Chernikov,Семен Черников,79.6,,,,,,87.5,-95,-95,87.5,,,,,,,87.5,82.5,B,Raw,No,Pro Teen 16-17,2002-04-02
1,M,Sergey Kovalenko,Сергей Коваленко,78,,,,,,100,105,110,110,,,,,,,110,82.5,B,Raw,No,Pro Teen 18-19,2000-03-13
1,M,Aleksandr Kovganov,Александр Ковганов,80.2,,,,,,135,140,145,145,,,,,,,145,82.5,B,Raw,No,Pro Juniors 20-23,1994-12-23
1,M,Vladimir Strelnikov,Владимир Стрельников,82.3,,,,,,160,-170,-170,160,,,,,,,160,82.5,B,Raw,No,Pro Open,1974-10-09
2,M,Aleksandr Pototskiy,Александр Потоцкий,82,,,,,,147.5,152.5,155,155,,,,,,,155,82.5,B,Raw,No,Pro Open,1988-10-10
3,M,Vitaliy Kvashnin,Виталий Квашнин,80.6,,,,,,140,145,150,150,,,,,,,150,82.5,B,Raw,No,Pro Open,1979-10-12
4,M,Pavel Dugin,Павел Дугин,79.6,,,,,,-145,145,147.5,147.5,,,,,,,147.5,82.5,B,Raw,No,Pro Open,1992-05-30
5,M,Vitaliy Kim,Виталий Ким,82,,,,,,120,127.5,132.5,132.5,,,,,,,132.5,82.5,B,Raw,No,Pro Open,1981-09-09
1,M,Vladimir Strelnikov,Владимир Стрельников,82.3,,,,,,160,-170,-170,160,,,,,,,160,82.5,B,Raw,No,Pro Masters 40-44,1974-10-09
2,M,Andrey Marchenko,Андрей Марченко,82,,,,,,110,120,127.5,127.5,,,,,,,127.5,82.5,B,Raw,No,Pro Masters 40-44,1977-04-05
1,M,Ruslan Luchin,Руслан Лучин,86.7,,,,,,-120,127.5,132.5,132.5,,,,,,,132.5,90,B,Raw,No,Pro Open,1990-06-05
2,M,Sergey Mirsanov,Сергей Мирсанов,83.3,,,,,,-95,95,-100,95,,,,,,,95,90,B,Raw,No,Pro Open,1987-12-09
1,M,Aleksandr Ryabov,Александр Рябов,86.5,,,,,,75,-80,-85,75,,,,,,,75,90,B,Raw,No,Pro Masters 80+,1937-06-04
1,M,Aleksey Lungu,Алексей Лунгу,98.5,,,,,,100,105,-110,105,,,,,,,105,100,B,Raw,No,Pro Teen 18-19,1999-04-02
1,M,Danila Sedyshev,Данила Седышев,97.1,,,,,,145,-155,155,155,,,,,,,155,100,B,Raw,No,Pro Open,1988-06-16
2,M,Timur Radzhabov,Тимур Раджабов,97.3,,,,,,130,140,142.5,142.5,,,,,,,142.5,100,B,Raw,No,Pro Open,1981-04-11
3,M,Yuriy Tarnovetskiy,Юрий Тарновецкий,98.3,,,,,,-130,130,-140,130,,,,,,,130,100,B,Raw,No,Pro Open,1991-04-14
4,M,Evgeniy Titkov,Евгений Титков,98.9,,,,,,110,-120,-120,110,,,,,,,110,100,B,Raw,No,Pro Open,1978-03-23
1,M,Nikolay Morgunov,Николай Моргунов,98.2,,,,,,145,152.5,-155,152.5,,,,,,,152.5,100,B,Raw,No,Pro Masters 45-49,1972-12-12
1,M,Sergey Vasilev,Сергей Васильев,109.2,,,,,,200,205,207.5,207.5,,,,,,,207.5,110,B,Raw,No,Pro Open,1982-09-27
2,M,Sergey Lomov,Сергей Ломов,106.4,,,,,,172.5,180,-187.5,180,,,,,,,180,110,B,Raw,No,Pro Open,1985-03-21
1,M,Aleksey Khlon,Алексей Хлонь,110,,,,,,160,165,-167.5,165,,,,,,,165,110,B,Raw,No,Pro Masters 40-44,1976-07-28
1,M,Igor Utenkov,Игорь Утенков,108.8,,,,,,130,135,140,140,,,,,,,140,110,B,Raw,No,Pro Masters 50-54,1966-09-02
1,M,Aleksandr Orlov,Александр Орлов,122.9,,,,,,-200,200,-205,200,,,,,,,200,125,B,Raw,No,Pro Open,1976-06-10
2,M,Denis Migal,Денис Мигаль,110.7,,,,,,120,132.5,-135,132.5,,,,,,,132.5,125,B,Raw,No,Pro Open,1986-06-28
1,M,Sergey Shishkov,Сергей Шишков,123,,,,,,-100,-100,100,100,,,,,,,100,125,B,Raw,No,Pro Masters 60-64,1956-04-30
1,M,Konstantin Semenov,Константин Семенов,73.6,,,,,,-177.5,-182.5,182.5,182.5,,,,,,,182.5,75,B,Unlimited,No,Pro Open,1964-08-24
1,M,Konstantin Semenov,Константин Семенов,73.6,,,,,,-177.5,-182.5,182.5,182.5,,,,,,,182.5,75,B,Unlimited,No,Pro Masters 50-54,1964-08-24
1,M,Yuriy Shatalov,Юрий Шаталов,76.5,,,,,,205,220,-235,220,,,,,,,220,82.5,B,Unlimited,No,Pro Open,1987-03-05
1,M,Andrey Shchur,Андрей Щур,80.5,,,,,,240,260,-272.5,260,,,,,,,260,82.5,B,Unlimited,No,Pro Masters 40-44,1973-06-04
1,M,Ivan Troyanov,Иван Троянов,87.5,,,,,,260,280,-292.5,280,,,,,,,280,90,B,Unlimited,No,Pro Open,1987-01-14
2,M,Pavel Ivanichev,Павел Иваничев,88.5,,,,,,230,,,230,,,,,,,230,90,B,Unlimited,No,Pro Open,1984-06-09
1,M,Andrey Mozharov,Андрей Можаров,97.3,,,,,,235,245,257.7,257.7,,,,,,,257.5,100,B,Unlimited,No,Pro Open,1979-01-23
2,M,Pavel Strepetilov,Павел Стрепетилов,99.4,,,,,,235,242.5,-260,242.5,,,,,,,242.5,100,B,Unlimited,No,Pro Open,1982-11-04
DQ,M,Artem Kuts,Артем Куц,98.1,,,,,,-235,-235,-235,,,,,,,,,100,B,Unlimited,No,Pro Open,1987-01-28
1,M,Sergey Kazakov,Сергей Казаков,99.1,,,,,,200,235,-250,235,,,,,,,235,100,B,Unlimited,No,Pro Masters 40-44,1973-10-12
1,M,Artem Fedotov,Артем Федотов,99.4,,,,,,220,-235,-245,220,,,,,,,220,100,B,Unlimited,No,Pro Masters 45-49,1972-02-28
1,M,Sergey Lir,Сергей Лир,108,,,,,,330,340,-360,340,,,,,,,340,110,B,Unlimited,No,Pro Open,1991-08-25
2,M,Elisey Belets,Елисей Белец,109.5,,,,,,260,-287.5,287.5,287.5,,,,,,,287.5,110,B,Unlimited,No,Pro Open,1986-06-02
1,M,Yaroslav Fedorchak,Ярослав Федорчак,109.1,,,,,,200,-217.5,217.5,217.5,,,,,,,217.5,110,B,Unlimited,No,Pro Masters 50-54,1967-04-24
1,M,Aleksey Pavlikov,Алексей Павликов,113.4,,,,,,-320,320,-340,320,,,,,,,320,125,B,Unlimited,No,Pro Open,1982-07-21
DQ,M,Nshan Agababyan,Ншан Агабабян,120.8,,,,,,-310,-310,-310,,,,,,,,,125,B,Unlimited,No,Pro Open,1987-01-02
1,M,Andrey Vorontsov,Андрей Воронцов,115.5,,,,,,-305,305,-330,305,,,,,,,305,125,B,Unlimited,No,Pro Masters 45-49,1969-06-06
1,M,Vitaliy Dolgov,Виталий Долгов,90.5,,,,,,200,-215,220,220,,,,,,,220,100,B,Single-ply,No,Pro Open,1984-05-22
1,M,Konstantin Kivalov,Константин Кивалов,144,,,,,,230,240,-250,240,,,,,,,240,140+,B,Single-ply,No,Pro Masters 40-44,1973-12-23
1,F,Elena Safronova,Елена Сафронова,74.6,,,,,,82.5,-95,-95,82.5,,,,,,,82.5,75,B,Raw,No,Pro Masters 40-44,1973-06-02
1,M,Yuriy Semenov #4,Юрий Семенов,74.9,,,,,,150,-155,155,155,,,,,,,155,75,B,Raw,No,Pro Open,1988-10-12
2,M,Aleksandr Petruk,Александр Петрук,72.8,,,,,,110,117.5,122.5,122.5,,,,,,,122.5,75,B,Raw,No,Pro Open,1978-09-18
1,M,Sergey Polyntsev,Сергей Полынцев,80,,,,,,170,-180,180,180,,,,,,,180,82.5,B,Raw,No,Pro Open,1987-07-05
2,M,Yuriy Shatalov,Юрий Шаталов,76.5,,,,,,145,155,-170,155,,,,,,,155,82.5,B,Raw,No,Pro Open,1987-03-05
3,M,Oleg Kosterenkov,Олег Костеренков,82,,,,,,125,-135,-140,125,,,,,,,125,82.5,B,Raw,No,Pro Open,1992-10-20
1,M,Roman Pasko,Роман Паско,80.9,,,,,,155,160,165,165,,,,,,,165,82.5,B,Raw,No,Pro Masters 45-49,1972-07-24
1,M,Egor Kolesnikov,Егор Колесников,83.3,,,,,,187.5,195,200,200,,,,,,,200,90,B,Raw,No,Pro Juniors 20-23,1994-09-06
1,M,Sergey Kultashov,Сергей Култашов,87.8,,,,,,200,210,220,220,,,,,,,220,90,B,Raw,No,Pro Open,1979-05-11
1,M,Mikhail Konovalov,Михаил Коновалов,99.4,,,,,,-210,210,-220,210,,,,,,,210,100,B,Raw,No,Pro Open,1992-03-11
1,M,Mikhail Grechukha,Михаил Гречуха,102.8,,,,,,205,212.5,-217.5,212.5,,,,,,,212.5,110,B,Raw,No,Pro Open,1968-08-07
2,M,Viktor Artemev,Виктор Артемьев,106.5,,,,,,200,207.5,212.5,212.5,,,,,,,212.5,110,B,Raw,No,Pro Open,1989-11-22
3,M,Ivan Zabavin,Иван Забавин,104.2,,,,,,200,205,207.5,207.5,,,,,,,207.5,110,B,Raw,No,Pro Open,1988-11-09
1,M,Sergey Kotov,Сергей Котов,103.4,,,,,,140,147.5,-152.5,147.5,,,,,,,147.5,110,B,Raw,No,Pro Masters 40-44,1973-07-22
1,M,Mikhail Grechukha,Михаил Гречуха,102.8,,,,,,205,212.5,-217.5,212.5,,,,,,,212.5,110,B,Raw,No,Pro Masters 45-49,1968-08-07
2,M,German Veledeev,Герман Веледеев,107.9,,,,,,-200,200,-210,200,,,,,,,200,110,B,Raw,No,Pro Masters 45-49,1969-04-27
3,M,Aleksandr Vasilev,Александр Васильев,108,,,,,,185,195,197.5,197.5,,,,,,,197.5,110,B,Raw,No,Pro Masters 45-49,1973-04-08
1,M,Grigoriy Primak,Григорий Примак,123.5,,,,,,210,220,227.5,227.5,,,,,,,227.5,125,B,Raw,No,Pro Open,1978-12-04
2,M,Viktor Skorokhod,Виктор Скороход,112,,,,,,190,200,-205,200,,,,,,,200,125,B,Raw,No,Pro Open,1987-11-13
3,M,Dmitriy Tretyakov,Дмитрий Третьяков,113.3,,,,,,190,195,-200,195,,,,,,,195,125,B,Raw,No,Pro Open,1978-05-16
1,M,Andrey Vorontsov,Андрей Воронцов,115.5,,,,,,200,210,220,220,,,,,,,220,125,B,Raw,No,Pro Masters 45-49,1969-06-06
1,M,Evgeniy Beletskiy,Евгений Белецкий,111.2,,,,,,190,200,-210,200,,,,,,,200,125,B,Raw,No,Pro Masters 50-54,1964-05-02
