Place,Sex,Name,CyrillicName,BodyweightKg,Bench1Kg,Bench2Kg,Bench3Kg,Best3BenchKg,Bench4Kg,Deadlift1Kg,Deadlift2Kg,Deadlift3Kg,Best3DeadliftKg,Deadlift4Kg,TotalKg,WeightClassKg,Event,Equipment,Tested,Squat1Kg,Squat2Kg,Squat3Kg,Best3SquatKg,Squat4Kg,Division,Age,BirthDate
1,M,Ruslan Zhigalov,Руслан Жигалов,108.1,130,140,150,150,,280,-300,,280,,430,110,BD,Raw,No,,,,,,Masters 40-44,40,1980-08-10
DQ,F,Ekaterina Zaikina,Екатерина Заикина,52,-35,,,,,-80,,,,,,52,SBD,Wraps,Yes,-75,-75,-75,,,Teen 18-19,18,2002-04-11
1,F,Darya Shchupets,Дарья Щупец,51.6,52.5,55,-57.5,55,,115,-125,125,125,,290,52,SBD,Wraps,Yes,110,-125,-125,110,,Open,27,1993-04-11
2,F,Oksana Isaeva,Оксана Исаева,51.6,-42.5,-42.5,42.5,42.5,,105,-115,115,115,,257.5,52,SBD,Wraps,Yes,-95,95,100,100,,Open,37,1983-01-03
DQ,F,Natalya Dyoshina,Наталья Дёшина,55.8,-42.5,-42.5,-42.5,,,-80,,,,,,56,SBD,Wraps,Yes,80,-90,-90,80,,Open,37,1983-04-11
1,F,Yuliya Klimenko,Юлия Клименко,59.9,42.5,47.5,-50,47.5,,105,115,-120,115,,267.5,60,SBD,Wraps,Yes,-105,-105,105,105,,Open,30,1990-08-06
2,F,Elena Suraykina,Елена Сурайкина,58.2,55,60,-62.5,60,,80,85,90,90,,242.5,60,SBD,Wraps,Yes,80,85,92.5,92.5,,Open,27,1993-08-06
1,F,Ekaterina Zhitnik,Екатерина Житник,62.6,-50,50,-55,50,,125,-140,140,140,,290,67.5,SBD,Wraps,Yes,100,-115,-115,100,,Open,32,1988-07-02
1,F,Elena Vorobeva,Елена Воробьева,72,40,-47.5,47.5,47.5,,80,90,-100,90,,212.5,75,SBD,Wraps,Yes,75,-85,-85,75,,Masters 40-44,40,1980-08-16
1,M,Sergey Pozdnyakov,Сергей Поздняков,73.6,127.5,-135,,127.5,,175,-185,,175,,477.5,75,SBD,Wraps,Yes,160,175,,175,,Open,40,1979-11-02
1,M,Ilya Zozin,Илья Зозин,79.2,75,-80,-80,75,,175,185,-195,185,,415,82.5,SBD,Wraps,Yes,-145,145,155,155,,Open,35,1985-07-05
2,M,Andrey Mikhaylenko,Андрей Михайленко,81.5,95,-100,100,100,,150,165,170,170,,405,82.5,SBD,Wraps,Yes,135,-150,-150,135,,Open,34,1985-09-26
1,M,Dmitriy Vasilitskiy,Дмитрий Василицкий,105.2,155,160,-165,160,,225,230,240,240,,615,110,SBD,Wraps,Yes,200,210,215,215,,Open,34,1986-09-04
1,M,Anatoliy Melnik,Анатолий Мельник,98.3,215,235,-240,235,,,,,,,235,100,B,Multi-ply,Yes,,,,,,Open,27,1992-12-09
1,F,Marina Glazkova,Марина Глазкова,51.3,67.5,72.5,-77.5,72.5,,,,,,,72.5,52,B,Raw,Yes,,,,,,Masters 40-44,40,1980-02-08
1,F,Svetlana Levchenko,Светлана Левченко,122.5,55,-62.5,-62.5,55,,,,,,,55,100+,B,Raw,Yes,,,,,,Open,37,1982-11-24
1,M,Grigoriy Kotkov,Григорий Котков,50.8,25,30,32.5,32.5,,,,,,,32.5,52,B,Raw,Yes,,,,,,Teen 13-15,15,2005-07-11
1,M,Aleksandr Yatsenko,Александр Яценко,73.1,130,135,-140,135,,,,,,,135,75,B,Raw,Yes,,,,,,Juniors 20-23,22,1997-11-16
2,M,Nikita Shorokhov,Никита Шорохов,73.2,117.5,122.5,125,125,,,,,,,125,75,B,Raw,Yes,,,,,,Juniors 20-23,20,1999-12-17
1,M,Valeriy Popov,Валерий Попов,74,140,145,-150,145,,,,,,,145,75,B,Raw,Yes,,,,,,Open,38,1981-10-21
2,M,Sergey Pozdnyakov,Сергей Поздняков,73.6,127.5,-135,,127.5,,,,,,,127.5,75,B,Raw,Yes,,,,,,Open,40,1979-11-02
1,M,Mikhail Akhverdov,Михаил Ахвердов,81.2,160,-165,-167.5,160,,,,,,,160,82.5,B,Raw,Yes,,,,,,Open,36,1983-10-31
2,M,Ivan Martynenko,Иван Мартыненко,82,135,145,150,150,,,,,,,150,82.5,B,Raw,Yes,,,,,,Open,31,1988-10-19
3,M,Andrey Aleksandrov,Андрей Александров,79.7,-140,140,145,145,,,,,,,145,82.5,B,Raw,Yes,,,,,,Open,31,1988-11-12
1,M,Dmitriy Troshin,Дмитрий Трошин,99.6,130,-140,-140,130,,,,,,,130,100,B,Raw,Yes,,,,,,Open,34,1986-08-29
1,M,Roman Yurchenko,Роман Юрченко,109.1,180,-190,190,190,,,,,,,190,110,B,Raw,Yes,,,,,,Open,36,1984-03-27
2,M,Erik Sarkisyan,Эрик Саркисян,109.3,95,-105,105,105,,,,,,,105,110,B,Raw,Yes,,,,,,Open,17,2003-08-19
1,M,Arman Kulibaev,Арман Кулибаев,74.5,,,,,,220,240,-250,240,,240,75,D,Multi-ply,Yes,,,,,,Open,37,1983-01-18
1,F,Ekaterina Zaikina,Екатерина Заикина,52,,,,,,70,85,-100,85,,85,52,D,Raw,Yes,,,,,,Teen 18-19,18,2002-04-11
1,F,Darya Shchupets,Дарья Щупец,51.6,,,,,,115,-125,125,125,,125,52,D,Raw,Yes,,,,,,Open,27,1993-04-11
2,F,Oksana Isaeva,Оксана Исаева,51.6,,,,,,105,-115,115,115,,115,52,D,Raw,Yes,,,,,,Open,37,1983-01-03
1,F,Marina Glazkova,Марина Глазкова,51.3,,,,,,100,110,-115,110,,110,52,D,Raw,Yes,,,,,,Masters 40-44,40,1980-02-08
1,F,Natalya Dyoshina,Наталья Дёшина,55.8,,,,,,80,90,105,105,,105,56,D,Raw,Yes,,,,,,Open,37,1983-04-11
1,F,Yuliya Klimenko,Юлия Клименко,59.9,,,,,,105,115,-120,115,,115,60,D,Raw,Yes,,,,,,Open,30,1990-08-06
1,F,Ekaterina Zhitnik,Екатерина Житник,62.6,,,,,,125,-140,140,140,,140,67.5,D,Raw,Yes,,,,,,Open,32,1988-07-02
1,F,Elena Vorobeva,Елена Воробьева,72,,,,,,80,90,-100,90,,90,75,D,Raw,Yes,,,,,,Masters 40-44,40,1980-08-16
1,M,Valeriy Kuznetsov #6,Валерій Кузнєцов,54.2,,,,,,120,-142.5,142.5,142.5,,142.5,56,D,Raw,Yes,,,,,,Masters 55-59,55,1965-03-12
1,M,Andrey Shabalin,Андрей Шабалин,73.1,,,,,,215,-232.5,-232.5,215,,215,75,D,Raw,Yes,,,,,,Open,46,1974-05-06
1,M,Andrey Shabalin,Андрей Шабалин,73.1,,,,,,215,-232.5,-232.5,215,,215,75,D,Raw,Yes,,,,,,Masters 45-49,46,1974-05-06
1,M,Aleksandr Kisel,Александр Кисель,80.2,,,,,,210,220,-225,220,,220,82.5,D,Raw,Yes,,,,,,Open,38,1982-03-02
2,M,Andrey Mikhaylenko,Андрей Михайленко,81.5,,,,,,150,165,170,170,,170,82.5,D,Raw,Yes,,,,,,Open,34,1985-09-26
1,M,Dmitriy Troshin,Дмитрий Трошин,99.6,,,,,,-180,190,-200,190,,190,100,D,Raw,Yes,,,,,,Open,34,1986-08-29
1,M,Erik Sarkisyan,Эрик Саркисян,109.3,,,,,,165,175,190,190,,190,110,D,Raw,Yes,,,,,,Open,17,2003-08-19
DQ,M,Yaroslav Kopanitskiy,Ярослав Копаницкий,133.4,,,,,,-240,-240,-240,,,,140,D,Raw,Yes,,,,,,Open,36,1984-05-28
1,F,Anzhelika Varsovskaya,Анжелика Варсовская,59.4,42.5,47.5,52.5,52.5,,92.5,102.5,115,115,,242.5,60,SBD,Wraps,No,62.5,67.5,75,75,,Masters 45-49,46,1974-06-15
1,M,Aleksandr Plukchi,Александр Плукчи,88.5,120,130,-137.5,130,,170,185,200,200,,510,90,SBD,Wraps,No,155,170,180,180,,Open,35,1984-11-01
1,M,Anzor Sikhadzhok,Анзор Сихаджок,99.3,220,230,-237.5,230,,310,-330,-330,310,,870,100,SBD,Wraps,No,-320,330,,330,,Open,31,1989-02-06
1,M,Mikhail Dadonov,Михаил Дадонов,108.4,150,155,-160,155,,230,250,-260,250,,625,110,SBD,Wraps,No,200,220,-240,220,,Open,32,1988-01-13
1,M,Yuriy Vydra,Юрий Выдра,103.3,125,-135,135,135,,195,210,-230,210,,510,110,SBD,Wraps,No,165,-180,-180,165,,Masters 45-49,45,1975-01-26
1,M,Mayrbek Ibuev,Майрбек Ибуев,106.6,90,-100,100,100,,140,170,-180,170,,420,110,SBD,Wraps,No,-130,140,150,150,,Masters 55-59,55,1965-05-21
1,M,Dmitriy Pys,Дмитрий Пысь,123.6,210,220,230,230,,300,315,330,330,,910,125,SBD,Wraps,No,310,330,350,350,,Open,34,1986-05-04
2,M,Aleksandr Zaytsev,Александр Зайцев,116.5,180,190,-200,190,,290,310,-330,310,,820,125,SBD,Wraps,No,300,320,-340,320,,Open,40,1980-04-06
1,M,Aleksandr Zaytsev,Александр Зайцев,116.5,180,190,-200,190,,290,310,-330,310,,820,125,SBD,Wraps,No,300,320,-340,320,,Masters 40-44,40,1980-04-06
1,M,Oleg Kholodov,Олег Холодов,106.7,-165,-165,165,165,,,,,,,165,110,B,Multi-ply,No,,,,,,Masters 55-59,58,1961-11-27
1,M,Dmitriy Gorbachev,Дмитрий Горбачев,114,290,300,310,310,,,,,,,310,125,B,Multi-ply,No,,,,,,Open,50,1970-03-06
1,M,Dmitriy Gorbachev,Дмитрий Горбачев,114,290,300,310,310,,,,,,,310,125,B,Multi-ply,No,,,,,,Masters 50-54,50,1970-03-06
1,M,Artem Likhman,Артем Лихман,87,150,160,-170,160,,,,,,,160,90,B,Multi-ply,No,,,,,,Teen 13-15,14,2005-12-16
1,M,Mikhail Severov,Михаил Северов,84.8,240,-252.5,-252.5,240,,,,,,,240,90,B,Multi-ply,No,,,,,,Masters 40-44,44,1975-12-26
1,M,Dmitriy Naumov,Дмитрий Наумов,96.6,-290,290,-312.5,290,,,,,,,290,100,B,Multi-ply,No,,,,,,Open,32,1988-04-03
1,M,Nikolay Tsypushkin,Николай Цыпушкин,108.9,270,-287.5,-287.5,270,,,,,,,270,110,B,Multi-ply,No,,,,,,Open,24,1996-05-17
2,M,Aleksey Chuprina,Алексей Чуприна,109.5,220,235,-250,235,,,,,,,235,110,B,Multi-ply,No,,,,,,Open,28,1992-05-15
1,M,Aleksey Morozov,Алексей Морозов,123.4,315,325,335,335,,,,,,,335,125,B,Multi-ply,No,,,,,,Open,41,1979-04-11
1,M,Aleksey Morozov,Алексей Морозов,123.4,315,325,335,335,,,,,,,335,125,B,Multi-ply,No,,,,,,Masters 40-44,41,1979-04-11
1,M,Maksim Kozyrev,Максим Козырев,70.8,60,-70,-80,60,,,,,,,60,75,B,Raw,No,,,,,,Teen 13-15,15,2005-05-05
1,M,Denis Avvakumov,Денис Аввакумов,71.9,150,-160,-160,150,,,,,,,150,75,B,Raw,No,,,,,,Open,25,1994-10-25
1,M,Soslan Togoev,Сослан Тогоев,80.5,100,,,100,,,,,,,100,82.5,B,Raw,No,,,,,,Open,34,1986-07-16
1,M,Asan Ibragimov,Асан Ибрагимов,82.6,180,,,180,,,,,,,180,90,B,Raw,No,,,,,,Open,32,1987-12-04
2,M,Aleksandr Voytekh,Александр Войтех,88.4,135,-140,142.5,142.5,,,,,,,142.5,90,B,Raw,No,,,,,,Open,34,1986-09-02
1,M,Anzor Sikhadzhok,Анзор Сихаджок,99.3,220,230,-237.5,230,,,,,,,230,100,B,Raw,No,,,,,,Open,31,1989-02-06
1,M,Leonid Menchik,Леонид Менчик,94.7,150,160,165,165,,,,,,,165,100,B,Raw,No,,,,,,Masters 50-54,52,1968-01-17
1,M,Sergey Manteshin,Сергей Мантешин,93.9,125,-130,135,135,,,,,,,135,100,B,Raw,No,,,,,,Masters 60-64,61,1959-04-25
1,M,Ruslan Dyachkov,Руслан Дьячков,107.9,160,170,175,175,,,,,,,175,110,B,Raw,No,,,,,,Open,26,1994-05-01
1,M,Pavel Kushnir,Павел Кушнир,107.1,-140,145,-150,145,,,,,,,145,110,B,Raw,No,,,,,,Masters 40-44,41,1978-12-25
1,M,Vitaliy Sorokotyagin,Виталий Сорокотягин,113.8,220,230,235,235,,,,,,,235,125,B,Raw,No,,,,,,Masters 40-44,41,1978-12-25
1,M,Aleksandr Gnidash,Александр Гнидаш,68.2,80,85,90,90,,,,,,,90,75,B,Raw,No,,,,,,Teen 18-19,18,2002-04-08
1,M,Soslan Togoev,Сослан Тогоев,80.5,100,,,100,,,,,,,100,82.5,B,Raw,No,,,,,,Open,34,1986-07-16
1,M,Anatoliy Krylov,Анатолий Крылов,86.9,180,190,,190,,,,,,,190,90,B,Raw,No,,,,,,Open,34,1986-08-28
1,F,Ekaterina Frolova,Екатерина Фролова,63.2,,,,,,85,95,105,105,,105,67.5,D,Multi-ply,No,,,,,,Open,36,1983-12-02
1,M,Vladimir Zakharov,Владимир Захаров,100,,,,,,190,200,210,210,,210,100,D,Multi-ply,No,,,,,,Masters 65-69,65,1955-07-07
1,F,Tatyana Shteba,Татьяна Штеба,51.9,,,,,,95,105,-110,105,,105,52,D,Raw,No,,,,,,Open,38,1982-08-31
1,F,Lada Slobodenyuk,Лада Слободенюк,54.2,,,,,,87.5,-92.5,-92.5,87.5,,87.5,56,D,Raw,No,,,,,,Teen 13-15,15,2004-12-24
1,F,Vera Deyko,Вера Дейко,55.8,,,,,,-100,100,110,110,,110,56,D,Raw,No,,,,,,Juniors 20-23,22,1997-09-23
1,M,Vladislav Grebennikov,Владислав Гребенников,80.2,,,,,,130,160,185,185,,185,82.5,D,Raw,No,,,,,,Teen 16-17,17,2003-06-05
1,M,Aleksandr Plukchi,Александр Плукчи,88.5,,,,,,170,185,200,200,,200,90,D,Raw,No,,,,,,Open,35,1984-11-01
1,M,Igor Kryat,Игорь Крят,97.1,,,,,,300,310,-315,310,,310,100,D,Raw,No,,,,,,Open,32,1988-08-31
2,M,Anzor Sikhadzhok,Анзор Сихаджок,99.3,,,,,,310,-330,-330,310,,310,100,D,Raw,No,,,,,,Open,31,1989-02-06
3,M,Roman Fedorov,Роман Федоров,96.9,,,,,,265,280,-290,280,,280,100,D,Raw,No,,,,,,Open,40,1980-08-23
1,M,Pavel Siryak,Павел Сиряк,108,,,,,,280,292.5,-300,292.5,,292.5,110,D,Raw,No,,,,,,Open,34,1986-06-14
2,M,Dmitriy Kislitsyn,Дмитрий Кислицын,107.7,,,,,,250,275,285,285,,285,110,D,Raw,No,,,,,,Open,39,1980-11-17
1,M,Ruslan Zhigalov,Руслан Жигалов,108.1,,,,,,280,-300,,280,,280,110,D,Raw,No,,,,,,Masters 40-44,40,1980-08-10
2,M,Yuriy Vydra,Юрий Выдра,103.3,,,,,,195,210,-230,210,,210,110,D,Raw,No,,,,,,Masters 45-49,45,1975-01-26
1,M,Aleksan Sanosyan,Алексан Саносян,112.2,,,,,,230,-235,235,235,,235,125,D,Raw,No,,,,,,Masters 50-54,50,1970-06-19
