Place,Name,CyrillicName,BirthDate,Division,BodyweightKg,WeightClassKg,Sex,Squat1Kg,Squat2Kg,Squat3Kg,Best3SquatKg,Bench1Kg,Bench2Kg,Bench3Kg,Best3BenchKg,Deadlift1Kg,Deadlift2Kg,Deadlift3Kg,Deadlift4Kg,Best3DeadliftKg,TotalKg,Event,Equipment,Tested
1,Anastasiya Zhdanova,Анастасия Жданова,1980-12-11,Amateur Open,55.7,56,F,72.5,77.5,80,80,50,52.5,-55,52.5,117.5,125,127.5,,127.5,260,SBD,Raw,Yes
2,Olga Dubrovskaya,Ольга Дубровская,1987-08-05,Amateur Open,56,56,F,82.5,85,90,90,50,55,-57.5,55,115,-120,,,115,260,SBD,Raw,Yes
3,Elena Shapochkina,Елена Шапочкина,1980-12-31,Amateur Open,55.1,56,F,80,90,-95,90,-52.5,-55,55,55,80,95,105,,105,250,SBD,Raw,Yes
4,Asiyat Mudrova,Асият Мудрова,1992-09-10,Amateur Open,52.8,56,F,50,55,57.5,57.5,-40,-40,40,40,60,65,-75,,65,162.5,SBD,Raw,Yes
DQ,Marina Matusevich,Марина Матусевич,1988-01-08,Amateur Open,59.4,60,F,85,95,-105,95,-65,-65,-65,,,,,,,,SBD,Raw,Yes
1,Pavel Fedosov,Павел Федосов,1991-08-12,Amateur Open,74.6,75,M,160,-170,170,170,120,130,140,140,190,200,,,200,510,SBD,Raw,Yes
1,Aleksey Khekalo,Алексей Хекало,2000-08-28,Amateur Open,79,82.5,M,170,180,190,190,130,135,-137.5,135,205,215,225,,225,550,SBD,Raw,Yes
1,Albert Agarizaev,Альберт Агаризаев,1974-10-08,Amateur Masters 40-44,81.4,82.5,M,172.5,177.5,185,185,117.5,-120,-120,117.5,185,195,197.5,,197.5,500,SBD,Raw,Yes
1,Pavel Dedik,Павел Дедик,1975-05-04,Amateur Masters 40-44,104.5,110,M,190,202.5,207.5,207.5,135,142.5,147.5,147.5,210,225,240,,240,595,SBD,Wraps,Yes
1,Ivan Afanasev,Иван Афанасьев,1987-01-13,Pro Open,74.5,75,M,180,200,210,210,150,160,165,165,220,240,-250,,240,615,SBD,Raw,No
1,Semen Primakov,Семен Примаков,2000-11-10,Pro Teen 16-17,80.1,82.5,M,100,110,120,120,87.5,-90,-90,87.5,100,110,120,,120,327.5,SBD,Raw,No
1,Dmitriy Pys,Дмитрий Пысь,1986-05-04,Pro Open,124.3,125,M,310,330,,330,210,225,-230,225,300,320,-330,,320,875,SBD,Raw,No
2,Dmitriy Kislitsyn,Дмитрий Кислицын,1980-11-17,Pro Open,115.2,125,M,-160,160,175,175,140,150,-165,150,230,245,260,,260,585,SBD,Raw,No
1,Marina Glazkova,Марина Глазкова,1980-02-08,Amateur Open,46.6,48,F,,,,,45,-52.5,-52.5,45,,,,,,45,B,Raw,Yes
1,Darya Bgavina,Дарья Бгавина,1995-04-27,Amateur Juniors 20-23,51.7,52,F,,,,,70,75,77.5,77.5,,,,,,77.5,B,Raw,Yes
DQ,Tatyana Andreeva,Татьяна Андреева,1989-03-26,Amateur Open,51.7,52,F,,,,,-57.5,-57.5,-57.5,,,,,,,,B,Raw,Yes
1,Olga Potapova,Ольга Потапова,1980-01-23,Amateur Open,52.7,56,F,,,,,67.5,70,-72.5,70,,,,,,70,B,Raw,Yes
2,Elena Shapochkina,Елена Шапочкина,1980-12-31,Amateur Open,55.1,56,F,,,,,-52.5,-55,55,55,,,,,,55,B,Raw,Yes
3,Anna Pichka,Анна Пичка,1987-07-18,Amateur Open,55.4,56,F,,,,,50,-55,55,55,,,,,,55,B,Raw,Yes
4,Asiyat Mudrova,Асият Мудрова,1992-09-10,Amateur Open,52.8,56,F,,,,,-40,-40,40,40,,,,,,40,B,Raw,Yes
1,Bogdan Klimok,Богдан Климок,2005-02-09,Amateur Teen 13-15,49.7,52,M,,,,,-20,20,25,25,,,,,,25,B,Raw,Yes
1,Aleksey Bondarenko,Алексей Бондаренко,2003-09-05,Amateur Teen 13-15,55.2,56,M,,,,,57.5,-62.5,62.5,62.5,,,,,,62.5,B,Raw,Yes
1,Vadim Minko,Вадим Минко,1998-07-04,Amateur Juniors 20-23,66.5,67.5,M,,,,,125,130,-135,130,,,,,,130,B,Raw,Yes
DQ,Andrey Shandruk,Андрей Шандрук,1992-11-26,Amateur Open,73.3,75,M,,,,,-107.5,-112.5,-112.5,,,,,,,,B,Raw,Yes
1,Anatoliy Bgavin,Анатолий Бгавин,1987-01-02,Amateur Open,82.2,82.5,M,,,,,-117.5,117.5,127.5,127.5,,,,,,127.5,B,Raw,Yes
DQ,Evgeniy Bezruchko,Евгений Безручко,1984-02-13,Amateur Open,80.8,82.5,M,,,,,-145,,,,,,,,,,B,Raw,Yes
1,Evgeniy Spivakov,Евгений Спиваков,1982-11-19,Amateur Open,89.5,90,M,,,,,160,165,-167.5,165,,,,,,165,B,Raw,Yes
2,Aleksandr Vlaskov,Александр Власков,1984-11-10,Amateur Open,89.6,90,M,,,,,155,165,-175,165,,,,,,165,B,Raw,Yes
3,Ashot Karakezov,Ашот Каракезов,1985-02-02,Amateur Open,89.6,90,M,,,,,152.5,160,-167.5,160,,,,,,160,B,Raw,Yes
DQ,Maksim Salmin,Максим Салмин,1983-06-26,Amateur Open,88.2,90,M,,,,,-125,-125,-125,,,,,,,,B,Raw,Yes
1,Georgiy Sasania,Георгий Сасаниа,1993-02-14,Amateur Open,99.3,100,M,,,,,200,205,-210,205,,,,,,205,B,Raw,Yes
2,Vitaliy Tishchenko,Виталий Тищенко,1991-09-24,Amateur Open,94.1,100,M,,,,,142.5,145,-147.5,145,,,,,,145,B,Raw,Yes
3,Vasiliy Zhadan,Василий Жадан,1981-12-08,Amateur Open,98.4,100,M,,,,,112.5,-125,-125,112.5,,,,,,112.5,B,Raw,Yes
1,Denis Belyaev,Денис Беляев,1985-09-06,Amateur Open,106.9,110,M,,,,,-125,132.5,-147.5,132.5,,,,,,132.5,B,Raw,Yes
1,Dmitriy Gladyshev,Дмитрий Гладышев,1974-08-02,Amateur Masters 40-44,115.1,125,M,,,,,150,160,165,165,,,,,,165,B,Raw,Yes
1,Anastasiya Zhdanova,Анастасия Жданова,1980-12-11,Amateur Open,55.7,56,F,,,,,60,65,-75,65,,,,,,65,B,Unlimited,Yes
1,Vitaliy Petrov,Виталий Петров,1989-04-17,Amateur Open,89.6,90,M,,,,,-180,-185,185,185,,,,,,185,B,Unlimited,Yes
1,Evgeniy Veles,Евгений Велес,1968-03-09,Amateur Masters 50-54,109.2,110,M,,,,,-262.5,262.5,-282.5,262.5,,,,,,262.5,B,Unlimited,Yes
1,Anastasiya Marchuk,Анастасия Марчук,1992-02-04,Amateur Open,54.8,56,F,,,,,,,,,125,135,140,,140,140,D,Raw,Yes
1,Aleksey Khekalo,Алексей Хекало,2000-08-28,Amateur Open,79,82.5,M,,,,,,,,,205,215,225,,225,225,D,Raw,Yes
2,Anatoliy Bgavin,Анатолий Бгавин,1987-01-02,Amateur Open,82.2,82.5,M,,,,,,,,,185,195,-215,,195,195,D,Raw,Yes
1,Eduard Kern,Эдуард Керн,1990-09-21,Amateur Open,90.9,100,M,,,,,,,,,140,-170,-170,,140,140,D,Raw,Yes
1,Pavel Dedik,Павел Дедик,1975-05-04,Amateur Masters 40-44,104.5,110,M,,,,,,,,,210,225,240,,240,240,D,Raw,Yes
2,Anton Timoshenko,Антон Тимошенко,1978-07-07,Amateur Masters 40-44,107.2,110,M,,,,,,,,,-190,210,-215,,210,210,D,Raw,Yes
1,Viktor Banman,Виктор Банман,1957-01-18,Amateur Masters 60-64,82,82.5,M,,,,,,,,,160,180,-190,,180,180,D,Single-ply,Yes
1,Tatyana Kislitsyna,Татьяна Кислицына,1981-02-01,Pro Open,51.7,52,F,,,,,35,37.5,40,40,,,,,,40,B,Raw,No
1,Olga Boychenko,Ольга Бойченко,1969-10-01,Pro Masters 45-49,56,56,F,,,,,40,-45,45,45,,,,,,45,B,Raw,No
1,Olesya Skorobogatko,Олеся Скоробогатько,1991-10-11,Pro Open,66.8,67.5,F,,,,,47.5,52.5,55,55,,,,,,55,B,Raw,No
1,Tatyana Pashchenko,Татьяна Пащенко,1979-08-28,Pro Open,73.9,75,F,,,,,70,75,-80,75,,,,,,75,B,Raw,No
1,Fedor Selezidi,Федор Селезиди,2009-09-23,Pro Youth,40,52,M,,,,,40,42.5,-45,42.5,,,,,,42.5,B,Raw,No
1,Maksim Pashchenko,Максим Пащенко,2004-01-01,Pro Teen 13-15,53.7,56,M,,,,,45,50,-52.5,50,,,,,,50,B,Raw,No
1,Vladislav Grebennikov,Владислав Гребенников,2003-05-06,Pro Teen 13-15,73.4,75,M,,,,,-60,60,65,65,,,,,,65,B,Raw,No
DQ,Evgeniy Siselkin,Евгений Сиселкин,1996-11-11,Pro Juniors 20-23,82.4,82.5,M,,,,,-125,-125,-125,,,,,,,,B,Raw,No
1,Aleksey Buryan,Алексей Бурьян,1973-07-16,Pro Masters 45-49,80.7,82.5,M,,,,,115,120,125,125,,,,,,125,B,Raw,No
1,Avtandil Gabiskiriya,Автандил Габискирия,1981-07-03,Pro Open,86.3,90,M,,,,,135,-142.5,-142.5,135,,,,,,135,B,Raw,No
1,Denis Stroganov,Денис Строганов,1978-09-19,Pro Masters 40-44,86.2,90,M,,,,,-140,140,145,145,,,,,,145,B,Raw,No
1,Aleksandr Bazhenov,Александр Баженов,1952-04-18,Pro Masters 65-69,88,90,M,,,,,120,125,-130,125,,,,,,125,B,Raw,No
1,Nikita Ilyasov,Никита Ильясов,1996-03-28,Pro Juniors 20-23,97.3,100,M,,,,,180,-190,-190,180,,,,,,180,B,Raw,No
1,Nikolay Timoshev,Николай Тимошев,1990-10-14,Pro Open,96.5,100,M,,,,,195,200,205,205,,,,,,205,B,Raw,No
2,Vladimir Zakharov,Владимир Захаров,1955-07-07,Pro Open,99.3,100,M,,,,,175,180,185,185,,,,,,185,B,Raw,No
3,Eduard Petrenko,Эдуард Петренко,1992-04-14,Pro Open,98.6,100,M,,,,,150,160,-165,160,,,,,,160,B,Raw,No
1,Andrey Gordievich,Андрей Гордиевич,1975-08-16,Pro Masters 40-44,98.5,100,M,,,,,140,-145,145,145,,,,,,145,B,Raw,No
1,Vladimir Zakharov,Владимир Захаров,1955-07-07,Pro Masters 60-64,99.3,100,M,,,,,175,180,185,185,,,,,,185,B,Raw,No
1,Aleksandr Korshkov,Александр Коршков,1986-01-06,Pro Open,107.9,110,M,,,,,180,195,-200,195,,,,,,195,B,Raw,No
2,Vyacheslav Malyugin,Вячеслав Малюгин,1983-07-09,Pro Open,107.7,110,M,,,,,165,-172.5,,165,,,,,,165,B,Raw,No
1,Dmitriy Dubovik,Дмитрий Дубовик,1967-10-07,Pro Masters 50-54,108,110,M,,,,,190,197.5,205,205,,,,,,205,B,Raw,No
1,Dmitriy Pys,Дмитрий Пысь,1986-05-04,Pro Open,124.3,125,M,,,,,210,225,-230,225,,,,,,225,B,Raw,No
2,Vyacheslav Chmelev,Вячеслав Чмелев,1988-01-04,Pro Open,123.2,125,M,,,,,205,215,-225,215,,,,,,215,B,Raw,No
3,Aleksey Morozov,Алексей Морозов,1979-04-11,Pro Open,122.2,125,M,,,,,190,200,-207.5,200,,,,,,200,B,Raw,No
1,Aleksan Sanosyan,Алексан Саносян,1970-06-19,Pro Masters 45-49,124.9,125,M,,,,,140,145,-150,145,,,,,,145,B,Raw,No
1,Sergey Novikov,Сергей Новиков,1974-01-28,Pro Masters 40-44,137,140,M,,,,,160,170,180,180,,,,,,180,B,Raw,No
1,Eduard Trudnev,Эдуард Труднев,1979-11-18,Pro Open,95.4,100,M,,,,,250,272.5,-300,272.5,,,,,,272.5,B,Unlimited,No
1,Andrey Likhman,Андрей Лихман,1977-05-01,Pro Open,108,110,M,,,,,320,-330,-340,320,,,,,,320,B,Unlimited,No
1,Andrey Likhman,Андрей Лихман,1977-05-01,Pro Masters 40-44,108,110,M,,,,,320,-330,-340,320,,,,,,320,B,Unlimited,No
1,Vitaliy Sorokotyagin,Виталий Сорокотягин,1981-05-28,Pro Open,115.8,125,M,,,,,335,345,-352.5,345,,,,,,345,B,Unlimited,No
2,Ilya Serikov,Илья Сериков,1983-07-16,Pro Open,113.8,125,M,,,,,290,305,,305,,,,,,305,B,Unlimited,No
1,Elnara Badurova,Эльнара Бадурова,1994-01-30,Pro Open,56,56,F,,,,,,,,,70,85,-100,,85,85,D,Raw,No
1,Marina Matusevich,Марина Матусевич,1988-01-08,Pro Open,59.4,60,F,,,,,,,,,110,120,-145,,120,120,D,Raw,No
1,Tatyana Pashchenko,Татьяна Пащенко,1979-08-28,Pro Open,73.9,75,F,,,,,,,,,130,142.5,150,,150,150,D,Raw,No
1,Aleksandr Grushinskiy,Александр Грушинский,1975-02-06,Pro Masters 40-44,89.6,90,M,,,,,,,,,225,242.5,262.5,270,262.5,262.5,D,Raw,No
1,Mikhail Dadonov,Михаил Дадонов,1988-01-13,Pro Open,99.5,100,M,,,,,,,,,210,230,-240,,230,230,D,Raw,No
1,Aleksandr Ilyutkin,Александр Илюткин,1993-02-03,Pro Open,103.4,110,M,,,,,,,,,300,-315,-315,,300,300,D,Raw,No
1,Dmitriy Pys,Дмитрий Пысь,1986-05-04,Pro Open,124.3,125,M,,,,,,,,,300,320,-330,,320,320,D,Raw,No
2,Ruslan Trukhlyak,Руслан Трухляк,1991-07-08,Pro Open,124.7,125,M,,,,,,,,,280,-300,-315,,280,280,D,Raw,No
1,Aleksan Sanosyan,Алексан Саносян,1970-06-19,Pro Masters 45-49,124.9,125,M,,,,,,,,,230,-240,-240,,230,230,D,Raw,No
1,Roman Khaustov,Роман Хаустов,1983-04-30,Pro Open,88.5,90,M,,,,,,,,,295,310,-320,,310,310,D,Single-ply,No
2,Oleg Son,Олег Сон,1991-05-22,Pro Open,84.3,90,M,,,,,,,,,235,250,,,250,250,D,Single-ply,No
1,Aleksandr Girilyal,Александр Гирилял,1987-05-08,Pro Open,116.4,125,M,,,,,,,,,290,300,-320,,300,300,D,Single-ply,No
