Place,Name,Division,BirthYear,BodyweightKg,Bench1Kg,Bench2Kg,Bench3Kg,Best3BenchKg,Bench4Kg,WeightClassKg,Sex,CyrillicName,Equipment,Tested,Deadlift1Kg,Deadlift2Kg,Deadlift3Kg,Best3DeadliftKg,Deadlift4Kg,Event,TotalKg,Squat1Kg,Squat2Kg,Squat3Kg,Best3SquatKg,Squat4Kg
1,Elena Skodskikh,F_OR_AWPC,1992,44,60,62.5,-65,62.5,,44,F,Елена Скодских,Raw,Yes,,,,,,B,62.5,,,,,
2,Darya Polyakova,F_OR_AWPC,1988,43.4,45,50,-55,50,,44,F,Дарья Полякова,Raw,Yes,,,,,,B,50,,,,,
1,Nadezhda Aprelova,F_OR_AWPC,1963,48,55,60,65,65,,48,F,Надежда Апрелова,Raw,Yes,,,,,,B,65,,,,,
2,Natalya Klementyeva,F_OR_AWPC,1980,47.6,55,60,-62.5,60,,48,F,Наталья Клементьева,Raw,Yes,,,,,,B,60,,,,,
3,Yana Chernyavskaya,F_OR_AWPC,1982,48,50,52.5,-55,52.5,,48,F,Яна Чернявская,Raw,Yes,,,,,,B,52.5,,,,,
1,Nadezhda Aprelova,F_MR_3_AWPC,1963,48,55,60,65,65,,48,F,Надежда Апрелова,Raw,Yes,,,,,,B,65,,,,,
1,Darya Fedoseeva,F_TR_2_AWPC,2000,52,55,60,-62.5,60,,52,F,Дарья Федосеева,Raw,Yes,,,,,,B,60,,,,,
1,Kabirabonu Ulugova,F_TR_3_AWPC,1998,49.9,57.5,62.5,-67.5,62.5,,52,F,Кабирабону Улугова,Raw,Yes,,,,,,B,62.5,,,,,
1,Kseniya Baranova,F_JR_AWPC,1993,51.5,57.5,62.5,-67.5,62.5,,52,F,Ксения Баранова,Raw,Yes,,,,,,B,62.5,,,,,
1,Kabirabonu Ulugova,F_OR_AWPC,1998,49.9,57.5,62.5,-67.5,62.5,,52,F,Кабирабону Улугова,Raw,Yes,,,,,,B,62.5,,,,,
2,Irina Kucherova,F_OR_AWPC,1988,51.7,-52.5,55,-57.5,55,,52,F,Ирина Кучерова,Raw,Yes,,,,,,B,55,,,,,
1,Olga Khisamova,F_MR_1_AWPC,1972,51.4,50,-55,55,55,,52,F,Ольга Хисамова,Raw,Yes,,,,,,B,55,,,,,
1,Natalya Blinkova,F_OR_AWPC,1991,53.6,70,75,-82.5,75,,56,F,Наталья Блинкова,Raw,Yes,,,,,,B,75,,,,,
2,Alena Bits,F_OR_AWPC,1979,55.2,-65,-65,65,65,,56,F,Елена Биц,Raw,Yes,,,,,,B,65,,,,,
3,Elena Levova,F_OR_AWPC,1977,53.8,40,42.5,45,45,,56,F,Елена Левова,Raw,Yes,,,,,,B,45,,,,,
1,Valentina Gosteva,F_MR_5_AWPC,1955,55.1,55,60,62.5,62.5,-65,56,F,Валентина Гостева,Raw,Yes,,,,,,B,62.5,,,,,
1,Renata Bambatgireeva,F_TR_1_AWPC,2001,59.6,55,60,65,65,,60,F,Рената Бамбатгіреєва,Raw,Yes,,,,,,B,65,,,,,
1,Natalya Markushina,F_TR_2_AWPC,1999,58.2,47.5,52.5,-55,52.5,,60,F,Наталья Маркушина,Raw,Yes,,,,,,B,52.5,,,,,
1,Aleksandra Bychkova,F_TR_3_AWPC,1996,58.7,52.5,57.5,-60,57.5,,60,F,Александра Бычкова,Raw,Yes,,,,,,B,57.5,,,,,
1,Oksana Namesova,F_OR_AWPC,1979,59.8,67.5,72.5,-75,72.5,,60,F,Оксана Намесова,Raw,Yes,,,,,,B,72.5,,,,,
2,Raisa Sharueva,F_OR_AWPC,1983,59.9,72.5,-77.5,-77.5,72.5,,60,F,Раиса Шаруева,Raw,Yes,,,,,,B,72.5,,,,,
1,Natalya Potapova,F_MR_1_AWPC,1972,57.7,62.5,-67.5,-67.5,62.5,,60,F,Наталья Потапова,Raw,Yes,,,,,,B,62.5,,,,,
1,Anastasiya Brakhnova,F_TR_1_AWPC,2001,60.4,55,-57.5,57.5,57.5,,67.5,F,Анастасия Брахнова,Raw,Yes,,,,,,B,57.5,,,,,
1,Angelina Melnikova,F_TR_2_AWPC,1998,65.1,60,65,-67.5,65,,67.5,F,Ангелина Мельникова,Raw,Yes,,,,,,B,65,,,,,
1,Yuliya Kuznetsova,F_OR_AWPC,1973,64.4,102.5,-105,,102.5,,67.5,F,Юлия Кузнецова,Raw,Yes,,,,,,B,102.5,,,,,
DQ,Svetlana Grigoryeva,F_OR_AWPC,1982,64.1,-70,-70,-75,,,67.5,F,Светлана Григорьева,Raw,Yes,,,,,,B,,,,,,
1,Marina Lukyanova,F_MR_1_AWPC,1972,63.7,92.5,95,97.5,97.5,,67.5,F,Марина Лукьянова,Raw,Yes,,,,,,B,97.5,,,,,
2,Irina Romasenko,F_MR_1_AWPC,1975,64.4,70,75,-80,75,,67.5,F,Ирина Ромасенко,Raw,Yes,,,,,,B,75,,,,,
1,Elena Prokopova,F_MR_3_AWPC,1966,63.2,-42.5,42.5,45,45,,67.5,F,Елена Прокопова,Raw,Yes,,,,,,B,45,,,,,
1,Tatyana Obraztsova,F_OR_AWPC,1978,70,70,75,-77.5,75,,75,F,Татьяна Образцова,Raw,Yes,,,,,,B,75,,,,,
1,Elena Makarova,F_MR_3_AWPC,1962,72.8,52.5,-55,-55,52.5,,75,F,Елена Макарова,Raw,Yes,,,,,,B,52.5,,,,,
1,Sergey Kuznetsov,M_TR_1_AWPC,2001,48.5,47.5,52.5,-55,52.5,,52,M,Сергей Кузнецов,Raw,Yes,,,,,,B,52.5,,,,,
2,Kirill Kulikov,M_TR_1_AWPC,2002,50.9,37.5,-42.5,45,45,,52,M,Кирилл Куликов,Raw,Yes,,,,,,B,45,,,,,
3,Nikita Korobeynikov,M_YR_AWPC,2006,40,32.5,35,-37.5,35,,52,M,Никита Коробейников,Raw,Yes,,,,,,B,35,,,,,
1,Dmitriy Kondratyev,M_TR_1_AWPC,2002,56,60,70,-80,70,,56,M,Дмитрий Кондратьев,Raw,Yes,,,,,,B,70,,,,,
2,Vadim Zubrikov,M_TR_1_AWPC,2000,54.2,57.5,62.5,-65,62.5,,56,M,Вадим Зубриков,Raw,Yes,,,,,,B,62.5,,,,,
3,Andrey Yuryev,M_TR_1_AWPC,2001,55.4,55,60,62.5,62.5,,56,M,Андрей Юрьев,Raw,Yes,,,,,,B,62.5,,,,,
4,Roman Grigoryev,M_TR_1_AWPC,2001,53.9,50,-55,-55,50,,56,M,Роман Григорьев,Raw,Yes,,,,,,B,50,,,,,
1,Igor Popov,M_JR_AWPC,1993,55.6,-90,90,95,95,,56,M,Игорь Попов,Raw,Yes,,,,,,B,95,,,,,
1,Sergey Samylin,M_OR_AWPC,1989,54.2,82.5,87.5,90,90,,56,M,Сергей Самылин,Raw,Yes,,,,,,B,90,,,,,
3,Andrey Maksimov,M_OR_AWPC,1991,55.6,80,90,-92.5,90,,56,M,Андрей Максимов,Raw,Yes,,,,,,B,90,,,,,
1,Dmitriy Yurshin,M_TR_1_AWPC,2001,57.8,-75,75,-80,75,,60,M,Дмитрий Юршин,Raw,Yes,,,,,,B,75,,,,,
1,Fedor Tolkachev,M_TR_2_AWPC,1999,58.8,95,97.5,100,100,,60,M,Федор Толкачев,Raw,Yes,,,,,,B,100,,,,,
2,Artem Nekrasov,M_TR_2_AWPC,1999,57.3,47.5,50,-55,50,,60,M,Артем Некрасов,Raw,Yes,,,,,,B,50,,,,,
1,Ilya Korotkin,M_TR_3_AWPC,1997,59.9,102.5,-107.5,-107.5,102.5,,60,M,Илья Короткин,Raw,Yes,,,,,,B,102.5,,,,,
1,Rishat Yusupov,M_OR_AWPC,1991,58.9,85,-90,-90,85,,60,M,Ришат Юсупов,Raw,Yes,,,,,,B,85,,,,,
1,Nikita Zatonskikh,M_TR_1_AWPC,2002,63,70,75,77.5,77.5,,67.5,M,Никита Затонских,Raw,Yes,,,,,,B,77.5,,,,,
1,Mihails Rapoports,M_TR_2_AWPC,1999,66.7,115,120,125,125,,67.5,M,,Raw,Yes,,,,,,B,125,,,,,
2,Dmitriy Sushkov,M_TR_2_AWPC,1998,64.3,75,82.5,-87.5,82.5,,67.5,M,Дмитрий Сушков,Raw,Yes,,,,,,B,82.5,,,,,
1,Roman Skalozubov,M_TR_3_AWPC,1997,67,-140,140,-145,140,,67.5,M,Роман Скалозубов,Raw,Yes,,,,,,B,140,,,,,
2,Ivan Bogatyy,M_TR_3_AWPC,1996,67,120,130,-140,130,,67.5,M,Иван Богатый,Raw,Yes,,,,,,B,130,,,,,
1,Maksim Gridnev,M_JR_AWPC,1992,66.5,150,-160,-160,150,,67.5,M,Максим Гриднев,Raw,Yes,,,,,,B,150,,,,,
1,Dmitriy Vladimirov,M_OR_AWPC,1986,67.3,140,145,147.5,147.5,,67.5,M,Дмитрий Владимиров,Raw,Yes,,,,,,B,147.5,,,,,
2,Sergey Perevalov,M_OR_AWPC,1981,66.4,140,145,-147.5,145,,67.5,M,Сергей Перевалов,Raw,Yes,,,,,,B,145,,,,,
3,Evgeniy Zakharov,M_OR_AWPC,1990,66.8,125,132.5,-142.5,132.5,,67.5,M,Евгений Захаров,Raw,Yes,,,,,,B,132.5,,,,,
1,Boriss Laisin,M_MR_6_AWPC,1950,66.7,105,-108,-108,105,,67.5,M,,Raw,Yes,,,,,,B,105,,,,,
1,Ivan Mescheryakov,M_TR_1_AWPC,2002,70.1,90,-97.5,100,100,,75,M,Иван Мещеряков,Raw,Yes,,,,,,B,100,,,,,
1,Artem Kolupanov,M_TR_2_AWPC,1999,72.3,115,125,127.5,127.5,,75,M,Артем Колупанов,Raw,Yes,,,,,,B,127.5,,,,,
1,Yaroslav Oveshnikov,M_JR_AWPC,1993,73.3,125,135,-140,135,,75,M,Ярослав Овешников,Raw,Yes,,,,,,B,135,,,,,
2,Vladimir Devyatkin,M_JR_AWPC,1992,72.4,100,-110,110,110,,75,M,Владимир Девяткин,Raw,Yes,,,,,,B,110,,,,,
DQ,Artur Abdyushev,M_JR_AWPC,1993,73.7,-190,,,,,75,M,Артур Абдюшев,Raw,Yes,,,,,,B,,,,,,
1,Vakha Khadziev,M_OR_AWPC,1994,75,170,180,185,185,,75,M,Ваха Хадзиев,Raw,Yes,,,,,,B,185,,,,,
2,Aleksandr Pozdnyakov,M_OR_AWPC,1979,74.7,150,160,170,170,,75,M,Александр Поздняков,Raw,Yes,,,,,,B,170,,,,,
3,Ilya Babin,M_OR_AWPC,1980,70,150,160,165,165,,75,M,Илья Бабин,Raw,Yes,,,,,,B,165,,,,,
4,Mikhail Goncharenko,M_OR_AWPC,1977,73.5,-140,140,-145,140,,75,M,Михаил Гончаренко,Raw,Yes,,,,,,B,140,,,,,
DQ,Aleksey Goncharenko,M_OR_AWPC,1981,72.2,-150,-150,-150,,,75,M,Алексей Гончаренко,Raw,Yes,,,,,,B,,,,,,
1,Roman Vasilyev,M_MR_1_AWPC,1973,74.5,155,160,162.5,162.5,-165,75,M,Роман Васильев,Raw,Yes,,,,,,B,162.5,,,,,
2,Sergey Rudychev,M_MR_1_AWPC,1974,71.7,117.5,125,-130,125,,75,M,Сергей Рудычев,Raw,Yes,,,,,,B,125,,,,,
1,Igor Kovalev #1,M_MR_4_AWPC,1957,74.8,130,137.5,-145,137.5,,75,M,Игорь Ковалев,Raw,Yes,,,,,,B,137.5,,,,,
1,Yuriy Dvizov,M_MR_6_AWPC,1947,74.5,122.5,-127.5,-127.5,122.5,,75,M,Юрий Двизов,Raw,Yes,,,,,,B,122.5,,,,,
1,Yuriy Chepets,M_MR_7_AWPC,1943,71.5,112.5,-117.5,117.5,117.5,,75,M,Юрий Чепец,Raw,Yes,,,,,,B,117.5,,,,,
1,Artem Fursa,M_TR_3_AWPC,1998,78.8,145,150,155,155,,82.5,M,Артем Фурса,Raw,Yes,,,,,,B,155,,,,,
2,Aleksandr Gerasimov,M_TR_3_AWPC,1996,80.2,-145,145,152.5,152.5,,82.5,M,Александр Герасимов,Raw,Yes,,,,,,B,152.5,,,,,
3,Dmitriy Shekhovtsov,M_TR_3_AWPC,1997,79.6,147.5,-152.5,-152.5,147.5,,82.5,M,Дмитрий Шеховцов,Raw,Yes,,,,,,B,147.5,,,,,
1,Aleksey Vlasyan,M_JR_AWPC,1994,82.4,167.5,172.5,-180,172.5,,82.5,M,Алексей Власян,Raw,Yes,,,,,,B,172.5,,,,,
1,Akhmed Mereshkov,M_OR_AWPC,1989,80.6,170,177.5,180,180,,82.5,M,Ахмед Мерешков,Raw,Yes,,,,,,B,180,,,,,
2,Timofey Chernyavskiy,M_OR_AWPC,1985,79.6,170,172.5,-177.5,172.5,,82.5,M,Тимофей Чернявский,Raw,Yes,,,,,,B,172.5,,,,,
3,Aleksandr Kraev,M_OR_AWPC,1982,76.7,150,160,-165,160,,82.5,M,Александр Краев,Raw,Yes,,,,,,B,160,,,,,
4,Dmitriy Lyutikov,M_OR_AWPC,1987,79.1,135,-145,-145,135,,82.5,M,Дмитрий Лютиков,Raw,Yes,,,,,,B,135,,,,,
5,Robin Bkhadur,M_OR_AWPC,1992,76.9,120,130,-140,130,,82.5,M,,Raw,Yes,,,,,,B,130,,,,,
DQ,Aleksey Vorontsov,M_OR_AWPC,1977,81,-140,-145,-145,,,82.5,M,Алексей Воронцов,Raw,Yes,,,,,,B,,,,,,
DQ,Evgeniy Penkov,M_OR_AWPC,1988,81.5,-177.5,-177.5,-177.5,,,82.5,M,Евгений Пеньков,Raw,Yes,,,,,,B,,,,,,
DQ,Vladimir Tishkovskiy,M_OR_AWPC,1986,82.5,-220,,,,,82.5,M,Владимир Тишковский,Raw,Yes,,,,,,B,,,,,,
1,Eduard Potapov,M_MR_2_AWPC,1968,80.6,150,155,-160,155,,82.5,M,Эдуард Потапов,Raw,Yes,,,,,,B,155,,,,,
1,Alan Ford,M_MR_3_AWPC,1965,77.8,102.5,-115,-115,102.5,,82.5,M,,Raw,Yes,,,,,,B,102.5,,,,,
1,Erdene Shagdarsuren Bat,M_MR_4_AWPC,1959,77.5,110,115,-120,115,,82.5,M,,Raw,Yes,,,,,,B,115,,,,,
1,Vasiliy Mosin,M_MR_5_AWPC,1956,80.3,140,145,150,150,,82.5,M,Василий Мосин,Raw,Yes,,,,,,B,150,,,,,
1,Aleksey Shashkov,M_TR_3_AWPC,1997,86.4,-147.5,147.5,152.5,152.5,,90,M,Алексей Шашков,Raw,Yes,,,,,,B,152.5,,,,,
2,Roman Nekhaev,M_TR_3_AWPC,1996,86.1,-125,125,-132.5,125,,90,M,Роман Нехаев,Raw,Yes,,,,,,B,125,,,,,
1,Roman Kovalev,M_JR_AWPC,1993,86.5,-125,125,-132.5,125,,90,M,Роман Ковалев,Raw,Yes,,,,,,B,125,,,,,
1,Oleg Filimonov,M_OR_AWPC,1987,89.5,212.5,-222.5,-222.5,212.5,,90,M,Олег Филимонов,Raw,Yes,,,,,,B,212.5,,,,,
2,Andrei Svidin,M_OR_AWPC,1980,88.8,180,-190,-202.5,180,,90,M,Андрей Свидин,Raw,Yes,,,,,,B,180,,,,,
3,Kirill Khomyakov,M_OR_AWPC,1984,88.8,172.5,175,-177.5,175,,90,M,Кирилл Хомяков,Raw,Yes,,,,,,B,175,,,,,
4,Aleksandr Pismak,M_OR_AWPC,1980,88.9,175,-180,-180,175,,90,M,Александр Письмак,Raw,Yes,,,,,,B,175,,,,,
5,Vladimir Zolotarev,M_OR_AWPC,1990,88.5,-167.5,167.5,-170,167.5,,90,M,Владимир Золотарев,Raw,Yes,,,,,,B,167.5,,,,,
6,Evgeniy Denisov,M_OR_AWPC,1992,88.8,-132.5,132.5,140,140,,90,M,Евгений Денисов,Raw,Yes,,,,,,B,140,,,,,
7,Aleksandr Batalkin,M_OR_AWPC,1983,85.9,120,132.5,-135,132.5,,90,M,Александр Баталкин,Raw,Yes,,,,,,B,132.5,,,,,
8,Aleksandr Petrenko,M_OR_AWPC,1986,88.8,132.5,-152.5,-152.5,132.5,,90,M,Александр Петренко,Raw,Yes,,,,,,B,132.5,,,,,
DQ,Denis Rogozin,M_OR_AWPC,1992,88.7,-155,-162.5,-162.5,,,90,M,Денис Рогозин,Raw,Yes,,,,,,B,,,,,,
1,Yuriy Fedorov,M_MR_1_AWPC,1975,86.6,180,187.5,-192.5,187.5,,90,M,Юрий Федоров,Raw,Yes,,,,,,B,187.5,,,,,
2,Mikhail Patoka,M_MR_1_AWPC,1976,89.2,-167.5,167.5,-175,167.5,,90,M,Михаил Патока,Raw,Yes,,,,,,B,167.5,,,,,
1,Sergey Runov,M_MR_2_AWPC,1971,88.4,142.5,152.5,157.5,157.5,,90,M,Сергей Рунов,Raw,Yes,,,,,,B,157.5,,,,,
2,Mikhail Chepurnoy,M_MR_2_AWPC,1970,89,140,-152.5,152.5,152.5,,90,M,Михаил Чепурной,Raw,Yes,,,,,,B,152.5,,,,,
1,Sergey Bazanov,M_MR_3_AWPC,1962,87.8,-160,160,162.5,162.5,,90,M,Сергей Базанов,Raw,Yes,,,,,,B,162.5,,,,,
2,Mikhail Ronkin,M_MR_3_AWPC,1961,88.6,125,135,-142.5,135,,90,M,Михаил Ронкин,Raw,Yes,,,,,,B,135,,,,,
1,Alexander Petrov,M_MR_4_AWPC,1960,89.6,160,-165,165,165,,90,M,Александр Петров,Raw,Yes,,,,,,B,165,,,,,
2,Chris Williams #1,M_MR_4_AWPC,1959,89.8,110,120,-130,120,,90,M,,Raw,Yes,,,,,,B,120,,,,,
1,Sergey Kundus,M_MR_5_AWPC,1953,89.3,125,132.5,-137.5,132.5,,90,M,Сергей Кундус,Raw,Yes,,,,,,B,132.5,,,,,
1,Vladislav Rozhenko,M_TR_2_AWPC,1999,95.3,-112.5,112.5,120,120,,100,M,Владислав Роженко,Raw,Yes,,,,,,B,120,,,,,
1,Nikolay Kapitonov,M_TR_3_AWPC,1996,91.2,135,140,-147.5,140,,100,M,Николай Капитонов,Raw,Yes,,,,,,B,140,,,,,
1,Dmitriy Gorodshiy,M_JR_AWPC,1993,100,167.5,172.5,-182.5,172.5,,100,M,Дмитрий Городший,Raw,Yes,,,,,,B,172.5,,,,,
2,Alexey Danilochkin,M_JR_AWPC,1995,95.7,160,-165,165,165,,100,M,Алексей Данилочкин,Raw,Yes,,,,,,B,165,,,,,
3,Nikolay Silkin,M_JR_AWPC,1992,97.5,162.5,-167.5,-167.5,162.5,,100,M,Николай Силкин,Raw,Yes,,,,,,B,162.5,,,,,
4,Pavel Koltsov,M_JR_AWPC,1993,100,140,-145,,140,,100,M,Павел Кольцов,Raw,Yes,,,,,,B,140,,,,,
DQ,Artem Avdeev,M_JR_AWPC,1992,94.6,-135,-135,-140,,,100,M,Артем Авдеев,Raw,Yes,,,,,,B,,,,,,
1,Ivan Baranov #3,M_OR_AWPC,1990,99.7,180,192.5,-202.5,192.5,,100,M,Иван Баранов,Raw,Yes,,,,,,B,192.5,,,,,
2,Bagaudin Algatov,M_OR_AWPC,1990,98.1,190,-200,-200,190,,100,M,Багаудин Алгатов,Raw,Yes,,,,,,B,190,,,,,
3,Vitaliy Parmut,M_OR_AWPC,1987,98.3,185,-195,-195,185,,100,M,Виталий Пармут,Raw,Yes,,,,,,B,185,,,,,
4,Igor Kabanov,M_OR_AWPC,1991,97.7,-135,135,-140,135,,100,M,Игорь Кабанов,Raw,Yes,,,,,,B,135,,,,,
5,Maksim Repin,M_OR_AWPC,1986,98.7,122.5,130,-140,130,,100,M,Максим Репин,Raw,Yes,,,,,,B,130,,,,,
1,Vladimir Petrenko,M_MR_1_AWPC,1976,97.6,140,-162.5,162.5,162.5,,100,M,Владимир Петренко,Raw,Yes,,,,,,B,162.5,,,,,
2,Gena Svetlov,M_MR_1_AWPC,1976,97.5,130,137.5,-142.5,137.5,,100,M,Гена Светлов,Raw,Yes,,,,,,B,137.5,,,,,
1,Ivan Kazantsev,M_MR_2_AWPC,1967,96.1,167.5,172.5,175,175,,100,M,Иван Казанцев,Raw,Yes,,,,,,B,175,,,,,
2,Vladimir Zaytsev,M_MR_2_AWPC,1971,93.5,150,155,157.5,157.5,,100,M,Владимир Зайцев,Raw,Yes,,,,,,B,157.5,,,,,
1,Mikhail Prokopov,M_MR_5_AWPC,1956,97.2,157.5,-162.5,-162.5,157.5,,100,M,Михаил Прокопов,Raw,Yes,,,,,,B,157.5,,,,,
1,Evgeniy Lemeschenko,M_JR_AWPC,1995,109.9,185,-190,-190,185,,110,M,Евгений Лемещенко,Raw,Yes,,,,,,B,185,,,,,
2,Oleg Lomaka,M_JR_AWPC,1993,108.5,167.5,175,-177.5,175,,110,M,Олег Ломака,Raw,Yes,,,,,,B,175,,,,,
1,Sergey Mordvinov,M_OR_AWPC,1982,108,220,225,-227.5,225,,110,M,Сергей Мордвинов,Raw,Yes,,,,,,B,225,,,,,
2,Konstantin Ezyk,M_OR_AWPC,1991,105.8,210,220,-225,220,,110,M,Константин Езык,Raw,Yes,,,,,,B,220,,,,,
3,Vadim Polyanin,M_OR_AWPC,1983,103.9,195,202.5,-210,202.5,,110,M,Вадим Полянин,Raw,Yes,,,,,,B,202.5,,,,,
4,Vitaliy Stolbovoy,M_OR_AWPC,1973,105.6,185,,,185,,110,M,Виталий Столбовой,Raw,Yes,,,,,,B,185,,,,,
5,Gansukh Batmagnai,M_OR_AWPC,1988,108.5,175,185,-195,185,,110,M,,Raw,Yes,,,,,,B,185,,,,,
6,Evgeniy Uvarov,M_OR_AWPC,1977,106.4,170,-177.5,-177.5,170,,110,M,Евгений Уваров,Raw,Yes,,,,,,B,170,,,,,
7,Ivan Leschenko,M_OR_AWPC,1986,104.4,-162.5,162.5,-167.5,162.5,,110,M,Иван Лещенко,Raw,Yes,,,,,,B,162.5,,,,,
DQ,Aleksandr Pakhuchiy,M_OR_AWPC,1978,109.1,-190,-190,-190,,,110,M,Александр Пахучий,Raw,Yes,,,,,,B,,,,,,
1,Vitaliy Stolbovoy,M_MR_1_AWPC,1973,105.6,185,195,-197.5,195,,110,M,Виталий Столбовой,Raw,Yes,,,,,,B,195,,,,,
2,Mikhail Kalinin,M_MR_1_AWPC,1975,108,155,162.5,-165,162.5,,110,M,Михаил Калинин,Raw,Yes,,,,,,B,162.5,,,,,
3,Maksim Ivanov #8,M_MR_1_AWPC,1976,105.4,160,-167.5,-167.5,160,,110,M,Максим Иванов,Raw,Yes,,,,,,B,160,,,,,
1,Dmitriy Kireev,M_MR_2_AWPC,1969,109.7,140,147.5,-152.5,147.5,,110,M,Дмитрий Киреев,Raw,Yes,,,,,,B,147.5,,,,,
1,Igor Kurotchenko,M_MR_3_AWPC,1962,108.1,140,145,150,150,,110,M,Игорь Куротченко,Raw,Yes,,,,,,B,150,,,,,
2,Vadim Mikheev,M_MR_3_AWPC,1966,105.6,100,,,100,,110,M,Вадим Михеев,Raw,Yes,,,,,,B,100,,,,,
1,Anatoliy Pauyesov,M_MR_5_AWPC,1953,109.3,142.5,150,155,155,,110,M,Анатолий Пауесов,Raw,Yes,,,,,,B,155,,,,,
2,Boris Grabovoy,M_MR_5_AWPC,1956,101.7,115,120,-125,120,,110,M,Борис Грабовой,Raw,Yes,,,,,,B,120,,,,,
1,Maksim Sukhodoev,M_TR_2_AWPC,1999,121.9,150,157.5,-162.5,157.5,,125,M,Максим Суходоев,Raw,Yes,,,,,,B,157.5,,,,,
1,Vyacheslav Laschilin,M_TR_3_AWPC,1997,123.6,-180,190,-200,190,,125,M,Вячеслав Лащилин,Raw,Yes,,,,,,B,190,,,,,
1,Artur Gulyan,M_OR_AWPC,1982,119.6,247.5,-252.5,-252.5,247.5,,125,M,Артур Гулян,Raw,Yes,,,,,,B,247.5,,,,,
2,Konstantin Chernyshov,M_OR_AWPC,1992,121.8,165,170,177.5,177.5,,125,M,Константин Чернышов,Raw,Yes,,,,,,B,177.5,,,,,
1,Ruslan Murashka,M_MR_1_AWPC,1974,123.2,205,215,-220,215,,125,M,Руслан Мурашка,Raw,Yes,,,,,,B,215,,,,,
2,Sergey Litvinov,M_MR_1_AWPC,1976,120.6,170,,,170,,125,M,Сергей Литвинов,Raw,Yes,,,,,,B,170,,,,,
1,Oleksandr Stryga,M_MR_2_AWPC,1967,120.7,207.5,-217.5,-217.5,207.5,,125,M,Олександр Стрига,Raw,Yes,,,,,,B,207.5,,,,,
2,Aleksandr Sapozhnikov,M_MR_2_AWPC,1967,110.1,180,-185,-187.5,180,,125,M,Александр Сапожников,Raw,Yes,,,,,,B,180,,,,,
1,Surupasha Bambatgireev,M_MR_3_AWPC,1966,112.3,180,187.5,190,190,,125,M,Сурупаша Бамбатгіреєв,Raw,Yes,,,,,,B,190,,,,,
2,Paved Sivachenko,M_MR_3_AWPC,1966,121.1,180,-190,190,190,,125,M,Павед Сиваченко,Raw,Yes,,,,,,B,190,,,,,
1,Mikhail Nikolaev,M_MR_4_AWPC,1961,124.9,185,195,202.5,202.5,,125,M,Михаил Николаев,Raw,Yes,,,,,,B,202.5,,,,,
1,Vladimir Popov,M_MR_5_AWPC,1956,123.2,157.5,162.5,165,165,,125,M,Владимир Попов,Raw,Yes,,,,,,B,165,,,,,
1,Andrei Zavgorodnyy,M_OR_AWPC,1981,135.7,-230,230,240,240,251,140,M,Андрей Завгородный,Raw,Yes,,,,,,B,240,,,,,
2,Nikolay Markin,M_OR_AWPC,1981,132,-192.5,192.5,-197.5,192.5,,140,M,Николай Маркин,Raw,Yes,,,,,,B,192.5,,,,,
3,Aleksey Vinogradov,M_OR_AWPC,1983,125.4,182.5,190,-200,190,,140,M,Алексей Виноградов,Raw,Yes,,,,,,B,190,,,,,
4,Roman Gorbunov,M_OR_AWPC,1979,131.7,115,122.5,130,130,,140,M,Роман Горбунов,Raw,Yes,,,,,,B,130,,,,,
1,Sergey Aladyshev,M_MR_2_AWPC,1971,138.8,150,160,-170,160,,140,M,Сергей Аладышев,Raw,Yes,,,,,,B,160,,,,,
2,Nikolay Utenkov,M_MR_2_AWPC,1967,135.7,142.5,-150,-150,142.5,,140,M,Николай Утенков,Raw,Yes,,,,,,B,142.5,,,,,
1,Petr Bogomaz,M_MR_4_AWPC,1957,125.5,157.5,165,170,170,,140,M,Петр Богомаз,Raw,Yes,,,,,,B,170,,,,,
1,Maksim Sheremetyev,M_JR_AWPC,1994,154.1,210,-220,-220,210,,140+,M,Максим Шереметьев,Raw,Yes,,,,,,B,210,,,,,
1,Boris Trofimov,M_OR_AWPC,1972,147.4,210,215,,215,,140+,M,Борис Трофимов,Raw,Yes,,,,,,B,215,,,,,
2,Denis Solyanin,M_OR_AWPC,1977,181.8,-205,215,-220,215,,140+,M,Денис Солянин,Raw,Yes,,,,,,B,215,,,,,
3,Denis Zverev,M_OR_AWPC,1987,158,170,-217.5,-225,170,,140+,M,Денис Зверев,Raw,Yes,,,,,,B,170,,,,,
1,Boris Trofimov,M_MR_1_AWPC,1972,147.4,210,215,,215,,140+,M,Борис Трофимов,Raw,Yes,,,,,,B,215,,,,,
1,Igor Nasteka,M_MR_3_AWPC,1964,152.4,190,200,205,205,210,140+,M,Игорь Настека,Raw,Yes,,,,,,B,205,,,,,
1,Sergey Lazarev,M_MR_4_AWPC,1960,150.8,140,145,150,150,,140+,M,Сергей Лазарев,Raw,Yes,,,,,,B,150,,,,,
1,Yuliya Kuznetsova,F_OEM_AWPC,1973,64.4,125,-140.5,,125,,67.5,F,Юлия Кузнецова,Multi-ply,Yes,,,,,,B,125,,,,,
DQ,Irina Smolentseva,F_OEM_AWPC,1988,66,-95,-95,-100,,,67.5,F,Ирина Смоленцева,Multi-ply,Yes,,,,,,B,,,,,,
1,Yuliya Umerenkova,F_OEM_AWPC,1980,67.6,105.5,,,105.5,,75,F,Юлия Умеренкова,Multi-ply,Yes,,,,,,B,105.5,,,,,
1,Kostas Telidis,M_OEM_AWPC,1989,74.3,235,-250,-250,235,,75,M,Костас Телидис,Multi-ply,Yes,,,,,,B,235,,,,,
2,Ayurbold Gansukh,M_OEM_AWPC,1991,72.5,-170,170,172.5,172.5,,75,M,,Multi-ply,Yes,,,,,,B,172.5,,,,,
1,Vladislav Lopatin,M_OEM_AWPC,1990,79.2,190,-200,-205,190,,82.5,M,Владислав Лопатин,Multi-ply,Yes,,,,,,B,190,,,,,
2,Bat-Erdene Battulga,M_OEM_AWPC,1990,82.1,150,-170,-170,150,,82.5,M,,Multi-ply,Yes,,,,,,B,150,,,,,
1,Andrey Kristinin,M_OEM_AWPC,1987,88.7,215,-230,-230,215,,90,M,Андрей Кристинин,Multi-ply,Yes,,,,,,B,215,,,,,
2,Dmitriy Kochevatkin,M_OEM_AWPC,1976,86.2,190,200,205,205,,90,M,Дмитрий Кочеваткин,Multi-ply,Yes,,,,,,B,205,,,,,
1,Dmitriy Kochevatkin,M_MEM_1_AWPC,1976,86.2,190,200,205,205,,90,M,Дмитрий Кочеваткин,Multi-ply,Yes,,,,,,B,205,,,,,
1,Alexander Petrov,M_MEM_4_AWPC,1960,89.6,-200,200,-210,200,,90,M,Александр Петров,Multi-ply,Yes,,,,,,B,200,,,,,
1,Georgiy Paradiz,M_MEM_1_AWPC,1975,96.7,220,230,235,235,,100,M,Георгий Парадиз,Multi-ply,Yes,,,,,,B,235,,,,,
1,Ruslan Kulebyakin,M_OEM_AWPC,1991,102.3,-215,215,-225,215,,110,M,Руслан Кулебякин,Multi-ply,Yes,,,,,,B,215,,,,,
1,Altankhuyag Dulmaa,M_MEM_2_AWPC,1967,103.1,-120,120,,120,,110,M,,Multi-ply,Yes,,,,,,B,120,,,,,
1,Artem Sedov,M_OEM_AWPC,1979,123.7,260,275,-280,275,,125,M,Артем Седов,Multi-ply,Yes,,,,,,B,275,,,,,
DQ,Pavel Guzev,M_OEM_AWPC,1966,124.8,-280,-280,-280,,,125,M,Павел Гузев,Multi-ply,Yes,,,,,,B,,,,,,
DQ,Pavel Guzev,M_MEM_3_AWPC,1966,124.8,-280,-280,-280,,,125,M,Павел Гузев,Multi-ply,Yes,,,,,,B,,,,,,
1,Vladimir Popov,M_MEM_5_AWPC,1956,123.2,180,190,,190,,125,M,Владимир Попов,Multi-ply,Yes,,,,,,B,190,,,,,
1,Anastasiya Sokhina,F_TES_1_AWPC,2000,45.9,55,60,-65,60,,48,F,Анастасия Сохина,Single-ply,Yes,,,,,,B,60,,,,,
1,Tatyana Primak,F_OES_AWPC,1983,51.6,72.5,75,77.5,77.5,,52,F,Татьяна Примак,Single-ply,Yes,,,,,,B,77.5,,,,,
2,Karina Nebyvaeva,F_OES_AWPC,1984,51.8,57.5,-62.5,-62.5,57.5,,52,F,Карина Небываева,Single-ply,Yes,,,,,,B,57.5,,,,,
3,Marina Kamyshnikova,F_OES_AWPC,1979,51.7,55,-60,-60,55,,52,F,Марина Камышникова,Single-ply,Yes,,,,,,B,55,,,,,
1,Tatyana Primak,F_OES_AWPC,1983,51.6,72.5,75,77.5,77.5,,52,F,Татьяна Примак,Single-ply,Yes,,,,,,B,77.5,,,,,
1,Irina Martynenko,F_TES_3_AWPC,1997,54,-92.5,92.5,-101,92.5,,56,F,Ирина Мартыненко,Single-ply,Yes,,,,,,B,92.5,,,,,
DQ,Polina Khromchenko,F_JES_AWPC,1993,55,-85,-92.5,-92.5,,,56,F,Полина Хромченко,Single-ply,Yes,,,,,,B,,,,,,
1,Irina Martynenko,F_OES_AWPC,1997,54,-92.5,92.5,,92.5,,56,F,Ирина Мартыненко,Single-ply,Yes,,,,,,B,92.5,,,,,
1,Yuliya Kuznetsova,F_OES_AWPC,1973,64.4,125,130,-132.5,130,,67.5,F,Юлия Кузнецова,Single-ply,Yes,,,,,,B,130,,,,,
2,Irina Kosheleva,F_OES_AWPC,1991,62.3,65,70,75,75,,67.5,F,Ирина Кошелева,Single-ply,Yes,,,,,,B,75,,,,,
1,Gantsooj Baasansuren,M_OES_AWPC,1985,60,-87.5,87.5,-95,87.5,,60,M,,Single-ply,Yes,,,,,,B,87.5,,,,,
1,Aleksey Karlov,M_OES_AWPC,1992,65.5,140,145,-152.5,145,,67.5,M,Алексей Карлов,Single-ply,Yes,,,,,,B,145,,,,,
DQ,Sergey Perevalov,M_OES_AWPC,1981,66.4,-142.5,-142.5,-147.5,,,67.5,M,Сергей Перевалов,Single-ply,Yes,,,,,,B,,,,,,
DQ,Artur Abdyushev,M_JES_AWPC,1993,73.7,-185,-185,-185,,,75,M,Артур Абдюшев,Single-ply,Yes,,,,,,B,,,,,,
1,Kostas Telidis,M_OES_AWPC,1989,74.3,225,240,,240,,75,M,Костас Телидис,Single-ply,Yes,,,,,,B,240,,,,,
DQ,Aleksey Bryazgunov,M_MES_2_AWPC,1970,74.1,-170,-170,-170,,,75,M,Алексей Брязгунов,Single-ply,Yes,,,,,,B,,,,,,
1,Evgeniy Emelin,M_MES_3_AWPC,1964,73.4,145,147.5,150,150,,75,M,Евгений Емелин,Single-ply,Yes,,,,,,B,150,,,,,
1,Vladimir Tishkovskiy,M_OES_AWPC,1986,82.5,-220,220,225,225,,82.5,M,Владимир Тишковский,Single-ply,Yes,,,,,,B,225,,,,,
1,Sergey Gurov,M_MES_1_AWPC,1976,80.3,170,-180,-180,170,,82.5,M,Сергей Гуров,Single-ply,Yes,,,,,,B,170,,,,,
2,Rustem Khusainov,M_MES_1_AWPC,1974,81.5,145,-150,-160,145,,82.5,M,Рустем Хусаинов,Single-ply,Yes,,,,,,B,145,,,,,
1,Erdene Shagdarsuren Bat,M_MES_4_AWPC,1959,77.8,120,130,,130,,82.5,M,,Single-ply,Yes,,,,,,B,130,,,,,
1,Denis Grigoryev,M_OES_AWPC,1982,90,220,230,-235.5,230,,90,M,Денис Григорьев,Single-ply,Yes,,,,,,B,230,,,,,
1,Oleg Kostennikov,M_MES_3_AWPC,1966,89.2,-160,160,-180,160,,90,M,Олег Костенников,Single-ply,Yes,,,,,,B,160,,,,,
1,Nikolay Reshetov,M_MES_4_AWPC,1959,88.4,180,192.5,-202.5,192.5,,90,M,Николай Решетов,Single-ply,Yes,,,,,,B,192.5,,,,,
1,Viktor Vaytsekhovskiy,M_JES_AWPC,1994,93.8,155,170,-180,170,,100,M,Виктор Вайцеховский,Single-ply,Yes,,,,,,B,170,,,,,
1,Anatoliy Apenin,M_OES_AWPC,1989,97.8,180,190,-215,190,,100,M,Анатолий Апенин,Single-ply,Yes,,,,,,B,190,,,,,
1,Vyacheslav Frank,M_MES_3_AWPC,1962,99.1,170,177.5,-182.5,177.5,,100,M,Вячеслав Франк,Single-ply,Yes,,,,,,B,177.5,,,,,
1,Mikhail Evstigneev,M_OES_AWPC,1976,107.7,267.5,272.5,280,280,291,110,M,Михаил Евстигнеев,Single-ply,Yes,,,,,,B,280,,,,,
1,Mikhail Evstigneev,M_OES_AWPC,1976,107.7,267.5,272.5,280,280,291,110,M,Михаил Евстигнеев,Single-ply,Yes,,,,,,B,280,,,,,
DQ,Gansukh Batmagnai,M_OES_AWPC,1988,108.5,-250,-255,-255,,,110,M,,Single-ply,Yes,,,,,,B,,,,,,
DQ,Evgeniy Ryashkin,M_OES_AWPC,1984,109.8,-175,-175,-175,,,110,M,Евгений Ряшкин,Single-ply,Yes,,,,,,B,,,,,,
1,Maksim Ivanov #8,M_MES_1_AWPC,1976,106.4,180,190,197.5,197.5,,110,M,Максим Иванов,Single-ply,Yes,,,,,,B,197.5,,,,,
1,Dorj Myagmarjav,M_JES_AWPC,1995,111.1,190,-205,217.5,217.5,,125,M,,Single-ply,Yes,,,,,,B,217.5,,,,,
1,Sergey Sergeev,M_OES_AWPC,1974,116.5,210,220,-243,220,,125,M,Сергей Сергеев,Single-ply,Yes,,,,,,B,220,,,,,
2,Khameneh Omrani,M_OES_AWPC,1985,110.9,185,195,202.5,202.5,,125,M,,Single-ply,Yes,,,,,,B,202.5,,,,,
3,Vladimir Popov,M_OES_AWPC,1956,122.2,-185,185,-195,185,,125,M,Владимир Попов,Single-ply,Yes,,,,,,B,185,,,,,
1,Oleg Vnukov,M_MES_1_AWPC,1974,123,230,242.5,252.5,252.5,-260,125,M,Олег Внуков,Single-ply,Yes,,,,,,B,252.5,,,,,
2,Sergey Sergeev,M_MES_1_AWPC,1974,116.5,210,220,-243,220,,125,M,Сергей Сергеев,Single-ply,Yes,,,,,,B,220,,,,,
1,Vladimir Popov,M_MES_5_AWPC,1956,122.2,-185,185,-195,185,,125,M,Владимир Попов,Single-ply,Yes,,,,,,B,185,,,,,
1,Evgeniy Sibilev,M_OES_AWPC,1970,127.1,210,222.5,230,230,,140,M,Евгений Сибилев,Single-ply,Yes,,,,,,B,230,,,,,
1,Evgeniy Sibilev,M_MES_2_AWPC,1970,127.1,210,222.5,230,230,,140,M,Евгений Сибилев,Single-ply,Yes,,,,,,B,230,,,,,
1,Darya Polyakova,F_OR_AWPC,1988,43.3,,,,,,44,F,Дарья Полякова,Raw,Yes,105,-115,-115,105,,D,105,,,,,
1,Nadezhda Aprelova,F_OR_AWPC,1963,47.6,,,,,,48,F,Надежда Апрелова,Raw,Yes,100,-110,-112.5,100,,D,100,,,,,
1,Nadezhda Aprelova,F_MR_3_AWPC,1963,47.6,,,,,,48,F,Надежда Апрелова,Raw,Yes,100,-110,-112.5,100,,D,100,,,,,
1,Violetta Filimonova,F_OR_AWPC,1991,50.3,,,,,,52,F,Виолетта Филимонова,Raw,Yes,125,-132.5,-132.5,125,,D,125,,,,,
2,Lidiya Mitrofanova,F_OR_AWPC,1983,51.2,,,,,,52,F,Лидия Митрофанова,Raw,Yes,-120,120,-127.5,120,,D,120,,,,,
3,Natalya Krikunova,F_OR_AWPC,1986,50,,,,,,52,F,Наталья Крикунова,Raw,Yes,-100,100,-115,100,,D,100,,,,,
1,Darya Alnykina,F_JR_AWPC,1995,55.7,,,,,,56,F,Дарья Алныкина,Raw,Yes,120,-127.5,-127.5,120,,D,120,,,,,
1,Ekaterina Zhigulina,F_OR_AWPC,1987,55.9,,,,,,56,F,Екатерина Жигулина,Raw,Yes,110,117.5,-122.5,117.5,,D,117.5,,,,,
2,Olga Dunaytseva,F_OR_AWPC,1986,54.9,,,,,,56,F,Ольга Дунайцева,Raw,Yes,-115,115,-122.5,115,,D,115,,,,,
1,Valentina Gosteva,F_MR_5_AWPC,1955,56,,,,,,56,F,Валентина Гостева,Raw,Yes,107.5,115,120,120,-122.5,D,120,,,,,
1,Ekaterina Bychkova,F_TR_2_AWPC,1999,58.7,,,,,,60,F,Екатерина Бычкова,Raw,Yes,-117.5,117.5,,117.5,,D,117.5,,,,,
1,Anna Zubkova,F_TR_3_AWPC,1996,58.1,,,,,,60,F,Анна Зубкова,Raw,Yes,95,-102.5,107.5,107.5,,D,107.5,,,,,
1,Svetlana Okhapkina,F_OR_AWPC,1977,59.8,,,,,,60,F,Светлана Охапкина,Raw,Yes,160,170,-177.5,170,,D,170,,,,,
2,Yuliya Savchenko,F_OR_AWPC,1983,57.4,,,,,,60,F,Юлия Савченко,Raw,Yes,135,142.5,150,150,,D,150,,,,,
3,Elena Yakovleva,F_OR_AWPC,1983,58.7,,,,,,60,F,Елена Яковлева,Raw,Yes,100,110,115,115,,D,115,,,,,
4,Anastasiya Karyakina,F_OR_AWPC,1991,59.1,,,,,,60,F,Анастасия Карякина,Raw,Yes,85,90,-97.5,90,,D,90,,,,,
1,Veronika Nezhentseva,F_TR_1_AWPC,2001,64,,,,,,67.5,F,Вероника Неженцева,Raw,Yes,80,87.5,-90,87.5,,D,87.5,,,,,
1,Yuliya Nefedova,F_OR_AWPC,1985,66.1,,,,,,67.5,F,Юлия Нефедова,Raw,Yes,120,135,137.5,137.5,,D,137.5,,,,,
2,Elena Laur,F_OR_AWPC,1983,66.4,,,,,,67.5,F,Елена Лаур,Raw,Yes,115,125,-130,125,,D,125,,,,,
3,Oksana Snetkova,F_OR_AWPC,1979,67.5,,,,,,67.5,F,Оксана Снеткова,Raw,Yes,125,-130,-130,125,,D,125,,,,,
DQ,Olga Sotskova,F_OR_AWPC,1990,62.4,,,,,,67.5,F,Ольга Соцкова,Raw,Yes,-70,,,,,D,,,,,,
1,Yuliya Makarova,F_MR_2_AWPC,1969,65.4,,,,,,67.5,F,Юлия Макарова,Raw,Yes,135,-142.5,-142.5,135,,D,135,,,,,
DQ,Olga Kurbatova,F_OR_AWPC,1982,75,,,,,,75,F,Ольга Курбатова,Raw,Yes,-135,-135,-135,,,D,,,,,,
1,Dinislam Gataev,M_TR_3_AWPC,1996,59.4,,,,,,60,M,Динислам Гатаев,Raw,Yes,-200,-200,200,200,,D,200,,,,,
2,Nikita Makridenko,M_TR_3_AWPC,1997,58.3,,,,,,60,M,Никита Макриденко,Raw,Yes,170,180,-200,180,,D,180,,,,,
1,Samvel Gabrielyan,M_OR_AWPC,1989,59.7,,,,,,60,M,Самвел Габриэлян,Raw,Yes,155,165,-175,165,,D,165,,,,,
1,Ruslan Rakhmanov,M_JR_AWPC,1995,67.2,,,,,,67.5,M,Руслан Рахманов,Raw,Yes,200,220,230,230,-240.5,D,230,,,,,
1,Anton Zlobin,M_OR_AWPC,1987,67.4,,,,,,67.5,M,Антон Злобін,Raw,Yes,220,-232.5,232.5,232.5,,D,232.5,,,,,
2,Maksim Popov #1,M_OR_AWPC,1984,65.9,,,,,,67.5,M,Максим Попов,Raw,Yes,220,-230,-230,220,,D,220,,,,,
1,Yuriy Zubov,M_MR_8_AWPC,1939,67.2,,,,,,67.5,M,Юрий Зубов,Raw,Yes,155,160,-165,160,,D,160,,,,,
1,Aleksandr Dambinov,M_MR_9_AWPC,1936,65,,,,,,67.5,M,Александр Дамбинов,Raw,Yes,160,-162.5,,160,,D,160,,,,,
1,Ivan Kuznetsov,M_TR_1_AWPC,2000,74.3,,,,,,75,M,Иван Кузнецов,Raw,Yes,160,170,-177.5,170,,D,170,,,,,
1,Aleksandr Levchenko,M_TR_3_AWPC,1997,73.1,,,,,,75,M,Александр Левченко,Raw,Yes,205,-220,220,220,,D,220,,,,,
2,Valeriy Anisimkov,M_TR_3_AWPC,1998,71.9,,,,,,75,M,Валерий Анисимков,Raw,Yes,195,202.5,210,210,,D,210,,,,,
3,Beslan Zakaunov,M_TR_3_AWPC,1997,74.8,,,,,,75,M,Беслан Закаунов,Raw,Yes,195,-207.5,207.5,207.5,,D,207.5,,,,,
1,Aleksey Demin,M_JR_AWPC,1994,68.8,,,,,,75,M,Алексей Демин,Raw,Yes,-240,240,-245,240,,D,240,,,,,
2,Alim Bizhoev,M_JR_AWPC,1996,74.9,,,,,,75,M,Алим Бижоев,Raw,Yes,215,225,232.5,232.5,,D,232.5,,,,,
3,Vadim Guatizhev,M_JR_AWPC,1996,73,,,,,,75,M,Вадим Гуатижев,Raw,Yes,215,-242.5,-242.5,215,,D,215,,,,,
1,Battogtokh Dorjpalam,M_OR_AWPC,1987,72.1,,,,,,75,M,,Raw,Yes,225,235,-240,235,,D,235,,,,,
2,Aleksandr Stepanischev,M_OR_AWPC,1990,71.7,,,,,,75,M,Александр Степанищев,Raw,Yes,200,220,-232.5,220,,D,220,,,,,
1,Sergey Nikitin,M_MR_3_AWPC,1964,68,,,,,,75,M,Сергей Никитин,Raw,Yes,215,-225,-232.5,215,,D,215,,,,,
1,Boriss Laisin,M_MR_6_AWPC,1950,68,,,,,,75,M,,Raw,Yes,145,155,-165,155,,D,155,,,,,
1,Boris Dolmatov,M_MR_7_AWPC,1945,70.6,,,,,,75,M,Борис Долматов,Raw,Yes,150,-160,160,160,,D,160,,,,,
1,Vadim Loyko,M_JR_AWPC,1994,78.8,,,,,,82.5,M,,Raw,Yes,265.5,-275,-275,265.5,,D,265.5,,,,,
2,Mikhail Kiselev,M_JR_AWPC,1992,81.5,,,,,,82.5,M,Михаил Киселев,Raw,Yes,230,-250,-250,230,,D,230,,,,,
3,Otgonbaatar Batbold,M_JR_AWPC,1996,82.2,,,,,,82.5,M,,Raw,Yes,205,217.5,230,230,,D,230,,,,,
4,Imran Tubaev,M_JR_AWPC,1994,82.4,,,,,,82.5,M,Имран Тубаев,Raw,Yes,230,-240,-240,230,,D,230,,,,,
5,Murat Tligurov,M_JR_AWPC,1993,80.6,,,,,,82.5,M,Мурат Тлигуров,Raw,Yes,215,-230,-230,215,,D,215,,,,,
1,Vladyslav Kuzmischev,M_OR_AWPC,1983,81.4,,,,,,82.5,M,Владислав Кузьміщев,Raw,Yes,260,275,-290.5,275,,D,275,,,,,
2,Vasiliy Perov,M_OR_AWPC,1979,82.5,,,,,,82.5,M,Василий Перов,Raw,Yes,250,262.5,-277.5,262.5,,D,262.5,,,,,
3,Oleg Avdeev #1,M_OR_AWPC,1979,82.2,,,,,,82.5,M,Олег Авдеев,Raw,Yes,-205,205,-215,205,,D,205,,,,,
4,Dmitriy Dikarev,M_OR_AWPC,1990,80.6,,,,,,82.5,M,Дмитрий Дикарев,Raw,Yes,-200,-200,200,200,,D,200,,,,,
1,Rustam Rabadanov,M_MR_2_AWPC,1970,82.5,,,,,,82.5,M,Рустам Рабаданов,Raw,Yes,160,170,-185,170,,D,170,,,,,
2,Aleksandr Oparinov,M_OR_AWPC,1980,77.2,,,,,,82.5,M,Александр Опаринов,Raw,Yes,75,90,100,100,,D,100,,,,,
1,Valeriy Khomenko,M_MR_5_AWPC,1951,76.6,,,,,,82.5,M,Валерий Хоменко,Raw,Yes,-180,190,-200,190,,D,190,,,,,
1,Nikita Tikhinya,M_TR_3_AWPC,1997,83,,,,,,90,M,Никита Тихиня,Raw,Yes,185,200,-205,200,,D,200,,,,,
1,Sergey Bronzov,M_JR_AWPC,1996,88.6,,,,,,90,M,Сергей Бронзов,Raw,Yes,255,-265,-265,255,,D,255,,,,,
2,Roman Belousov,M_JR_AWPC,1996,83.9,,,,,,90,M,Роман Белоусов,Raw,Yes,205,-215,-222.5,205,,D,205,,,,,
1,Aleksandr Chaschin,M_OR_AWPC,1987,85.7,,,,,,90,M,Александр Чащин,Raw,Yes,240,257.5,-265,257.5,,D,257.5,,,,,
1,Danil Kvaratskheliya,M_MR_1_AWPC,1972,89.7,,,,,,90,M,Данил Кварацхелия,Raw,Yes,205,222.5,-227.5,222.5,,D,222.5,,,,,
1,Sergey Runov,M_MR_2_AWPC,1971,87.8,,,,,,90,M,Сергей Рунов,Raw,Yes,200,220,-232.5,220,,D,220,,,,,
1,Vadim Zaytsev,M_MR_4_AWPC,1960,85.5,,,,,,90,M,Вадим Зайцев,Raw,Yes,210,220,-230,220,,D,220,,,,,
2,Sergey Gnatyuk,M_MR_4_AWPC,1960,88.1,,,,,,90,M,Сергей Гнатюк,Raw,Yes,180,190,195,195,,D,195,,,,,
3,Vladimir Kalinin,M_MR_4_AWPC,1960,89.6,,,,,,90,M,Владимир Калинин,Raw,Yes,165,180,-190,180,,D,180,,,,,
1,Nikolay Belokurov,M_MR_5_AWPC,1955,87.6,,,,,,90,M,Николай Белокуров,Raw,Yes,150,157.5,170,170,,D,170,,,,,
1,Dmitriy Gadzhiev,M_TR_3_AWPC,1997,93.6,,,,,,100,M,Дмитрий Гаджиев,Raw,Yes,260,-275,275,275,-285,D,275,,,,,
1,Pavel Koltsov,M_JR_AWPC,1993,100,,,,,,100,M,Павел Кольцов,Raw,Yes,230,240,,240,,D,240,,,,,
1,Andrey Tikhonov,M_OR_AWPC,1980,100,,,,,,100,M,Андрей Тихонов,Raw,Yes,275,290,-302.5,290,,D,290,,,,,
2,Gantemer Olzvoy,M_OR_AWPC,1981,96.4,,,,,,100,M,,Raw,Yes,250,257.5,267.5,267.5,,D,267.5,,,,,
3,Vachagan Bagdagyulyan,M_OR_AWPC,1988,96.1,,,,,,100,M,,Raw,Yes,250,260,-267.5,260,,D,260,,,,,
4,Maksim Repin,M_OR_AWPC,1986,100,,,,,,100,M,Максим Репин,Raw,Yes,205,212.5,-217.5,212.5,,D,212.5,,,,,
1,Evgeniy Prosolov,M_MR_2_AWPC,1968,99.6,,,,,,100,M,Евгений Просолов,Raw,Yes,230,-235,-235,230,,D,230,,,,,
1,Aleksandr Pakhuchiy,M_OR_AWPC,1978,110,,,,,,110,M,Александр Пахучий,Raw,Yes,275,-285,-285,275,,D,275,,,,,
2,Sergey Lischuk,M_OR_AWPC,1967,106,,,,,,110,M,Сергей Лищук,Raw,Yes,240,260,-276,260,,D,260,,,,,
1,Sergey Lischuk,M_MR_2_AWPC,1967,106,,,,,,110,M,Сергей Лищук,Raw,Yes,240,260,-276,260,,D,260,,,,,
1,Andrey Burakov,M_MR_4_AWPC,1958,104.6,,,,,,110,M,Андрей Бураков,Raw,Yes,200,210,-220,210,,D,210,,,,,
1,Mikhail Efremov,M_JR_AWPC,1994,111,,,,,,125,M,Михаил Ефремов,Raw,Yes,230,250,-260,250,,D,250,,,,,
2,Konstantin Chernyshov,M_JR_AWPC,1992,123.4,,,,,,125,M,Константин Чернышов,Raw,Yes,235,242.5,-247.5,242.5,,D,242.5,,,,,
1,Sergey Litvinov,M_OR_AWPC,1976,121,,,,,,125,M,Сергей Литвинов,Raw,Yes,210,220,,220,,D,220,,,,,
1,Sergey Litvinov,M_MR_1_AWPC,1976,121,,,,,,125,M,Сергей Литвинов,Raw,Yes,210,220,,220,,D,220,,,,,
1,Anatoliy Evgrafov,M_MR_4_AWPC,1960,114.9,,,,,,125,M,Анатолий Евграфов,Raw,Yes,245,255,-260,255,,D,255,,,,,
1,Sergey Feklisov,M_OR_AWPC,1982,152,,,,,,140+,M,Сергей Феклисов,Raw,Yes,275,285,-295,285,,D,285,,,,,
1,Aleksandr Bogachev,M_MR_1_AWPC,1972,141.9,,,,,,140+,M,Александр Богачев,Raw,Yes,260,-270,-270,260,,D,260,,,,,
1,Natalya Borodina,F_JEM_AWPC,1996,44,,,,,,44,F,Наталья Бородина,Multi-ply,Yes,102.5,-115,-115,102.5,,D,102.5,,,,,
1,Elena Enina,F_OEM_AWPC,1989,48,,,,,,48,F,Елена Енина,Multi-ply,Yes,130,140.5,-145,140.5,,D,140.5,,,,,
1,Ayurbold Gansukh,M_OEM_AWPC,1991,71.6,,,,,,75,M,,Multi-ply,Yes,215,-225,225,225,,D,225,,,,,
1,Otgonbaatar Batbold,M_JEM_AWPC,1996,82.2,,,,,,82.5,M,,Multi-ply,Yes,220,240,-250,240,,D,240,,,,,
1,Saruul-Erdene Jigmedserchin,M_JEM_AWPC,1992,86.4,,,,,,90,M,,Multi-ply,Yes,235,252.5,-265,252.5,,D,252.5,,,,,
1,Vladimir Kalinin,M_MEM_4_AWPC,1960,89.6,,,,,,90,M,Владимир Калинин,Multi-ply,Yes,180,195,-207.5,195,,D,195,,,,,
1,Igor Umerenkov,M_OEM_AWPC,1980,95.2,,,,,,100,M,Игорь Умеренков,Multi-ply,Yes,300,,,300,,D,300,,,,,
1,Anastasiya Kosintseva,F_JES_AWPC,1995,43.2,,,,,,44,F,Анастасия Косинцева,Single-ply,Yes,110,120,-125,120,,D,120,,,,,
1,Karina Nebyvaeva,F_OES_AWPC,1984,52,,,,,,52,F,Карина Небываева,Single-ply,Yes,152.5,157.5,162.5,162.5,,D,162.5,,,,,
1,Marina Kamyshnikova,F_OES_AWPC,1979,52.3,,,,,,56,F,Марина Камышникова,Single-ply,Yes,125,135,-140,135,,D,135,,,,,
1,Irina Kosheleva,F_OES_AWPC,1991,64.7,,,,,,67.5,F,Ирина Кошелева,Single-ply,Yes,125,135,145,145,,D,145,,,,,
1,Daniil Peredriy,M_TES_2_AWPC,1999,59.4,,,,,,60,M,Даниил Передрий,Single-ply,Yes,160,170,180,180,-185,D,180,,,,,
1,Sukhbat Bayarsaikhan,M_TES_3_AWPC,1998,67.5,,,,,,67.5,M,,Single-ply,Yes,180,192.5,-200,192.5,,D,192.5,,,,,
DQ,Aleksandr Belozerov,M_TES_3_AWPC,1997,67.3,,,,,,67.5,M,Александр Белозеров,Single-ply,Yes,-190,-190,-190,,,D,,,,,,
1,Roman Durnov,M_OES_AWPC,1986,75,,,,,,75,M,Роман Дурнов,Single-ply,Yes,210,-235,-235,210,,D,210,,,,,
1,Boris Dolmatov,M_MES_7_AWPC,1945,70.6,,,,,,75,M,Борис Долматов,Single-ply,Yes,150,162.5,165,165,,D,165,,,,,
1,Aleksandr Berdnikov,M_TES_1_AWPC,2000,79.8,,,,,,82.5,M,Александр Бердников,Single-ply,Yes,215,230,,230,,D,230,,,,,
1,Vladimir Dorodnykh,M_MES_5_AWPC,1954,81.4,,,,,,82.5,M,Владимир Дородных,Single-ply,Yes,180,202.5,-207.5,202.5,,D,202.5,,,,,
1,Munkhbaatar Baasandorj,M_OES_AWPC,1980,88.8,,,,,,90,M,,Single-ply,Yes,240,,,240,,D,240,,,,,
1,Gantemer Olzvoy,M_OES_AWPC,1981,96.4,,,,,,100,M,,Single-ply,Yes,260,-280,,260,,D,260,,,,,
1,Aleksey Kartel,M_OES_AWPC,1988,101.3,,,,,,110,M,Алексей Картель,Single-ply,Yes,300,315,-330,315,,D,315,,,,,
2,Khameneh Omrani,M_OES_AWPC,1985,110,,,,,,110,M,,Single-ply,Yes,270,277.5,-282.5,277.5,,D,277.5,,,,,
3,Sergey Lischuk,M_OES_AWPC,1967,106,,,,,,110,M,Сергей Лищук,Single-ply,Yes,240,260,270,270,,D,270,,,,,
1,Maksim Ivanov #8,M_MES_1_AWPC,1976,106.4,,,,,,110,M,Максим Иванов,Single-ply,Yes,212.5,-230,-230,212.5,,D,212.5,,,,,
1,Sergey Lischuk,M_MES_2_AWPC,1967,106,,,,,,110,M,Сергей Лищук,Single-ply,Yes,240,260,270,270,,D,270,,,,,
1,Dorj Myagmarjav,M_JES_AWPC,1995,113,,,,,,125,M,,Single-ply,Yes,230,-247.5,-250,230,,D,230,,,,,
1,Khatbaatar Buyandalay,M_OES_AWPC,1990,116.1,,,,,,125,M,,Single-ply,Yes,257.5,272.5,285,285,,D,285,,,,,
1,Kristina Dobrya,F_OCR_AWPC,1989,55.4,47.5,-52.5,-52.5,47.5,,56,F,Кристина Добря,Wraps,Yes,125,135,-140,135,,SBD,285,95,102.5,-107.5,102.5,
1,Anna Zubkova,F_TCR_3_AWPC,1996,58.1,40,47.5,50,50,-52.5,60,F,Анна Зубкова,Wraps,Yes,100,105,-110,105,,SBD,235,80,-90,-95,80,
1,Lyudmila Ryamaeva,F_OCR_AWPC,1980,59.8,60,-65,-65,60,,60,F,Людмила Рямаева,Wraps,Yes,-135,135,140,140,,SBD,295,-95,-95,95,95,
1,Elena Laur,F_OCR_AWPC,1983,65.7,55,60,-65,60,,67.5,F,Елена Лаур,Wraps,Yes,110,120,-125,120,,SBD,280,95,-100,100,100,
2,Elena Asatryan,F_OCR_AWPC,1992,66.7,45,-47.5,47.5,47.5,,67.5,F,Елена Асатрян,Wraps,Yes,80,-85,-85,80,,SBD,217.5,-90,-90,90,90,
1,Ekaterina Maslova,F_MCR_2_AWPC,1970,76,-55,60,-65,60,,82.5,F,Екатерина Маслова,Wraps,Yes,105,115,120,120,,SBD,280,95,100,-105,100,
1,Gantsooj Baasansuren,M_OCR_AWPC,1985,59.8,70,-80,-80,70,,60,M,,Wraps,Yes,150,,,150,,SBD,365,135,145,,145,
1,Vladislav Pereverzev,M_TCR_1_AWPC,2000,66,72.5,-75,,72.5,,67.5,M,Владислав Переверзев,Wraps,Yes,110,-120,-120,110,,SBD,282.5,85,90,100,100,105
1,Sukhbat Bayarsaikhan,M_TCR_3_AWPC,1998,66,75,85,,85,,67.5,M,,Wraps,Yes,-180,-180,180,180,,SBD,420,100,130,155,155,
1,Petro Tyshchenko,M_OCR_AWPC,1984,67.3,155,162.5,-167.5,162.5,,67.5,M,Петро Тищенко,Wraps,Yes,220,232.5,242.5,242.5,,SBD,590,170,180,185,185,
2,Aleksandr Rek,M_OCR_AWPC,1987,66.5,112.5,-120,120,120,,67.5,M,Александр Рек,Wraps,Yes,185,195,200,200,,SBD,540,205,215,220,220,
1,Kostas Telidis,M_OCR_AWPC,1989,75,150,-157.5,157.5,157.5,,75,M,Костас Телидис,Wraps,Yes,220,237.5,-247.5,237.5,,SBD,635,-235,240,-250,240,
2,Batsukh Damdinsuren,M_OCR_AWPC,1984,74.8,120,-135,-135,120,,75,M,,Wraps,Yes,200,,,200,,SBD,565,200,-220,245,245,
1,Yakov Shalabaev,M_JCR_AWPC,1996,80.9,110,120,-130,120,,82.5,M,Яков Шалабаев,Wraps,Yes,110,140,-180,140,,SBD,400,-140,-140,140,140,
1,Aleksandr Perevalov,M_OCR_AWPC,1984,81.3,170,180,-185,180,,82.5,M,Александр Перевалов,Wraps,Yes,-230,230,240,240,260,SBD,610,190,-205,-210,190,
2,Viktor Lazarev,M_OCR_AWPC,1980,81,140,145,150,150,,82.5,M,Виктор Лазарев,Wraps,Yes,210,225,-230,225,,SBD,585,210,-235,-240,210,
3,Sergey Dolgushin,M_OCR_AWPC,1992,80,135,140,-145,140,,82.5,M,Сергей Долгушин,Wraps,Yes,190,205,-210,205,,SBD,525,-180,180,-200,180,
1,Mikhail Zhuravlev,M_MCR_7_AWPC,1943,80.7,105,110,-115,110,,82.5,M,Михаил Журавлев,Wraps,Yes,185,195,200,200,,SBD,485,165,175,-180,175,
DQ,Egor Dikin,M_TCR_2_AWPC,2000,89.9,,,,,,90,M,Егор Дикин,Wraps,Yes,,,,,,SBD,,-160,-170,-170,,
1,Aleksey Yudin,M_OCR_AWPC,1987,87.9,110,-112.5,-112.5,110,,90,M,Алексей Юдин,Wraps,Yes,185,195,-200,195,,SBD,492.5,-187.5,187.5,-190,187.5,
2,Maksim Kordon,M_OCR_AWPC,1983,84.5,90,-95,-95,90,,90,M,Максим Кордон,Wraps,Yes,170,180,-190,180,,SBD,455,-170,-170,185,185,
1,Igor Umerenkov,M_OCR_AWPC,1980,95.1,160,165,167.5,167.5,,100,M,Игорь Умеренков,Wraps,Yes,260,-282.5,-282.5,260,,SBD,677.5,240,250,-260.5,250,
2,Ilya Apanasenko,M_OCR_AWPC,1990,99,160,167.5,-170.5,167.5,,100,M,Илья Апанасенко,Wraps,Yes,-232.5,232.5,-250,232.5,,SBD,635,-235,235,-242.5,235,
1,Evgeniy Svoboda,M_MCR_1_AWPC,1972,93.2,125,135,,135,,100,M,Евгений Свобода,Wraps,Yes,180,205,,205,,SBD,515,175,-200,-200,175,
1,Gansukh Batmagnai,M_OCR_AWPC,1988,109.7,180,190,-192.5,190,,110,M,,Wraps,Yes,250,-260,-260,250,,SBD,725,270,285,-300,285,
2,Dmitriy Nenartovich,M_OCR_AWPC,1987,109.3,-175,175,-185,175,,110,M,Дмитрий Ненартович,Wraps,Yes,240,250,-260,250,,SBD,675,220,235,250,250,
DQ,Sergey Ilyukhin,M_OCR_AWPC,1978,105.6,,,,,,110,M,Сергей Илюхин,Wraps,Yes,,,,,,SBD,,-210,-215,-215,,
1,Ivan Rak,M_MCR_1_AWPC,1974,107.3,140,152.5,162.5,162.5,,110,M,Иван Рак,Wraps,Yes,225,235,247.5,247.5,,SBD,642.5,220,232.5,-242.5,232.5,
1,Altankhuyag Dulmaa,M_MCR_2_AWPC,1967,103.9,110,117.5,-122.5,117.5,,110,M,,Wraps,Yes,100,,,100,,SBD,342.5,-125,125,,125,
1,Dorj Myagmarjav,M_JCR_AWPC,1995,111.2,140,150,-160,150,,125,M,,Wraps,Yes,200,-227.5,,200,,SBD,610,230,-250,260,260,
1,Sergey Litvinov,M_OCR_AWPC,1976,120.6,172.5,-175,175,175,,125,M,Сергей Литвинов,Wraps,Yes,215,,,215,,SBD,605,215,-220,,215,
1,Sergey Litvinov,M_MCR_1_AWPC,1976,120.6,172.5,-175,175,175,,125,M,Сергей Литвинов,Wraps,Yes,215,,,215,,SBD,605,215,-220,,215,
1,Asya Kruzina,F_OR_AWPC,1986,43.2,40,42.5,45,45,,44,F,Ася Крузина,Raw,Yes,-85,85,-90,85,,SBD,205,65,70,75,75,
1,Yuliya Kovaleva,F_OR_AWPC,1983,55,45,-47.5,47.5,47.5,,56,F,Юлия Ковалева,Raw,Yes,110,-122.5,-122.5,110,,SBD,247.5,75,85,90,90,
DQ,Anna Zubkova,F_TR_3_AWPC,1996,58.1,,,,,,60,F,Анна Зубкова,Raw,Yes,,,,,,SBD,,-90,-90,-90,,
1,Svetlana Okhapkina,F_OR_AWPC,1977,59.9,72.5,75,-77.5,75,,60,F,Светлана Охапкина,Raw,Yes,170,-175,175,175,,SBD,372.5,122.5,-125,-125,122.5,
1,Olga Rizaeva,F_OR_AWPC,1975,66.6,70,72.5,-75,72.5,,67.5,F,Ольга Ризаева,Raw,Yes,140,150,-155,150,,SBD,332.5,-110,110,-120,110,
2,Yuliya Nefedova,F_OR_AWPC,1985,66.6,60,70,-72.5,70,,67.5,F,Юлия Нефедова,Raw,Yes,120,130,-140,130,,SBD,300,80,-90,100,100,
1,Olga Rizaeva,F_MR_1_AWPC,1975,66.6,70,72.5,-75,72.5,,67.5,F,Ольга Ризаева,Raw,Yes,140,150,-155,150,,SBD,332.5,-110,110,-120,110,
1,Marina Vishnevskaya,F_OR_AWPC,1985,69.3,-75,-75,75,75,,75,F,Марина Вишневская,Raw,Yes,160,-170,-170,160,,SBD,375,120,130,140,140,
2,Tatyana Obraztsova,F_OR_AWPC,1978,69.6,70,75,-77.5,75,,75,F,Татьяна Образцова,Raw,Yes,120,130,137.5,137.5,,SBD,322.5,100,110,-115,110,
1,Evgeniya Ulshina,F_MR_2_AWPC,1969,78.5,55,62.5,65,65,,82.5,F,Евгения Ульшина,Raw,Yes,90,112.5,115,115,,SBD,265,75,85,-90,85,
1,Nikolay Grachev,M_MR_5_AWPC,1956,51.5,67.5,70,72.5,72.5,73,52,M,Николай Грачёв,Raw,Yes,110,117.5,120,120,122.5,SBD,282.5,80,85,90,90,92.5
1,Sergey Gonchar,M_TR_3_AWPC,1997,54.8,90,97.5,100,100,103,56,M,,Raw,Yes,150,160,-170,160,,SBD,390,110,120,130,130,
1,Batyrkhan Yermagambetov,M_TR_2_AWPC,1999,58.9,60,70,,70,,60,M,,Raw,Yes,150,162.5,,162.5,,SBD,332.5,90,100,-105,100,
1,Nikolay Petrakov,M_TR_2_AWPC,1999,62.8,85,90,100,100,,67.5,M,Николай Петраков,Raw,Yes,190,200,205,205,210,SBD,460,145,155,-165,155,
1,Aleksandr Semerenco,M_JR_AWPC,1996,65.8,130,-138,138,138,,67.5,M,,Raw,Yes,180,190,205,205,,SBD,528,170,180.5,185,185,
1,Yuriy Nikitchenko,M_OR_AWPC,1977,67.5,122.5,127.5,130,130,,67.5,M,Юрий Никитченко,Raw,Yes,205,-215,215,215,,SBD,562.5,200,210,217.5,217.5,
DQ,Petro Tyshchenko,M_OR_AWPC,1984,66.4,,,,,,67.5,M,Петро Тищенко,Raw,Yes,,,,,,SBD,,-180,-190,-190,,
1,Dmytro Boronnikov,M_TR_1_AWPC,2002,67.9,50,52.5,55,55,,75,M,Дмитро Боронніков,Raw,Yes,90,97.5,105,105,,SBD,260,90,95,100,100,
1,Alim Bizhoev,M_TR_3_AWPC,1996,73.1,-90,95,102.5,102.5,,75,M,Алим Бижоев,Raw,Yes,215,225,232.5,232.5,,SBD,510,160,-175,175,175,
2,Valeriy Anisimkov,M_TR_3_AWPC,1998,70.1,110,112.5,-115,112.5,,75,M,Валерий Анисимков,Raw,Yes,195,202.5,207.5,207.5,,SBD,490,165,170,-180,170,
3,Beslan Zakaunov,M_TR_3_AWPC,1997,74.6,85,90,-95,90,,75,M,Беслан Закаунов,Raw,Yes,190,202.5,-205,202.5,,SBD,435,130,142.5,-150,142.5,
4,Nikita Kurasov,M_TR_3_AWPC,1997,71.5,90,95,-102.5,95,,75,M,Никита Курасов,Raw,Yes,155,170,-197.5,170,,SBD,407.5,-130,130,142.5,142.5,
1,Aleksey Polezhaev,M_JR_AWPC,1994,72.4,125,130,-135,130,,75,M,Алексей Полежаев,Raw,Yes,170,180,-190,180,,SBD,480,160,-170,170,170,
2,Vadim Guatizhev,M_JR_AWPC,1996,72,85,95,97.5,97.5,,75,M,Вадим Гуатижев,Raw,Yes,110,140,,140,,SBD,382.5,130,-145,145,145,
1,Kostas Telidis,M_OR_AWPC,1989,75,150,157.5,,157.5,,75,M,Костас Телидис,Raw,Yes,225,-240,240,240,,SBD,620,210,222.5,,222.5,
2,Sergey Ayvazov,M_OR_AWPC,1977,73.3,125,-135,-135,125,,75,M,Сергей Айвазов,Raw,Yes,215,225,-235,225,,SBD,545,180,195,-210,195,
3,Aleksey Sotnikov,M_OR_AWPC,1985,69.5,110,120,125,125,,75,M,Алексей Сотников,Raw,Yes,180,205,215,215,,SBD,510,170,-180,,170,
4,Denis Zaikin,M_OR_AWPC,1986,73.6,-100,100,-105,100,,75,M,Денис Заикин,Raw,Yes,-175,-175,175,175,,SBD,390,115,-120,-120,115,
1,Vadim Loyko,M_JR_AWPC,1994,79.1,125,135,142.5,142.5,,82.5,M,,Raw,Yes,235,255,270,270,,SBD,632.5,200,220,-237.5,220,
2,Otgonbaatar Batbold,M_JR_AWPC,1996,82.3,95,105,110,110,,82.5,M,,Raw,Yes,205,215,-230,215,,SBD,510,170,185,-202.5,185,
DQ,Murat Tligurov,M_JR_AWPC,1993,79.3,100,105,112.5,112.5,,82.5,M,Мурат Тлигуров,Raw,Yes,,,,,,SBD,,-150,162.5,167.5,167.5,
DQ,Imran Tubaev,M_JR_AWPC,1994,81.7,107.5,115,-120,115,,82.5,M,Имран Тубаев,Raw,Yes,,,,,,SBD,,155,-172.5,-172.5,155,
1,Vasiliy Perov,M_OR_AWPC,1979,82,155,162.5,167.5,167.5,,82.5,M,Василий Перов,Raw,Yes,250,260,-270,260,,SBD,657.5,210,225,230,230,
2,Aleksandr Perevalov,M_OR_AWPC,1984,80.7,-180,180,-190.5,180,,82.5,M,Александр Перевалов,Raw,Yes,240,-260,-262.5,240,,SBD,630,190,200,210,210,
3,Oleg Ershov,M_OR_AWPC,1991,80.4,140,145,-150,145,,82.5,M,Олег Ершов,Raw,Yes,210,225,-240,225,,SBD,592.5,200,212.5,222.5,222.5,
4,Dmitriy Saprykin,M_OR_AWPC,1989,81.9,-147.5,152.5,-155,152.5,,82.5,M,Дмитрий Сапрыкин,Raw,Yes,-225,235,242.5,242.5,,SBD,585,180,190,-205,190,
5,Aleksey Vorotnikov,M_OR_AWPC,1980,82.4,130,-132.5,132.5,132.5,,82.5,M,Алексей Воротников,Raw,Yes,225,-235,-235,225,,SBD,557.5,190,-197.5,200,200,
6,Paul Coats,M_OR_AWPC,1967,81.5,122.5,127.5,-130,127.5,,82.5,M,,Raw,Yes,235,-240,-240,235,,SBD,555,187.5,-192.5,192.5,192.5,
7,Konstantin Ershov,M_OR_AWPC,1989,82.2,100,-107.5,107.5,107.5,,82.5,M,Константин Ершов,Raw,Yes,185,200,207.5,207.5,,SBD,460,130,-145,145,145,
8,Viktor Chkhikvadze,M_OR_AWPC,1987,81.4,-92.5,92.5,-95,92.5,,82.5,M,Виктор Чхиквадзе,Raw,Yes,160,170,180,180,,SBD,402.5,130,-145,-145,130,
1,Paul Coats,M_MR_2_AWPC,1967,81.5,122.5,127.5,-130,127.5,,82.5,M,,Raw,Yes,235,-240,-240,235,,SBD,555,187.5,-192.5,192.5,192.5,
1,Valeriy Khomenko,M_MR_5_AWPC,1951,76.3,90,95,-100,95,,82.5,M,Валерий Хоменко,Raw,Yes,170,190,200,200,,SBD,445,130,140,150,150,
1,Saveliy Bokarev,M_TR_2_AWPC,1998,88.3,122.5,127.5,130,130,,90,M,Савелий Бокарев,Raw,Yes,210,220,-230,220,,SBD,535.5,170,185.5,-190,185.5,
DQ,Nikita Volobuev,M_TR_2_AWPC,1999,88.4,122.5,127.5,130,130,,90,M,Никита Волобуев,Raw,Yes,-210,-210,-210,,,SBD,,-180,185,-200,185,
1,Gustav Adriano,M_JR_AWPC,1993,87.6,-130,130,132.5,132.5,,90,M,,Raw,Yes,185,195,200,200,,SBD,472.5,135,140,,140,
1,Eduard Dolgov,M_OR_AWPC,1987,89.5,170,180,-190,180,,90,M,Едуард Долгов,Raw,Yes,-300,300,-310,300,,SBD,740,240,250,260,260,
2,Igor Kuznetsov #8,M_OR_AWPC,1982,88.7,140,-152.5,152.5,152.5,,90,M,Игорь Кузнецов,Raw,Yes,185,205,215,215,,SBD,537.5,160,170,-180,170,
1,Aleksey Zhelnin,M_MR_1_AWPC,1975,88.9,155,-165,-165,155,,90,M,Алексей Желнин,Raw,Yes,190,-200,,190,,SBD,525,-180,180,-200,180,
2,Klim Zakharov,M_MR_1_AWPC,1974,88.8,120,125,-130,125,,90,M,Клим Захаров,Raw,Yes,180,-200,-200,180,,SBD,475,150,160,170,170,
1,Sergey Runov,M_MR_2_AWPC,1971,89.1,140,,,140,,90,M,Сергей Рунов,Raw,Yes,-200,200,,200,,SBD,510,160,170,,170,
1,Mikhail Gudin,M_MR_3_AWPC,1965,87,105,110,112.5,112.5,,90,M,Михаил Гудин,Raw,Yes,155,-165,-165,155,,SBD,412.5,135,145,-150,145,
1,Abdulla Gadzhiev,M_MR_5_AWPC,1956,89.4,155,160,165,165,,90,M,Абдулла Гаджиев,Raw,Yes,185,200,210,210,,SBD,560,185,-200,-200,185,
1,Stanislav Zhuravlev,M_MR_8_AWPC,1939,83.2,90,100,-105,100,,90,M,Станислав Журавлев,Raw,Yes,150,-160,,150,,SBD,400,140,150,-157.5,150,
2,Nikolay Novikov,M_MR_8_AWPC,1938,88,-115,120,-125,120,,90,M,Николай Новиков,Raw,Yes,160,-170,-170,160,,SBD,400,120,-130,,120,
1,Dmitriy Gadzhiev,M_TR_3_AWPC,1997,93.6,140,150,155,155,,100,M,Дмитрий Гаджиев,Raw,Yes,260.5,277.5,-290,277.5,,SBD,653,200,210,220.5,220.5,
1,Pavel Koltsov,M_JR_AWPC,1993,99.7,145,150,155,155,,100,M,Павел Кольцов,Raw,Yes,240,250,-255,250,,SBD,610,195,200,205,205,
2,Osman Kodzoev,M_JR_AWPC,1993,90.7,140,150,155,155,,100,M,Осман Кодзоев,Raw,Yes,220,240,-255,240,,SBD,605,200,-210,210,210,
1,Ilya Nefedov,M_MR_1_AWPC,1972,98.6,140,150,-155,150,,100,M,Илья Нефедов,Raw,Yes,240,-245,245,245,,SBD,620,200,220,225,225,
2,Sergey Nikolaev,M_MR_1_AWPC,1974,98.5,145,150,-155,150,,100,M,Сергей Николаев,Raw,Yes,210,-220,220,220,,SBD,590,210,220,-225,220,
1,Evgeniy Svoboda,M_MR_1_AWPC,1972,93.2,125,140,,140,,100,M,Евгений Свобода,Raw,Yes,180,200,,200,,SBD,515,155,175,,175,
1,Aleksandr Kozhevnikov,M_JR_AWPC,1992,106.3,165,175,180,180,,110,M,Александр Кожевников,Raw,Yes,205,215,-220,215,,SBD,600,185,195,205,205,
1,Maksim Neznamov,M_OR_AWPC,1978,108.5,160,170,180,180,,110,M,Максим Незнамов,Raw,Yes,220,240,-255,240,,SBD,630,-210,-210,210,210,
1,Ilham Mirzayev,M_MR_2_AWPC,1970,107.3,100,110,120,120,,110,M,,Raw,Yes,150,170,,170,,SBD,440,130,150,-170,150,
1,Savarbek Yandiev,M_MR_4_AWPC,1960,107.2,145,-150,155,155,,110,M,Саварбек Яндиев,Raw,Yes,200,215,230,230,,SBD,575,-170,170,190,190,
1,Malik Adylkhanov,M_TR_2_AWPC,1999,121.2,80,85,90,90,,125,M,,Raw,Yes,130,150,-160,150,,SBD,370,110,120,130,130,
1,Dorj Myagmarjav,M_JR_AWPC,1995,111.2,140,157.5,,157.5,,125,M,,Raw,Yes,200,,,200,,SBD,567.5,190,210,,210,
1,Sergey Oleynikov,M_OR_AWPC,1981,115,185,195,-200,195,,125,M,Сергей Олейников,Raw,Yes,240,260,267.5,267.5,,SBD,685,200,215,222.5,222.5,
2,Andrey Ovod,M_OR_AWPC,1985,112.5,127.5,142.5,147.5,147.5,,125,M,Андрей Овод,Raw,Yes,235,252.5,260,260,,SBD,632.5,207.5,-220,225,225,
3,Sergey Litvinov,M_OR_AWPC,1976,121.8,-177.5,177.5,-180,177.5,,125,M,Сергей Литвинов,Raw,Yes,205,212.5,220,220,,SBD,612.5,215,-225,-225,215,
1,Sergey Litvinov,M_MR_1_AWPC,1976,121.8,-177.5,177.5,-180,177.5,,125,M,Сергей Литвинов,Raw,Yes,205,212.5,220,220,,SBD,612.5,215,-225,-225,215,
1,Vladimir Chernyshov,M_MR_6_AWPC,1948,119.8,132.5,140,143,143,,125,M,Владимир Чернышов,Raw,Yes,225,235,240,240,,SBD,620.5,230,237.5,-245,237.5,
1,Nikolay Markin,M_OR_AWPC,1981,129.7,-150,192.5,-200,192.5,,140,M,Николай Маркин,Raw,Yes,255,270,-282.5,270,,SBD,712.5,237.5,250,-262.5,250,
1,Igor Lyubaev,M_OEM_AWPC,1979,65.3,130,-140,140,140,,67.5,M,Игорь Любаев,Multi-ply,Yes,220,-230,230,230,240,SBD,610,220,240,-251,240,
1,Kostas Telidis,M_OEM_AWPC,1989,74.3,225,-240,240,240,,75,M,Костас Телидис,Multi-ply,Yes,240,255,,255,,SBD,785,265,280,290,290,
2,Ayurbold Gansukh,M_OEM_AWPC,1991,72.8,172.5,180,-190,180,,75,M,,Multi-ply,Yes,212.5,220,-230,220,,SBD,657.5,230,245,257.5,257.5,
1,Saruul-Erdene Jigmedserchin,M_JEM_AWPC,1992,85.3,152.5,165,175,175,,90,M,,Multi-ply,Yes,230,250,-262.5,250,,SBD,707.5,270,282.5,-300,282.5,
1,Scott Kuderieck,M_OEM_AWPC,1974,89.5,160,167.5,175,175,,90,M,,Multi-ply,Yes,235,240,255,255,,SBD,725,-295,295,-320,295,
2,Dmitriy Kochevatkin,M_OEM_AWPC,1976,86.4,190,195,200,200,,90,M,Дмитрий Кочеваткин,Multi-ply,Yes,210,220,230,230,,SBD,690,240,250,260,260,
3,Bat-Erdene Battulga,M_OEM_AWPC,1990,87.5,150,-180,,150,,90,M,,Multi-ply,Yes,200,-235,-275,200,,SBD,590,240,-252.5,,240,
1,Dmitriy Kochevatkin,M_MEM_1_AWPC,1976,86.4,190,195,200,200,,90,M,Дмитрий Кочеваткин,Multi-ply,Yes,210,220,230,230,,SBD,690,240,250,260,260,
1,Andrey Izvekov,M_OEM_AWPC,1981,121.8,-200,200,207.5,207.5,,125,M,Андрей Извеков,Multi-ply,Yes,-260,265,275,275,,SBD,805,310,315,322.5,322.5,
2,Khatbaatar Buyandalay,M_OEM_AWPC,1990,118.6,210,-225,225,225,,125,M,,Multi-ply,Yes,260,275,-300,275,,SBD,760,-260,260,,260,
1,Anastasiya Kosintseva,F_JES_AWPC,1995,43.6,60,65,-67.5,65,,44,F,Анастасия Косинцева,Single-ply,Yes,115,125,-130,125,,SBD,320,110,120,130,130,
2,Natalya Borodina,F_JES_AWPC,1996,43.7,60,65,-67.5,65,,44,F,Наталья Бородина,Single-ply,Yes,107.5,115.5,-125.5,115.5,,SBD,288,-107.5,107.5,-112.5,107.5,
1,Olga Ryzhikh,F_OES_AWPC,1979,48,60,62.5,-65,62.5,,48,F,Ольга Рыжих,Single-ply,Yes,130,140,-147.5,140,,SBD,332.5,120,125,130,130,
2,Elena Enina,F_OES_AWPC,1989,47.9,60,62.5,-65,62.5,,48,F,Елена Енина,Single-ply,Yes,130,140,-147.5,140,,SBD,330,120,127.5,-130,127.5,
1,Karina Nebyvaeva,F_OES_AWPC,1984,52,57.5,-62.5,-62.5,57.5,,52,F,Карина Небываева,Single-ply,Yes,150,-165,-165,150,,SBD,342.5,-130,135,-137.5,135,
DQ,Marina Kamyshnikova,F_OES_AWPC,1979,51.7,,,,,,52,F,Марина Камышникова,Single-ply,Yes,,,,,,SBD,,-130,-130,-130,,
1,Tatyana Khalina,F_JES_AWPC,1993,55.6,80,-85,85,85,,56,F,Татьяна Халина,Single-ply,Yes,140,150,160,160,162.5,SBD,385,-140,140,-145,140,
DQ,Polina Medvedeva,F_JES_AWPC,1996,57.8,,,,,,60,F,Полина Медведева,Single-ply,Yes,,,,,,SBD,,-155,-155,-155,,
1,Julia Vins,F_JES_AWPC,1996,67.4,120,-130,-130,120,,67.5,F,Юлия Винс,Single-ply,Yes,170,180,190,190,,SBD,525,205,-215,215,215,
1,Daniil Peredriy,M_TES_2_AWPC,1999,58.9,80,85,90,90,,60,M,Даниил Передрий,Single-ply,Yes,172.5,-177.5,,172.5,,SBD,472.5,192.5,205,210,210,
1,Gantsooj Baasansuren,M_OES_AWPC,1985,60,85,92.5,-100,92.5,,60,M,,Single-ply,Yes,150,,162.5,162.5,,SBD,430,-160,160,175,175,
1,Battogtokh Dorjpalam,M_OES_AWPC,1987,67.2,115,127.5,-140,127.5,,67.5,M,,Single-ply,Yes,-202.5,202.5,,202.5,,SBD,570,225,240,-260,240,
DQ,Aleksandr Pisarev,M_TES_3_AWPC,1998,73.8,,,,,,75,M,Александр Писарев,Single-ply,Yes,,,,,,SBD,,-210,-225,-225,,
1,Batsukh Damdinsuren,M_OES_AWPC,1984,75,140,150,160,160,,75,M,,Single-ply,Yes,200,,,200,,SBD,635,-270,275,-287.5,275,
DQ,Roman Durnov,M_OES_AWPC,1986,75,-165,-165,-165,,,75,M,Роман Дурнов,Single-ply,Yes,,,,,,SBD,,-260,-260,260,260,
1,Otgonbaatar Batbold,M_JES_AWPC,1996,81.2,115,120,130,130,,82.5,M,,Single-ply,Yes,200,220,240,240,,SBD,600,230,-245,-245,230,
1,Sergey Pisarev,M_OES_AWPC,1991,82,155,167.5,-175,167.5,,82.5,M,Сергей Писарев,Single-ply,Yes,245,265,-282.5,265,,SBD,692.5,260,-275,-285,260,
1,Viktor Skokin,M_MES_4_AWPC,1957,78.8,87.5,92.5,,92.5,,82.5,M,Виктор Скокин,Single-ply,Yes,200,212.5,220,220,,SBD,512.5,190,200,-207.5,200,
1,Mikhail Zhuravlev,M_MES_7_AWPC,1943,80.7,110,117.5,125,125,,82.5,M,Михаил Журавлев,Single-ply,Yes,195,205,-215,205,,SBD,525,-195,195,-205,195,
1,Munkhbaatar Baasandorj,M_OES_AWPC,1980,89.9,175,185,195,195,,90,M,,Single-ply,Yes,245,260,,260,,SBD,725,270,-280,-290,270,
2,Vadim Chipliev,M_OES_AWPC,1991,89.4,170,-187.5,-187.5,170,,90,M,Вадим Чиплиев,Single-ply,Yes,240,-255,-255,240,,SBD,690,270,280,-285,280,
1,Nader Rakhsha,M_TES_3_AWPC,1997,98.4,120,137.5,-145,137.5,,100,M,,Single-ply,Yes,200,212.5,217.5,217.5,,SBD,555,180,200,-220,200,
1,Denis Ivlev,M_OES_AWPC,1980,95.6,-210,210,220,220,,100,M,Денис Ивлев,Single-ply,Yes,260,275,-285,275,,SBD,807.5,285,300,312.5,312.5,
2,Gantemer Olzvoy,M_OES_AWPC,1981,96.2,140,-150,,140,,100,M,,Single-ply,Yes,260,,,260,,SBD,660,-260,260,-280,260,
1,Evgeniy Svoboda,M_MES_1_AWPC,1972,94.3,160,-180,-185,160,,100,M,Евгений Свобода,Single-ply,Yes,205,235,-257.5,235,,SBD,600,205,-225,-232.5,205,
1,Aleksey Kartel,M_OES_AWPC,1988,102.1,-210,210,220,220,,110,M,Алексей Картель,Single-ply,Yes,-300,300,320,320,-340,SBD,875,305,325,335,335,
2,Evgeniy Esaulkov,M_OES_AWPC,1989,108.5,200,210,225,225,,110,M,Евгений Есаулков,Single-ply,Yes,295,310,-320.5,310,,SBD,805,270,-290,-290,270,
3,Khameneh Omrani,M_OES_AWPC,1985,109.7,190,200,210,210,,110,M,,Single-ply,Yes,270,-285,-285,270,,SBD,785,-300,305,-320,305,
1,Yuriy Malygin,M_MES_2_AWPC,1967,103.6,100,,,100,,110,M,Юрій Малигін,Single-ply,Yes,120,,,120,,SBD,370,120,150,-180,150,
1,Khatbaatar Buyandalay,M_OES_AWPC,1990,119.9,210,225,-240,225,,125,M,,Single-ply,Yes,260,-280,-280,260,,SBD,787.5,-302.5,302.5,,302.5,
