Place,Tested,Event,Equipment,Sex,WeightClassKg,Name,CyrillicName,Division,Age,BirthDate,BodyweightKg,Squat1Kg,Squat2Kg,Squat3Kg,Best3SquatKg,Bench1Kg,Bench2Kg,Bench3Kg,Best3BenchKg,Deadlift1Kg,Deadlift2Kg,Deadlift3Kg,Best3DeadliftKg,TotalKg
1,Yes,D,Raw,F,48,Darya Nikonorova,Дарья Никонорова,Open,19,2000-02-11,47.7,,,,,,,,,70,80,92.5,92.5,92.5
1,No,D,Raw,M,75,Maksim Popov #1,Максим Попов,Open,34,1984-09-03,72.2,,,,,,,,,250,262.5,270,270,270
1,No,D,Raw,M,82.5,Evgeniy Remizevich,Евгений Ремизевич,Open,27,1992-03-03,79.8,,,,,,,,,190,200,207.5,207.5,207.5
1,No,D,Raw,M,90,Konstantin Azizmamadov,Константин Азизмамадов,Open,34,1985-03-16,88.5,,,,,,,,,280,300,-305,300,300
1,No,D,Raw,M,100,Vitaliy Bobrov,Виталий Бобров,Open,38,1981-07-30,97.6,,,,,,,,,240,280,-305,280,280
1,No,D,Raw,M,100,Andrey Ovchinnikov,Андрей Овчинников,Masters 50-54,50,1969-01-27,97.4,,,,,,,,,230,240,260,260,260
1,No,B,Multi-ply,M,125,Yuriy Solovev,Юрий Соловьев,Open,45,1974-01-25,111.6,,,,,-240,-245,250,250,,,,,250
1,Yes,B,Raw,F,48,Tatyana Balyabina,Татьяна Балябина,Open,24,1995-05-23,46.5,,,,,45,47.5,-52.5,47.5,,,,,47.5
1,Yes,B,Raw,F,56,Darya Davydenko,Дарья Давыденко,Open,35,1984-04-29,54.4,,,,,27.5,30,-32.5,30,,,,,30
1,Yes,B,Raw,M,82.5,Aleksandr Bereznikov,Александр Березников,Juniors 20-23,20,1999-06-04,78,,,,,90,95,102.5,102.5,,,,,102.5
1,Yes,B,Raw,M,82.5,Vitaliy Antonets,Виталий Антонец,Open,31,1987-11-25,77.4,,,,,110,120,-130,120,,,,,120
1,Yes,B,Raw,M,90,Andrey Konavalenko,Андрей Конаваленко,Open,36,1982-08-20,89.8,,,,,160,167.5,170,170,,,,,170
2,Yes,B,Raw,M,90,Roman Tovpeko,Роман Товпеко,Open,38,1981-03-13,89.4,,,,,140,145,-147.5,145,,,,,145
1,Yes,B,Raw,M,100,Gennadiy Klyuev,Геннадий Клюев,Masters 55-59,59,1960-05-20,98.8,,,,,-120,120,-130,120,,,,,120
1,Yes,B,Raw,M,110,Sergey Kosenkov,Сергей Косенков,Masters 40-44,40,1979-07-11,109.3,,,,,170,180,190,190,,,,,190
1,Yes,B,Raw,M,140,Igor Gusev,Игорь Гусев,Open,38,1981-02-06,126.3,,,,,175,-185,-185,175,,,,,175
1,No,B,Raw,M,82.5,Pavel Tsvetkov,Павел Цветков,Open,30,1988-10-15,82.4,,,,,145,155,160,160,,,,,160
2,No,B,Raw,M,82.5,Evgeniy Remizevich,Евгений Ремизевич,Open,27,1992-03-03,79.8,,,,,102.5,107.5,112.5,112.5,,,,,112.5
1,No,B,Raw,M,90,Dmitriy Ivanov #34,Дмитрий Иванов,Juniors 20-23,22,1997-04-18,89.8,,,,,-110,115,120,120,,,,,120
1,No,B,Raw,M,90,Andrey Sapozhonkov,Андрей Сапожонков,Open,32,1987-01-01,88.9,,,,,240,245,250,250,,,,,250
1,No,B,Raw,M,90,Sergey Bazanov,Сергей Базанов,Masters 55-59,57,1962-06-22,86.9,,,,,177.5,182.5,185,185,,,,,185
1,No,B,Raw,M,100,Aleksey Vinogradov,Алексей Виноградов,Open,35,1983-12-22,99.9,,,,,190,-200,-200,190,,,,,190
1,No,B,Raw,M,110,Ruslan Patrenkov,Руслан Патренков,Open,29,1990-01-01,110,,,,,125,135,140,140,,,,,140
1,No,B,Raw,M,110,Nodar Tsutskiridze,Нодар Цуцкиридзе,Masters 40-44,42,1976-09-14,104.7,,,,,180,190,-200,190,,,,,190
1,No,B,Raw,M,140,Sergey Aladyshev,Сергей Аладышев,Masters 45-49,48,1971-05-08,133.8,,,,,175,185,-195,185,,,,,185
1,Yes,SBD,Raw,M,90,Dmitriy Morozov,Дмитрий Морозов,Open,34,1984-09-13,88.6,-125,-130,130,130,100,107.5,-112.5,107.5,135,150,165,165,402.5
1,Yes,SBD,Raw,M,100,Aleksandr Solovev,Александр Соловьев,Open,36,1983-07-18,99,-130,130,150,150,100,120,-140,120,150,170,-190,170,440
1,Yes,SBD,Raw,F,75,Ekaterina Soroka,Екатерина Сорока,Open,22,1996-12-17,74.7,90,100,107.5,107.5,60,67.5,72.5,72.5,100,110,120,120,300
1,Yes,SBD,Raw,M,100,Vitaliy Bobrov,Виталий Бобров,Open,38,1981-07-30,97.6,240,252.5,265,265,160,170,180,180,240,280,-305,280,725
1,Yes,SBD,Raw,M,110,Sergey Podrezov,Сергей Подрезов,Masters 40-44,44,1975-01-06,104.9,170,-180,180,180,130,135,137.5,137.5,180,185,190,190,507.5
1,Yes,SBD,Wraps,M,75,Rodoslav Kuznetsov,Родослав Кузнецов,Open,18,2000-10-24,74.7,120,140,-160,140,90,100,-110,100,120,140,150,150,390
1,Yes,SBD,Wraps,M,100,Ilya Prmanov,Илья Прманов,Open,38,1981-01-25,96.6,230,240,250,250,170,180,185,185,250,-260,,250,685
1,No,SBD,Wraps,M,82.5,Vasiliy Tsvetkov,Василий Цветков,Open,38,1981-07-05,81.8,220,240,255,255,130,145,155,155,190,210,230,230,640
1,No,SBD,Wraps,M,110,Rauf Apsov,Рауф Апсов,Open,27,1992-04-16,103,230,250,270,270,140,150,160,160,300,305,-315,305,735
1,No,SBD,Wraps,M,125,Aleksandr Bereznikov,Александр Березников,Masters 55-59,55,1964-01-26,113.6,220,230,240,240,155,-160,-160,155,250,260,-265,260,655
