Name,CyrillicName,Sex,BodyweightKg,Bench1Kg,Bench2Kg,Bench3Kg,Best3BenchKg,Bench4Kg,TotalKg,WeightClassKg,Event,Equipment,Tested,Division,Age,Place
Emin Galib Ogly Mamedov,Емин Галиб Оглы Мамедов,M,100,350,380,400,400,,400,100,B,Multi-ply,No,Pro Open,42,1
Marat Abdullin,Марат Абдуллин,M,95.8,315,325,-335,325,,325,100,B,Multi-ply,No,Pro Open,31,2
Valeriy Kurochkin,Валерий Курочкин,M,99.7,280,290,-300,290,,290,100,B,Multi-ply,No,Pro Open,38,3
Roman Brekhov,Роман Брехов,M,105.5,270,-280,-280,270,,270,110,B,Multi-ply,No,Pro Open,27,1
Mikhail Evstigneev,Михаил Евстигнеев,M,107.7,-285,-292.5,-292.5,,,,110,B,Multi-ply,No,Pro Open,40,DQ
Sergey Mavrenkov,Сергей Мавренков,M,109.1,-260,-260,-260,,,,110,B,Multi-ply,No,Pro Open,50,DQ
Sergey Starodubskiy,Сергей Стародубский,M,113.1,295,-307.5,-310,295,,295,125,B,Multi-ply,No,Pro Open,39,1
Dmitriy Gorbachev,Дмитрий Горбачев,M,116.5,-290,290,-300,290,,290,125,B,Multi-ply,No,Pro Open,47,2
Roman Terekhov,Роман Терехов,M,117.7,-250,-250,250,250,,250,125,B,Multi-ply,No,Pro Open,35,3
Viktor Naydenov,Виктор Найденов,M,122.8,-390,-390,-400,,-400,,125,B,Multi-ply,No,Pro Open,30,DQ
Vasiliy Filatov,Василий Филатов,M,136.2,350,-370,-370,350,,350,140,B,Multi-ply,No,Pro Open,30,1
Sergey Yachmenev,Сергей Ячменев,M,125.7,325,335,-340,335,,335,140,B,Multi-ply,No,Pro Open,38,2
Dmitriy Shabalin #1,Дмитрий Шабалин,M,135.8,315,-325,-325,315,,315,140,B,Multi-ply,No,Pro Open,48,3
Anatoliy Kirillov,Анатолий Кириллов,M,87.8,140,-150,150,150,,150,90,B,Multi-ply,Yes,Amateur Open,35,1
Aleksandr Sidelnikov,Александр Сидельников,M,99.8,140,-150,150,150,,150,100,B,Multi-ply,Yes,Amateur Masters 40-44,44,1
Aleksandr Krovikov,Александр Кровиков,M,93.6,160,-170,170,170,,170,100,B,Multi-ply,Yes,Amateur Masters 55-59,55,1
Ruslan Kulebyakin,Руслан Кулебякин,M,106.7,220,235,-245,235,,235,110,B,Multi-ply,Yes,Amateur Open,26,1
Vizhe Mirmirani,Виже Мирмирани,F,59.6,90,-100,-100,90,,90,60,B,Single-ply,Yes,Amateur Masters 50-54,52,1
Roman Galeev,Роман Галеев,M,66.7,135,145,-155,145,,145,67.5,B,Single-ply,Yes,Amateur Open,27,1
Yuriy Tarbonov,Юрий Тарбонов,M,89.1,240.5,-250,-250,240.5,,240.5,90,B,Single-ply,Yes,Amateur Open,29,1
Dmitriy Korneev,Дмитрий Корнеев,M,88.8,175,182.5,187.5,187.5,,187.5,90,B,Single-ply,Yes,Amateur Open,30,2
Stanislav Nevezhin,Станислав Невежин,M,89.7,-175,-190,-200,,,,90,B,Single-ply,Yes,Amateur Open,28,DQ
Natalya Dyulger,Наталья Дюльгер,F,42.3,30,-32.5,-32.5,30,,30,44,B,Raw,Yes,Amateur Teen 13-15,13,1
Sabina Mansurova,Сабина Мансурова,F,40,25,-27.5,-27.5,25,,25,44,B,Raw,Yes,Amateur Youth,11,2
Svetlana Sharynkina,Светлана Шарынкина,F,43.7,52.5,-55,-55,52.5,,52.5,44,B,Raw,Yes,Amateur Juniors 20-23,21,1
Olga Ivanova,Ольга Иванова,F,46.8,65,67.5,70,70,-70.5,70,48,B,Raw,Yes,Amateur Juniors 20-23,20,1
Anna Kireeva,Анна Киреева,F,46.4,47.5,50,-52.5,50,,50,48,B,Raw,Yes,Amateur Open,26,1
Elizaveta Barkova,Елизавета Баркова,F,47.4,45,50,-52.5,50,,50,48,B,Raw,Yes,Amateur Open,31,2
Yuliya Tatarintseva,Юлия Татаринцева,F,52,-45,-45,-45,,,,52,B,Raw,Yes,Amateur Juniors 20-23,23,DQ
Kseniya Kuznetsova,Ксения Кузнецова,F,48.3,62.5,65,67.5,67.5,,67.5,52,B,Raw,Yes,Amateur Open,27,1
Ekaterina Tretyakova,Екатерина Третьякова,F,52,45,50,55,55,,55,52,B,Raw,Yes,Amateur Open,36,2
Anna Smirnova,Анна Смирнова,F,52,47.5,50,-55,50,,50,52,B,Raw,Yes,Amateur Open,34,3
Marina Rapoport,Марина Рапопорт,F,51.3,-47.5,-47.5,47.5,47.5,,47.5,52,B,Raw,Yes,Amateur Open,32,4
Olga Parkhomenko,Ольга Пархоменко,F,51.4,40,45,-47.5,45,,45,52,B,Raw,Yes,Amateur Open,28,5
Anastasiya Yarmak,Анастасия Ярмак,F,53.8,-45,-45,-47.5,,,,56,B,Raw,Yes,Amateur Teen 13-15,14,DQ
Ekaterina Taskaeva,Екатерина Таскаева,F,56,70,75,-78,75,,75,56,B,Raw,Yes,Amateur Juniors 20-23,23,1
Olga Sergeeva,Ольга Сергеева,F,54,-50,50,55,55,,55,56,B,Raw,Yes,Amateur Juniors 20-23,23,2
Anastasiya Vinokhodova,Анастасия Виноходова,F,55.5,45,47.5,-55,47.5,,47.5,56,B,Raw,Yes,Amateur Juniors 20-23,22,3
Ekaterina Taskaeva,Екатерина Таскаева,F,56,70,75,-78,75,,75,56,B,Raw,Yes,Amateur Open,23,1
Nataliya Mamutkina,Наталия Мамуткина,F,54.1,62.5,65,70,70,,70,56,B,Raw,Yes,Amateur Open,26,2
Oksana Kogut,Оксана Когут,F,55.5,62.5,65,67.5,67.5,,67.5,56,B,Raw,Yes,Amateur Open,31,3
Nikita Smirnova,Никита Смирнова,F,54.6,60,62.5,65,65,,65,56,B,Raw,Yes,Amateur Open,30,4
Olga Generalova,Ольга Генералова,F,55,-55,55,-62.5,55,,55,56,B,Raw,Yes,Amateur Open,27,5
Elena Korovkina,Елена Коровкина,F,55.3,55,-60,-62.5,55,,55,56,B,Raw,Yes,Amateur Open,24,6
Ekaterina Smirnova,Екатерина Смирнова,F,55,-35,40,-47.5,40,,40,56,B,Raw,Yes,Amateur Open,29,7
Anna Cheremisova,Анна Черемисова,F,55,-40,42.5,-47.5,42.5,,42.5,56,B,Raw,Yes,Amateur Masters 40-44,42,1
Viktoriya Yultsova,Виктория Юльцова,F,59.8,85,-90,-90,85,,85,60,B,Raw,Yes,Amateur Open,15,1
Olga Krichmar,Ольга Кричмар,F,59.8,70,-75,-75,70,,70,60,B,Raw,Yes,Amateur Open,35,2
Aleksandra Galanova,Александра Галанова,F,58.1,57.5,-60,60,60,,60,60,B,Raw,Yes,Amateur Open,29,3
Ekaterina Ismagilova,Екатерина Исмагилова,F,58.7,50,57.5,-60,57.5,,57.5,60,B,Raw,Yes,Amateur Open,24,4
Elena Evgrafova,Елена Евграфова,F,58.7,-50,57.5,-60,57.5,,57.5,60,B,Raw,Yes,Amateur Open,36,5
Anna Kuznetsova,Анна Кузнецова,F,59,-52.5,55,57.5,57.5,,57.5,60,B,Raw,Yes,Amateur Open,26,6
Anna Frolova,Анна Фролова,F,58,-60,-62.5,-62.5,,,,60,B,Raw,Yes,Amateur Open,25,DQ
Nadezhda Kolotilina,Надежда Колотилина,F,58.6,-50,,,,,,60,B,Raw,Yes,Amateur Open,31,DQ
Anna Markina,Анна Маркина,F,59.8,-62.5,,,,,,60,B,Raw,Yes,Amateur Open,29,DQ
Tatyana Batalova,Татьяна Баталова,F,63.8,62.5,-65,-65,62.5,,62.5,67.5,B,Raw,Yes,Amateur Teen 18-19,19,1
Mariya Volkova,Мария Волкова,F,65.7,82.5,87.5,92.5,92.5,,92.5,67.5,B,Raw,Yes,Amateur Juniors 20-23,22,1
Anastasiya Dmitrieva,Анастасия Дмитриева,F,63.5,65,70,75,75,,75,67.5,B,Raw,Yes,Amateur Juniors 20-23,22,2
Zarema Khametova,Зарема Хаметова,F,64.5,42.5,45,-52.5,45,,45,67.5,B,Raw,Yes,Amateur Juniors 20-23,22,3
Kseniya Sergeeva,Ксения Сергеева,F,65.3,75,77.5,-80,77.5,,77.5,67.5,B,Raw,Yes,Amateur Open,30,1
Darya Pokazaneva,Дарья Показаньева,F,67.5,70,-75,-75,70,,70,67.5,B,Raw,Yes,Amateur Open,27,2
Yuliya Prokhorova,Юлия Прохорова,F,66.6,50,55,-57.5,55,,55,67.5,B,Raw,Yes,Amateur Open,32,3
Viktoriya Balashova,Виктория Балашова,F,65.5,50,52.5,-55,52.5,,52.5,67.5,B,Raw,Yes,Amateur Open,24,4
Marina Lukyanova,Марина Лукьянова,F,64.1,92.5,95,-97.5,95,,95,67.5,B,Raw,Yes,Amateur Masters 45-49,45,1
Aurika Kovalchuk,Аурика Ковальчук,F,65.9,40,42.5,45,45,,45,67.5,B,Raw,Yes,Amateur Masters 55-59,58,1
Anna Chefranova,Анна Чефранова,F,74.2,40,42.5,-47.5,42.5,,42.5,75,B,Raw,Yes,Amateur Open,47,1
Yana Kostenko,Яна Костенко,F,78.9,50,55,-60,55,,55,82.5,B,Raw,Yes,Amateur Open,32,1
Vladislav Sitdikov,Владислав Ситдиков,M,51.2,77.5,80,82.5,82.5,85,82.5,52,B,Raw,Yes,Amateur Juniors 20-23,22,1
Ilya Pankov,Илья Панков,M,58.2,65,70,-75,70,,70,60,B,Raw,Yes,Amateur Teen 13-15,14,1
Aleksandr Stepanyuk,Александр Степанюк,M,59.8,87.5,-95,-95,87.5,,87.5,60,B,Raw,Yes,Amateur Teen 16-17,16,1
Anatoliy Zhuravlev,Анатолий Журавлев,M,57.8,60,67.5,70,70,,70,60,B,Raw,Yes,Amateur Teen 18-19,19,1
Aleksey Tsygankov,Алексей Цыганков,M,59.3,95,102.5,-107.5,102.5,,102.5,60,B,Raw,Yes,Amateur Open,27,1
Anton Burdin,Антон Бурдин,M,57.3,82.5,85,-87.5,85,,85,60,B,Raw,Yes,Amateur Open,27,2
Ivan Burmistrov,Иван Бурмистров,M,63.8,65,75,-77.5,75,,75,67.5,B,Raw,Yes,Amateur Teen 13-15,15,1
Maksim Moloman,Максим Моломан,M,65.6,100,107.5,-110,107.5,,107.5,67.5,B,Raw,Yes,Amateur Teen 16-17,17,1
Egor Boyko,Егор Бойко,M,65.9,70,75,-80,75,,75,67.5,B,Raw,Yes,Amateur Teen 16-17,16,2
Semen Gavrilov,Семен Гаврилов,M,66.3,92.5,97.5,100,100,,100,67.5,B,Raw,Yes,Amateur Teen 18-19,18,1
Sergey Markin,Сергей Маркин,M,65.8,87.5,92.5,-95,92.5,,92.5,67.5,B,Raw,Yes,Amateur Teen 18-19,18,2
Artur Yakovlev,Артур Яковлев,M,65,-117.5,125,-130,125,,125,67.5,B,Raw,Yes,Amateur Juniors 20-23,20,1
Sergey Bychkov,Сергей Бычков,M,65.6,120,125,127.5,127.5,,127.5,67.5,B,Raw,Yes,Amateur Open,28,1
Pavel Nosov,Павел Носов,M,66.1,-115,-125,125,125,,125,67.5,B,Raw,Yes,Amateur Open,33,2
Sergey Sandimirov,Сергей Сандимиров,M,65.6,110,-112.5,-112.5,110,,110,67.5,B,Raw,Yes,Amateur Open,22,3
Artyom Danilov,Артём Данилов,M,64.7,90,97.5,102.5,102.5,,102.5,67.5,B,Raw,Yes,Amateur Open,29,4
Igor Chistyakov #1,Игорь Чистяков,M,67.3,100,105,107.5,107.5,,107.5,67.5,B,Raw,Yes,Amateur Masters 50-54,51,1
Georgiy Chernov,Георгий Чернов,M,71,-92.5,95,100,100,,100,75,B,Raw,Yes,Amateur Teen 13-15,15,1
Nikita Buyanov,Никита Буянов,M,70.9,50,55,60,60,,60,75,B,Raw,Yes,Amateur Teen 13-15,14,2
Vlad Baranov,Влад Баранов,M,71.8,110,117.5,120,120,,120,75,B,Raw,Yes,Amateur Teen 16-17,17,1
Vladislav Mokrov,Владислав Мокров,M,74.9,-105,105,-110,105,,105,75,B,Raw,Yes,Amateur Teen 16-17,17,2
Vasiliy Feklisov,Василий Феклисов,M,73.1,95,100,-105,100,,100,75,B,Raw,Yes,Amateur Teen 16-17,17,3
Ilya Lanenkin,Илья Ланенкин,M,71.2,87.5,92.5,95,95,,95,75,B,Raw,Yes,Amateur Teen 16-17,16,4
Aleksey Gerasimov,Алексей Герасимов,M,73.9,125,-135,-135,125,,125,75,B,Raw,Yes,Amateur Teen 18-19,19,1
Stepan Kushtuev,Степан Куштуев,M,74.1,112.5,-117.5,-117.5,112.5,,112.5,75,B,Raw,Yes,Amateur Teen 18-19,18,2
Andrey Kantor,Андрей Кантор,M,71.7,77.5,-82.5,82.5,82.5,,82.5,75,B,Raw,Yes,Amateur Teen 18-19,18,3
Renat Izmaylov,Ренат Измайлов,M,73.1,105,112.5,117.5,117.5,,117.5,75,B,Raw,Yes,Amateur Juniors 20-23,23,1
Ramil Rakhmatullin,Рамиль Рахматуллин,M,68.5,-107.5,-117.5,-120,,,,75,B,Raw,Yes,Amateur Juniors 20-23,21,DQ
Matvey Pavlov,Матвей Павлов,M,74,-125,-130,-130,,,,75,B,Raw,Yes,Amateur Juniors 20-23,22,DQ
Boris Pankov,Борис Панков,M,74.5,-127.5,,,,,,75,B,Raw,Yes,Amateur Open,24,DQ
Evgeniy Efanov,Евгений Ефанов,M,75,-127.5,-127.5,-127.5,,,,75,B,Raw,Yes,Amateur Juniors 20-23,21,DQ
Roman Petrakov,Роман Петраков,M,75,150,152.5,-155,152.5,,152.5,75,B,Raw,Yes,Amateur Open,35,1
Roman Dubinkin,Роман Дубинкин,M,71.7,-140,142.5,147.5,147.5,,147.5,75,B,Raw,Yes,Amateur Open,29,2
Sergey Parsyan,Сергей Парсян,M,73,135,140,-145,140,,140,75,B,Raw,Yes,Amateur Open,32,3
Petr Isakov,Петр Исаков,M,73.7,-135,135,140,140,,140,75,B,Raw,Yes,Amateur Open,31,4
Pavel Ivanov,Павел Иванов,M,73.2,130,135,137.5,137.5,,137.5,75,B,Raw,Yes,Amateur Open,25,5
Nazim Gasanov,Назим Гасанов,M,73.2,117.5,135,-142.5,135,,135,75,B,Raw,Yes,Amateur Open,24,6
Andrey Rudoy,Андрей Рудой,M,74.5,122.5,135,-140,135,,135,75,B,Raw,Yes,Amateur Open,29,7
Kirill Surmach,Кирилл Сурмач,M,74.5,127.5,135,-140,135,,135,75,B,Raw,Yes,Amateur Open,29,8
Dmitriy Sudarev,Дмитрий Сударев,M,72.3,122.5,130,-135,130,,130,75,B,Raw,Yes,Amateur Open,26,9
Sergey Vorobev,Сергей Воробьев,M,70.2,110,117.5,-125,117.5,,117.5,75,B,Raw,Yes,Amateur Open,25,10
Daniil Chervyakov,Даниил Червяков,M,72.5,-117.5,117.5,-125,117.5,,117.5,75,B,Raw,Yes,Amateur Open,26,11
Viktor Logutov,Виктор Логутов,M,73.7,112.5,117.5,-120,117.5,,117.5,75,B,Raw,Yes,Amateur Open,32,12
Edvard Dyakov,Эдвард Дьяков,M,73,105,-110,-110,105,,105,75,B,Raw,Yes,Amateur Open,28,13
Yuriy Pokazanev,Юрий Показаньев,M,70.4,100,-107.5,-107.5,100,,100,75,B,Raw,Yes,Amateur Open,31,14
Aleksey Kornienko,Алексей Корниенко,M,74,77.5,-82.5,-82.5,77.5,,77.5,75,B,Raw,Yes,Amateur Open,32,15
Oleg Mezhov,Олег Межов,M,72.7,-130,-130,-130,,,,75,B,Raw,Yes,Amateur Open,30,DQ
Sergey Artyushenko,Сергей Артюшенко,M,73.1,-117.5,-117.5,-117.5,,,,75,B,Raw,Yes,Amateur Open,37,DQ
Sergey Khalkvist,Сергей Халквист,M,74,-100,-100,-100,,,,75,B,Raw,Yes,Amateur Open,38,DQ
Aleksandr Umerenkov,Александр Умеренков,M,74.4,-112.5,-112.5,-112.5,,,,75,B,Raw,Yes,Amateur Open,35,DQ
Matvey Gortsovskiy,Матвей Горцовский,M,81.5,100,127.5,-130,127.5,,127.5,82.5,B,Raw,Yes,Amateur Teen 13-15,15,1
Viktor Yuferov,Виктор Юферов,M,79,82.5,87.5,-90,87.5,,87.5,82.5,B,Raw,Yes,Amateur Teen 16-17,17,1
Ilya Pudonin,Илья Пудонин,M,78.7,75,-77.5,-77.5,75,,75,82.5,B,Raw,Yes,Amateur Teen 16-17,16,2
Vladislav Povetev,Владислав Поветьев,M,78.2,130,-135,135,135,,135,82.5,B,Raw,Yes,Amateur Teen 18-19,19,1
Valeriy Sokolov #2,Валерий Соколов,M,79.4,122.5,127.5,,127.5,,127.5,82.5,B,Raw,Yes,Amateur Teen 18-19,19,2
Vsevolod Emelyanov,Всеволод Емельянов,M,81,-110,120,,120,,120,82.5,B,Raw,Yes,Amateur Teen 18-19,18,3
Roman Bukalov,Роман Букалов,M,80,140,150,-155,150,,150,82.5,B,Raw,Yes,Amateur Juniors 20-23,22,1
Daniel Lobachev,Даниэл Лобачев,M,81.4,-127.5,-127.5,127.5,127.5,,127.5,82.5,B,Raw,Yes,Amateur Juniors 20-23,23,2
Vasiliy Perov,Василий Перов,M,81.9,160,167.5,-172.5,167.5,,167.5,82.5,B,Raw,Yes,Amateur Open,38,1
Igor Konoplev,Игорь Коноплев,M,80,145,150,-157.5,150,,150,82.5,B,Raw,Yes,Amateur Open,24,2
Valeriy Ruban,Валерий Рубан,M,81,150,-155,-157.5,150,,150,82.5,B,Raw,Yes,Amateur Open,27,3
Andrey Grebyonkin,Андрей Гребёнкин,M,82.4,145,-147.5,147.5,147.5,,147.5,82.5,B,Raw,Yes,Amateur Open,36,4
Aleksandr Naumov,Александр Наумов,M,78.5,140,145,-147.5,145,,145,82.5,B,Raw,Yes,Amateur Open,37,5
Evgeniy Dolgosheev,Евгений Долгошеев,M,81.8,145,-150,-150,145,,145,82.5,B,Raw,Yes,Amateur Open,31,6
Dmitriy Chesnokov,Дмитрий Чесноков,M,82.5,130,140,-145,140,,140,82.5,B,Raw,Yes,Amateur Open,28,7
Dmitriy Veselov,Дмитрий Веселов,M,81.4,127.5,132.5,137.5,137.5,,137.5,82.5,B,Raw,Yes,Amateur Open,33,8
Aleksey Kozhevnikov,Алексей Кожевников,M,81.2,135,-145,-145,135,,135,82.5,B,Raw,Yes,Amateur Open,33,9
Stanislav Khokhlov,Станислав Хохлов,M,81.4,127.5,135,-145,135,,135,82.5,B,Raw,Yes,Amateur Open,34,10
Pavel Gaponenko,Павел Гапоненко,M,80.4,125,130,132.5,132.5,,132.5,82.5,B,Raw,Yes,Amateur Open,32,11
Igor Kozlov #2,Игорь Козлов,M,82.4,122.5,127.5,132.5,132.5,,132.5,82.5,B,Raw,Yes,Amateur Open,26,12
Nikolay Maslennikov,Николай Масленников,M,78.8,130,-140,-140,130,,130,82.5,B,Raw,Yes,Amateur Open,24,13
Denis Kafiev,Денис Кафиев,M,79.2,-127.5,127.5,,127.5,,127.5,82.5,B,Raw,Yes,Amateur Open,26,14
Ilya Bolshakov,Илья Большаков,M,77.3,-112.5,112.5,122.5,122.5,,122.5,82.5,B,Raw,Yes,Amateur Open,25,15
Aleksey Trofimov,Алексей Трофимов,M,80.9,-127.5,-127.5,-127.5,,,,82.5,B,Raw,Yes,Amateur Open,32,DQ
Vasiliy Prokhorov,Василий Прохоров,M,82.5,-145,-145,-145,,,,82.5,B,Raw,Yes,Amateur Open,26,DQ
Andrey Shalenikov,Андрей Шалеников,M,80.3,130,135,-140,135,,135,82.5,B,Raw,Yes,Amateur Masters 40-44,43,1
Nikolay Krasnov,Николай Краснов,M,81.9,150,160,-170,160,,160,82.5,B,Raw,Yes,Amateur Masters 55-59,56,1
Aleksandr Pogosov,Александр Погосов,M,88.6,50,-60,-60,50,,50,90,B,Raw,Yes,Amateur Teen 13-15,14,1
Denis Maklakov,Денис Маклаков,M,85.1,95,100,-102.5,100,,100,90,B,Raw,Yes,Amateur Teen 18-19,19,1
Aleksey Evteev,Алексей Евтеев,M,89,170,-177.5,-177.5,170,,170,90,B,Raw,Yes,Amateur Juniors 20-23,22,1
Anton Khanenko,Антон Ханенко,M,88.4,155,160,165,165,,165,90,B,Raw,Yes,Amateur Juniors 20-23,21,2
Vlad Gevorgyan,Влад Геворгян,M,87,152.5,-157.5,157.5,157.5,,157.5,90,B,Raw,Yes,Amateur Juniors 20-23,23,3
Sergey Belmesov,Сергей Бельмесов,M,88.2,152.5,-155,-155,152.5,,152.5,90,B,Raw,Yes,Amateur Juniors 20-23,23,4
Andrey Bluzhin,Андрей Блужин,M,87.2,-140,-140,140,140,,140,90,B,Raw,Yes,Amateur Juniors 20-23,23,5
Maksim Mukhin,Максим Мухин,M,83.5,-120,132.5,-135,132.5,,132.5,90,B,Raw,Yes,Amateur Juniors 20-23,23,6
Sergey Ovsyannikov,Сергей Овсянников,M,87.3,160,165,167.5,167.5,,167.5,90,B,Raw,Yes,Amateur Open,37,1
Aleksandr Kozlov,Александр Козлов,M,89.2,155,160,165,165,,165,90,B,Raw,Yes,Amateur Open,34,2
Maksim Kuznetsov,Максим Кузнецов,M,88.2,152.5,157.5,160,160,,160,90,B,Raw,Yes,Amateur Open,29,3
Vadim Shabanov,Вадим Шабанов,M,88.9,152.5,160,-167.5,160,,160,90,B,Raw,Yes,Amateur Open,45,4
Aleksandr Komissarov,Александр Комиссаров,M,89.7,150,157.5,-162.5,157.5,,157.5,90,B,Raw,Yes,Amateur Open,27,5
Artyom Beglyarov,Артём Бегляров,M,88.6,-155,155,-165,155,,155,90,B,Raw,Yes,Amateur Open,31,6
Aleksey Pustovoytov,Алексей Пустовойтов,M,88.7,-155,155,-160,155,,155,90,B,Raw,Yes,Amateur Open,32,7
Sergey Pigrov,Сергей Пигров,M,89.9,147.5,152.5,155,155,,155,90,B,Raw,Yes,Amateur Open,38,8
Aleksey Smirnov,Алексей Смирнов,M,85.6,145,152.5,-155,152.5,,152.5,90,B,Raw,Yes,Amateur Open,34,9
Dmitriy Tereshchenko,Дмитрий Терещенко,M,88.3,142.5,152.5,-157.5,152.5,,152.5,90,B,Raw,Yes,Amateur Open,27,10
Konstantin Medvedev,Константин Медведев,M,88.8,152.5,-157.5,,152.5,,152.5,90,B,Raw,Yes,Amateur Open,28,11
Grigoriy Aksenov,Григорий Аксенов,M,89.1,140,152.5,-155,152.5,,152.5,90,B,Raw,Yes,Amateur Open,28,12
Stanislav Zolkin,Станислав Золкин,M,87.4,142.5,-152.5,-152.5,142.5,,142.5,90,B,Raw,Yes,Amateur Open,28,13
Nazar Nikiforov,Назар Никифоров,M,87.9,132.5,135,140,140,,140,90,B,Raw,Yes,Amateur Open,33,14
Vadim Grishkov,Вадим Гришков,M,87.8,132.5,137.5,-142.5,137.5,,137.5,90,B,Raw,Yes,Amateur Open,29,15
Aleksandr Davydov,Александр Давыдов,M,85.7,135,-145,-145,135,,135,90,B,Raw,Yes,Amateur Open,27,16
Maksim Knyazev,Максим Князев,M,86.4,132.5,-135,135,135,,135,90,B,Raw,Yes,Amateur Open,30,17
Andrey Denisov,Андрей Денисов,M,86.6,132.5,135,-137.5,135,,135,90,B,Raw,Yes,Amateur Open,26,18
Grigoriy Biryukov,Григорий Бирюков,M,90,-135,135,-140,135,,135,90,B,Raw,Yes,Amateur Open,37,19
Andrey Delyanu,Андрей Деляну,M,87.9,127.5,132.5,-135,132.5,,132.5,90,B,Raw,Yes,Amateur Open,37,20
Aleksandr Morozov,Александр Морозов,M,88.3,132.5,-140,-140,132.5,,132.5,90,B,Raw,Yes,Amateur Open,30,21
Vladimir Postika,Владимир Постика,M,88.6,-120,132.5,-137.5,132.5,,132.5,90,B,Raw,Yes,Amateur Open,37,22
Aleksey Gerasimov,Алексей Герасимов,M,86.8,120,127.5,-132.5,127.5,,127.5,90,B,Raw,Yes,Amateur Open,26,23
Eduard Boyko,Эдуард Бойко,M,88.3,125,-132.5,-132.5,125,,125,90,B,Raw,Yes,Amateur Open,26,24
Andrey Belov,Андрей Белов,M,88.3,-120,120,-125,120,,120,90,B,Raw,Yes,Amateur Open,36,25
Dmitriy Antoshko,Дмитрий Антошко,M,89.7,-110,115,-120,115,,115,90,B,Raw,Yes,Amateur Open,29,26
Andrey Lukyanov,Андрей Лукьянов,M,86.1,-152.5,-152.5,,,,,90,B,Raw,Yes,Amateur Open,27,DQ
Igor Markin #1,Игорь Маркин,M,88.5,-125,-125,-132.5,,,,90,B,Raw,Yes,Amateur Open,33,DQ
Evgeniy Zakharov,Евгений Захаров,M,89.9,-132.5,-132.5,-132.5,,,,90,B,Raw,Yes,Amateur Open,26,DQ
Vadim Shabanov,Вадим Шабанов,M,88.9,152.5,160,-167.5,160,,160,90,B,Raw,Yes,Amateur Masters 45-49,45,1
Yuriy Lyubach,Юрий Любач,M,88.7,132.5,137.5,-140,137.5,,137.5,90,B,Raw,Yes,Amateur Masters 45-49,48,2
Sergey Nazarenko,Сергей Назаренко,M,86.3,-132.5,132.5,-140,132.5,,132.5,90,B,Raw,Yes,Amateur Masters 45-49,49,3
Mikhail Vetrenko,Михаил Ветренко,M,98.8,140,145,-150,145,,145,100,B,Raw,Yes,Amateur Teen 18-19,19,1
Maksim Vorobev,Максим Воробьев,M,98.2,162.5,-170,-170,162.5,,162.5,100,B,Raw,Yes,Amateur Juniors 20-23,21,1
Egor Sorokin,Егор Сорокин,M,97.3,140,-142.5,-142.5,140,,140,100,B,Raw,Yes,Amateur Juniors 20-23,22,2
Vladislav Khaustov,Владислав Хаустов,M,98.7,-140,-140,140,140,,140,100,B,Raw,Yes,Amateur Juniors 20-23,22,3
Anton Sgibnev,Антон Сгибнев,M,97.7,170,180,190,190,,190,100,B,Raw,Yes,Amateur Open,31,1
Andrey Pirogov,Андрей Пирогов,M,99.1,170,180,-190,180,,180,100,B,Raw,Yes,Amateur Open,30,2
Denis Varyatkin,Денис Варяткин,M,97.5,165,172.5,177.5,177.5,,177.5,100,B,Raw,Yes,Amateur Open,25,3
Vladimir Mozharov,Владимир Можаров,M,98.5,-170,172.5,177.5,177.5,,177.5,100,B,Raw,Yes,Amateur Open,26,4
Maksim Lozovoy,Максим Лозовой,M,98.6,165,170,-172.5,170,,170,100,B,Raw,Yes,Amateur Open,39,5
Andrey Zhegulin,Андрей Жегулин,M,98,160,165,-175,165,,165,100,B,Raw,Yes,Amateur Open,36,6
Petr Viniychuk,Петр Винийчук,M,97.5,-152.5,157.5,162.5,162.5,,162.5,100,B,Raw,Yes,Amateur Open,28,7
Sergey Verzilov,Сергей Верзилов,M,98.1,147.5,157.5,162.5,162.5,,162.5,100,B,Raw,Yes,Amateur Open,30,8
Evgeniy Ivakin,Евгений Ивакин,M,99.2,150,162.5,,162.5,,162.5,100,B,Raw,Yes,Amateur Open,31,9
Roman Tovpeko,Роман Товпеко,M,99.8,155,-162.5,-162.5,155,,155,100,B,Raw,Yes,Amateur Open,36,10
Aleksandr Khayurov,Александр Хаюров,M,96.4,130,140,150,150,,150,100,B,Raw,Yes,Amateur Open,25,11
Maksim Maslennikov,Максим Масленников,M,97.1,-150,150,-162.5,150,,150,100,B,Raw,Yes,Amateur Open,29,12
Vladimir Korolevich,Владимир Королевич,M,97.7,-140,140,145,145,,145,100,B,Raw,Yes,Amateur Open,32,13
Sergey Tsarev,Сергей Царев,M,98.2,142.5,-147.5,-147.5,142.5,,142.5,100,B,Raw,Yes,Amateur Open,26,14
Vyacheslav Lysenko,Вячеслав Лысенко,M,94.7,130,-135,140,140,,140,100,B,Raw,Yes,Amateur Open,26,15
Mikhail Kovalev,Михаил Ковалев,M,97.5,140,-150,-150,140,,140,100,B,Raw,Yes,Amateur Open,33,16
Teymuraz Vashakmadze,Теймураз Вашакмадзе,M,98.5,135,-140,-140,135,,135,100,B,Raw,Yes,Amateur Open,35,17
Oleg Yakushev,Олег Якушев,M,96.5,-152.5,-157.5,-157.5,,,,100,B,Raw,Yes,Amateur Open,27,DQ
Sultan Makilov,Султан Макилов,M,96.9,-135,-135,-135,,,,100,B,Raw,Yes,Amateur Open,37,DQ
Andrey Kildyushkin,Андрей Кильдюшкин,M,97.6,132.5,140,142.5,142.5,,142.5,100,B,Raw,Yes,Amateur Masters 40-44,44,1
Mikhail Alekhin,Михаил Алехин,M,94,140,-150,150,150,,150,100,B,Raw,Yes,Amateur Masters 45-49,47,1
Vladlen Gladchenko,Владлен Гладченко,M,97.9,140,145,147.5,147.5,,147.5,100,B,Raw,Yes,Amateur Masters 45-49,46,2
Andrey Ezhkov,Андрей Ежков,M,97.9,130,135,-140,135,,135,100,B,Raw,Yes,Amateur Masters 45-49,49,3
Igor Usachev,Игорь Усачев,M,96.2,135,145,155,155,,155,100,B,Raw,Yes,Amateur Masters 50-54,51,1
Sergey Nazarov,Сергей Назаров,M,106.6,-120,-135,150,150,,150,110,B,Raw,Yes,Amateur Teen 18-19,18,1
Pavel Ermakov,Павел Ермаков,M,100.6,160,167.5,170,170,,170,110,B,Raw,Yes,Amateur Juniors 20-23,22,1
Aleksandr Lobanov,Александр Лобанов,M,102.4,162.5,-167.5,-167.5,162.5,,162.5,110,B,Raw,Yes,Amateur Juniors 20-23,23,2
Vladislav Mikalauskiy,Владислав Микалауский,M,108.7,150,160,-167.5,160,,160,110,B,Raw,Yes,Amateur Juniors 20-23,22,3
Daniil Kildyushkin,Даниил Кильдюшкин,M,106.5,140,147.5,155,155,,155,110,B,Raw,Yes,Amateur Juniors 20-23,20,4
Maksim Skoropupov,Максим Скоропупов,M,106.2,175,182.5,-190,182.5,,182.5,110,B,Raw,Yes,Amateur Open,29,1
Yan Zhurkin,Ян Журкин,M,103.5,167.5,172.5,175,175,,175,110,B,Raw,Yes,Amateur Open,31,2
Vsevolod Rogovtsev,Всеволод Роговцев,M,101.1,167.5,-175,-175,167.5,,167.5,110,B,Raw,Yes,Amateur Open,38,3
Farkhad Sibgatullin,Фархад Сибгатуллин,M,108.1,-162.5,162.5,167.5,167.5,,167.5,110,B,Raw,Yes,Amateur Open,36,4
Valeriy Seleznev,Валерий Селезнев,M,109.8,162.5,167.5,-172.5,167.5,,167.5,110,B,Raw,Yes,Amateur Open,24,5
Vladimir Lazarev,Владимир Лазарев,M,100.1,157.5,-165,-167.5,157.5,,157.5,110,B,Raw,Yes,Amateur Open,37,6
Arslan Isabekov,Арслан Исабеков,M,104.8,147.5,-150,150,150,,150,110,B,Raw,Yes,Amateur Open,37,7
Roman Ushakov,Роман Ушаков,M,108.2,137.5,-145,-145,137.5,,137.5,110,B,Raw,Yes,Amateur Open,32,8
Eduard Vinogradov,Эдуард Виноградов,M,109,180,190,195,195,,195,110,B,Raw,Yes,Amateur Masters 40-44,42,1
Sergey Lipovskiy,Сергей Липовский,M,100.4,150,170,172.5,172.5,,172.5,110,B,Raw,Yes,Amateur Masters 40-44,41,2
Aleksey Kovalskiy,Алексей Ковальский,M,104.2,-150,160,167.5,167.5,,167.5,110,B,Raw,Yes,Amateur Masters 40-44,41,3
Mikhail Stroilov,Михаил Строилов,M,108.2,140,147.5,-150,147.5,,147.5,110,B,Raw,Yes,Amateur Masters 40-44,41,4
Dmitriy Kireev,Дмитрий Киреев,M,108.9,160,165,-167.5,165,,165,110,B,Raw,Yes,Amateur Masters 45-49,47,1
Aleksey Frolov,Алексей Фролов,M,120.2,-155,155,-160,155,,155,125,B,Raw,Yes,Amateur Juniors 20-23,22,1
Aleksandr Oreshkin,Александр Орешкин,M,124.7,190,197.5,-202.5,197.5,,197.5,125,B,Raw,Yes,Amateur Open,34,1
Ivan Tsygankov,Иван Цыганков,M,119.3,155,-167.5,167.5,167.5,,167.5,125,B,Raw,Yes,Amateur Open,29,2
Aleksandr Buyanov,Александр Буянов,M,117.2,137.5,140,-142.5,140,,140,125,B,Raw,Yes,Amateur Open,37,3
Igor Bychkov,Игорь Бычков,M,114.5,160,170,-180,170,,170,125,B,Raw,Yes,Amateur Masters 45-49,46,1
Vladimir Chubarov,Владимир Чубаров,M,122.5,165,172.5,-177.5,172.5,,172.5,125,B,Raw,Yes,Amateur Masters 50-54,53,1
Sergey Kanygin,Сергей Каныгин,M,136.8,170,177.5,182.5,182.5,,182.5,140,B,Raw,Yes,Amateur Masters 50-54,51,1
Roman Mishurenkov,Роман Мишуренков,M,140.1,200,210,220,220,,220,140+,B,Raw,Yes,Amateur Open,35,1
Aleksandr Lyubtsov,Александр Любцов,M,159.8,140,150,155,155,,155,140+,B,Raw,Yes,Amateur Open,32,2
Ilya Filin,Илья Филин,M,85.6,230,240,-245,240,,240,90,B,Multi-ply,No,Pro Open,28,1
Pavel Chidingov,Павел Чидингов,M,112.4,-240,240,-250,240,,240,125,B,Multi-ply,No,Pro Open,47,4
Alexey Brazhkin,Алексей Бражкин,M,122.7,-240,240,-250,240,,240,125,B,Raw,No,Pro Masters 45-49,46,1
Alla Pugovkina,Алла Пуговкина,F,89.8,-160,-160,-160,,,,90,B,Single-ply,No,Pro Open,41,DQ
Yuriy Tikhov,Юрий Тихов,M,82,165,175,-190,175,,175,82.5,B,Single-ply,No,Pro Open,33,1
Ilya Uglichin,Илья Угличин,M,88.6,230,-235,-237.5,230,,230,90,B,Single-ply,No,Pro Open,30,1
Sergey Tesaruk,Сергей Тесарук,M,98.3,240,-250,-250,240,,240,100,B,Single-ply,No,Pro Open,32,1
Denis Karpov,Денис Карпов,M,99.1,200,-215,215,215,,215,100,B,Single-ply,No,Pro Open,36,2
Vladimir Peshko,Владимир Пешко,M,97.7,-225,-225,225,225,,225,100,B,Single-ply,No,Pro Masters 45-49,47,1
Oleg Pivovarov,Олег Пивоваров,M,107.8,227.5,235,242.5,242.5,,242.5,110,B,Single-ply,No,Pro Open,54,1
Irina Myagkova,Ирина Мягкова,F,51.5,40,-42.5,42.5,42.5,,42.5,52,B,Raw,No,Pro Open,27,1
Olga Gracheva,Ольга Грачева,F,65.2,70,75,-77.5,75,,75,67.5,B,Raw,No,Pro Open,38,1
Ekaterina Selina,Екатерина Селина,F,71.6,-90,-92.5,-92.5,,,,75,B,Raw,No,Pro Open,25,DQ
Ruslan Rozanov,Руслан Розанов,M,67.3,142.5,147.5,152.5,152.5,,152.5,67.5,B,Raw,No,Pro Open,31,1
Aleksandr Rumyantsev,Александр Румянцев,M,63.9,75,-82.5,-85,75,,75,67.5,B,Raw,No,Pro Open,25,2
Nikolay Masnukha,Николай Маснуха,M,74.2,150,-160,-160,150,,150,75,B,Raw,No,Pro Open,34,1
Nikolay Gagulin,Николай Гагулин,M,73.3,135,-140,-150,135,,135,75,B,Raw,No,Pro Open,26,2
Nikolay Petrokovich,Николай Петрокович,M,74.7,120,125,-130,125,,125,75,B,Raw,No,Pro Open,37,3
Yuriy Ermolin,Юрий Ермолин,M,75,100,-110,-110,100,,100,75,B,Raw,No,Pro Masters 60-64,64,1
Nikolay Ionov,Николай Ионов,M,73.6,90,100,-110,100,,100,75,B,Raw,No,Pro Masters 65-69,67,1
Nikolay Vetrov,Николай Ветров,M,74.4,77.5,80,82.5,82.5,,82.5,75,B,Raw,No,Pro Masters 70-74,71,1
Ilya Kashlin,Илья Кашлин,M,80,-147.5,-147.5,-147.5,,,,82.5,B,Raw,No,Pro Juniors 20-23,23,DQ
Anton Ozerov,Антон Озеров,M,81.1,-152.5,155,160,160,,160,82.5,B,Raw,No,Pro Open,30,1
Yuriy Raspopov,Юрий Распопов,M,77.7,140,150,155,155,,155,82.5,B,Raw,No,Pro Open,24,2
Igor Rybko,Игорь Рыбко,M,80.4,145,152.5,-157.5,152.5,,152.5,82.5,B,Raw,No,Pro Open,25,3
Amir Khusnetdinov,Амир Хуснетдинов,M,79,105,115,-120,115,,115,82.5,B,Raw,No,Pro Masters 65-69,69,1
Egor Kiselyov,Егор Киселёв,M,84.8,47.5,50,52.5,52.5,,52.5,90,B,Raw,No,Pro Youth,11,1
Sergey Timchenko,Сергей Тимченко,M,84.1,197.5,-207.5,-207.5,197.5,,197.5,90,B,Raw,No,Pro Open,37,1
Vadim Aksenchik,Вадим Аксенчик,M,88,170,180,185,185,,185,90,B,Raw,No,Pro Open,34,2
Sergey Gavrilyuk,Сергей Гаврилюк,M,88.8,170,175,180,180,,180,90,B,Raw,No,Pro Open,28,3
Stanislav Smirnov,Станислав Смирнов,M,87.1,155,160,165,165,,165,90,B,Raw,No,Pro Open,39,4
Lev Egiazaryan,Лев Егиазарян,M,88.7,-160,160,-180,160,,160,90,B,Raw,No,Pro Open,33,5
Nikolay Kostev,Николай Костев,M,84.2,145,-155,-155,145,,145,90,B,Raw,No,Pro Open,57,6
Oleg Dymov,Олег Дымов,M,86.5,145,150,,150,,150,90,B,Raw,No,Pro Masters 45-49,47,1
Nikolay Kostev,Николай Костев,M,84.2,145,-155,-155,145,,145,90,B,Raw,No,Pro Masters 55-59,57,1
Aleksandr Sidelnikov,Александр Сидельников,M,94.7,155,-165,-165,155,,155,100,B,Raw,No,Pro Teen 18-19,19,1
Andrey Kondratyuk,Андрей Кондратюк,M,94.2,-145,145,-150,145,,145,100,B,Raw,No,Pro Juniors 20-23,23,1
Vladimir Efremenkov,Владимир Ефременков,M,95,125,135,-140,135,,135,100,B,Raw,No,Pro Juniors 20-23,20,2
Sergey Zaytsev,Сергей Зайцев,M,99,190,200,205,205,,205,100,B,Raw,No,Pro Open,31,1
Evgeniy Zaytsev,Евгений Зайцев,M,97.8,185,192.5,-195,192.5,,192.5,100,B,Raw,No,Pro Open,27,2
Sergey Sidorov,Сергей Сидоров,M,97.5,190,-195,-195,190,,190,100,B,Raw,No,Pro Open,34,3
Aleksandr Kuznetsov #2,Александр Кузнецов,M,95.7,155,165,-170,165,,165,100,B,Raw,No,Pro Open,39,4
Vyacheslav Lysenko,Вячеслав Лысенко,M,94.7,-130,,,,,,100,B,Raw,No,Pro Open,26,DQ
Kirill Krotov,Кирилл Кротов,M,97,-165,-165,,,,,100,B,Raw,No,Pro Open,26,DQ
Aleksandr Petrov,Александр Петров,M,94.2,170,-180,180,180,,180,100,B,Raw,No,Pro Masters 55-59,56,1
Dmitriy Frank,Дмитрий Франк,M,107.7,212.5,-227.5,-227.5,212.5,,212.5,110,B,Raw,No,Pro Juniors 20-23,22,1
Konstantin Komissarov,Константин Комиссаров,M,106.5,200,210,220,220,,220,110,B,Raw,No,Pro Open,31,1
Ivan Kozulya,Иван Козуля,M,104.8,200,207.5,210,210,,210,110,B,Raw,No,Pro Open,34,2
Vladimir Rykov,Владимир Рыков,M,107.1,-200,-200,-200,,,,110,B,Raw,No,Pro Open,28,DQ
Sergey Dyakonov,Сергей Дьяконов,M,101.5,155,-160,,155,,155,110,B,Raw,No,Pro Masters 55-59,59,1
Aleksandr Kuznetsov #1,Александр Кузнецов,M,117.2,240,250,255,255,,255,125,B,Raw,No,Pro Open,37,1
Sergey Trunilin,Сергей Трунилин,M,117.5,170,180,-190,180,,180,125,B,Raw,No,Pro Open,36,2
Stanislav Matveev,Станислав Матвеев,M,121.4,165,180,-185,180,,180,125,B,Raw,No,Pro Open,29,3
Aleksey Kucheryavenkov,Алексей Кучерявенков,M,112.8,170,-180,-180,170,,170,125,B,Raw,No,Pro Open,36,4
Alexey Kuzmin,Алексей Кузьмин,M,113.1,162.5,-167.5,-167.5,162.5,,162.5,125,B,Raw,No,Pro Masters 40-44,41,1
Yuriy Mishta,Юрий Мишта,M,122,170,175,180,180,,180,125,B,Raw,No,Pro Masters 55-59,58,1
Anton Volodko,Антон Володько,M,139.7,220,230,240,240,,240,140,B,Raw,No,Pro Open,35,1
Georgiy Darchiev,Георгий Дарчиев,M,135.5,205,215,-220,215,,215,140,B,Raw,No,Pro Open,39,2
Andrey Chernyshev,Андрей Чернышев,M,130.1,165,-175,175,175,,175,140,B,Raw,No,Pro Open,35,3
Aleksey Rayushkin,Алексей Раюшкин,M,127.8,-160,160,-180,160,,160,140,B,Raw,No,Pro Open,34,4
Mikhail Filin,Михаил Филин,M,141.6,180,182.5,-185,182.5,,182.5,140+,B,Raw,No,Pro Open,55,1
Mikhail Filin,Михаил Филин,M,141.6,180,182.5,-185,182.5,,182.5,140+,B,Raw,No,Pro Masters 55-59,55,1
