Tested,Equipment,Place,Name,Division,BirthYear,Country,BodyweightKg,Squat1Kg,Squat2Kg,Squat3Kg,Best3SquatKg,Bench1Kg,Bench2Kg,Bench3Kg,Best3BenchKg,Bench4Kg,Deadlift1Kg,Deadlift2Kg,Deadlift3Kg,Best3DeadliftKg,Deadlift4Kg,TotalKg,WeightClassKg,Sex,CyrillicName,Event
Yes,Wraps,1,Anna Efimova,Amateur Open,1992,Russia,51.8,75,85,-90,85,40,47.5,-50,47.5,,75,-90,,75,,207.5,52,F,Анна Ефимова,SBD
Yes,Wraps,1,Dmitriy Kurkin,Amateur Teen 16-17,2001,Russia,62.1,110,125,130,130,90,95,,95,,130,140,150,150,,375,67.5,M,Дмитрий Куркин,SBD
Yes,Wraps,DQ,Davit Arakelyan,Amateur Open,1989,Armenia,87.7,195,205,-215,205,-120,-120,-120,,,,,,,,,90,M,,SBD
Yes,Raw,1,Aurika Gavrilova,Amateur Open,1988,Latvia,46.9,100,-107.5,107.5,107.5,50,55,-57.5,55,,110,115,-120,115,,277.5,48,F,,SBD
Yes,Raw,1,Mariam Kalachyan,Amateur Open,1991,Russia,54.7,105,110,-115,110,50,-55,-55,50,,100,110,-112.5,110,,270,56,F,Мариам Калачян,SBD
Yes,Raw,DQ,Aleksey Kolisnichenko,Amateur Juniors 20-23,1994,Russia,48.3,-100,-100,-100,,,,,,,,,,,,,52,M,Алексей Колисниченко,SBD
Yes,Raw,1,Sergey Chistyakov,Amateur Open,1988,Russia,71.5,150,160,165,165,110,117.5,120,120,,150,165,170,170,,455,75,M,Сергей Чистяков,SBD
Yes,Raw,2,Aleksandr Volikov,Amateur Open,1989,Russia,72.6,-125,135,-150,135,-115,120,127.5,127.5,,150,170,177.5,177.5,,440,75,M,Александр Воликов,SBD
Yes,Raw,1,Artem Polyakov,Amateur Juniors 20-23,1994,Russia,80.9,180,-187.5,187.5,187.5,-122.5,122.5,-127.5,122.5,,230,237.5,245,245,,555,82.5,M,Артем Поляков,SBD
Yes,Raw,1,Nikita Drozdov,Amateur Open,1987,Russia,80.2,-135,-145,145,145,-95,-95,95,95,,150,165,180,180,,420,82.5,M,Никита Дроздов,SBD
Yes,Raw,1,Denis Balabin,Amateur Open,1978,Russia,88.6,180,195,210,210,120,130,137.5,137.5,,230,-245,-245,230,,577.5,90,M,Денис Балабин,SBD
Yes,Raw,2,Pavel Gerchoglo,Amateur Open,1989,Russia,89.5,195,207.5,-217.5,207.5,140,152.5,-157.5,152.5,,195,210,217.5,217.5,,577.5,90,M,Павел Герчогло,SBD
Yes,Raw,3,Dmitriy Demyanov,Amateur Open,1988,Russia,88.7,180,190,-192.5,190,115,125,-132.5,125,,-200,200,210,210,,525,90,M,Дмитрий Демьянов,SBD
Yes,Raw,4,Denis Savelyev,Amateur Open,1983,Russia,86.6,150,170,-175,170,100,115,-120,115,,180,195,210,210,,495,90,M,Денис Савельев,SBD
Yes,Raw,DQ,Nikita Prikhodko,Amateur Teen 16-17,2000,Russia,95.3,150,-160,-170,150,-135,-135,-135,,,,,,,,,100,M,Никита Приходько,SBD
Yes,Raw,1,Anton Sgibnev,Amateur Open,1986,Russia,94.4,240,250,260,260,170,180,-185,180,,250,260,-270,260,,700,100,M,Антон Сгибнев,SBD
Yes,Raw,2,Evgeniy Kaminskiy,Amateur Open,1991,Russia,98.1,220,230,-240,230,140,150,155,155,,250,270,280,280,,665,100,M,Евгений Каминский,SBD
Yes,Raw,1,Denis Shulga,Amateur Masters 40-44,1978,Russia,94.9,160,172.5,-177.5,172.5,115,125,127.5,127.5,,180,200,205,205,,505,100,M,Денис Шульга,SBD
Yes,Raw,1,Vadim Novikov,Amateur Teen 18-19,1998,Russia,109.3,200,-205,205,205,140,-142.5,142.5,142.5,,220,230,-242.5,230,,577.5,110,M,Вадим Новиков,SBD
Yes,Raw,1,Sergey Pereskokov,Amateur Open,1987,Russia,109.7,200,212.5,-225,212.5,135,145,152.5,152.5,,200,215,-220,215,,580,110,M,Сергей Перескоков,SBD
No,Wraps,1,Ekaterina Pogula,Pro Masters 45-49,1972,Russia,67.8,-75,-75,75,75,35,-37.5,-37.5,35,,70,77.5,82.5,82.5,,192.5,75,F,Екатерина Погула,SBD
No,Wraps,1,Sergey Alvanyan,Pro Open,1985,Armenia,87,200,215,-230,215,155,-162.5,-162.5,155,,-245,245,-260,245,,615,90,M,,SBD
No,Wraps,2,Komron Odinaev,Pro Open,1993,Russia,89.7,240,-250,,240,140,150,-155,150,,200,220,-230,220,,610,90,M,Комрон Одинаев,SBD
No,Wraps,3,Egor Artamonov,Pro Open,1992,Russia,89.6,-200,-200,200,200,-135,135,145,145,,-200,200,225,225,,570,90,M,Егор Артамонов,SBD
No,Wraps,1,Nikolay Pogorelyy,Pro Open,1993,Russia,97,240,260,280,280,145,-155,160,160,,270,290,-305,290,,730,100,M,Николай Погорелый,SBD
No,Wraps,2,Maksim Panfilov,Pro Open,1992,Russia,94.4,240,255,-270,255,150,165,175,175,,-200,220,230,230,,660,100,M,Максим Панфилов,SBD
No,Wraps,1,Vladimir Oleksenko,Pro Masters 45-49,1971,Russia,96.6,-220,240,-260,240,160,170,-180,170,,200,220,-230,220,,630,100,M,Владимир Олексенко,SBD
No,Wraps,1,Aleksandr Tsvetkov,Pro Masters 60-64,1957,Russia,99.8,200,220,230,230,115,120,125.5,125.5,,200,220,235,235,,590.5,100,M,Александр Цветков,SBD
No,Wraps,1,Mikhail Koptev,Pro Open,1991,Russia,106.7,-300,300,320,320,160,170,180,180,,290,310,320,320,,820,110,M,Михаил Коптев,SBD
No,Raw,1,Natalya Safarova,Pro Open,1988,Russia,73.6,130,140,150,150,62.5,67.5,70,70,,140,150,157.5,157.5,,377.5,75,F,Наталья Сафарова,SBD
No,Raw,1,Grigoriy Arbatov,Pro Open,1987,Russia,82.5,210,225,235,235,140,150,155,155,,235,250,260,260,,650,82.5,M,Григорий Арбатов,SBD
No,Raw,1,Sergey Sharshin,Pro Open,1986,Russia,87.8,-200,-200,200,200,165,170,-175,170,,220,235,-250,235,,605,90,M,Сергей Шаршин,SBD
Yes,Raw,1,Kseniya Kuznetsova,Amateur Open,1989,Russia,47.7,,,,,67.5,70,-72.5,70,,,,,,,70,48,F,Ксения Кузнецова,B
Yes,Raw,DQ,Anna Efimova,Amateur Open,1992,Russia,51.85,,,,,-47.5,-47.5,-50,,,,,,,,,52,F,Анна Ефимова,B
Yes,Raw,1,Anastasiya Egorova,Amateur Open,1993,Russia,55.3,,,,,37.5,-40,-40,37.5,,,,,,,37.5,56,F,Анастасия Егорова,B
Yes,Raw,1,Marina Lukyanova,Amateur Open,1972,Russia,65.6,,,,,95,100,-105,100,,,,,,,100,67.5,F,Марина Лукьянова,B
Yes,Raw,1,Marina Suntsova,Amateur Open,1985,Russia,72.5,,,,,-60,-65,65,65,,,,,,,65,75,F,Марина Сунцова,B
Yes,Raw,1,Tatyana Sivkovich,Amateur Masters 50-54,1965,Russia,101.4,,,,,85,90,-95,90,,,,,,,90,90+,F,Татьяна Сивкович,B
Yes,Raw,1,Dmitriy Klimovitskiy,Amateur Juniors 20-23,1994,Russia,63.7,,,,,105,107.5,110,110,,,,,,,110,67.5,M,Дмитрий Климовицкий,B
Yes,Raw,1,Denis Mikheev,Amateur Teen 16-17,2000,Russia,73.1,,,,,117.5,120,-125,120,,,,,,,120,75,M,Денис Михеев,B
Yes,Raw,2,Vladislav Chokheli,Amateur Teen 16-17,2000,Russia,71.8,,,,,80,90,-100,90,,,,,,,90,75,M,Владислав Чохели,B
Yes,Raw,1,Vladimir Pavlov,Amateur Teen 18-19,1999,Russia,73.6,,,,,80,85,90,90,,,,,,,90,75,M,Владимир Павлов,B
Yes,Raw,1,Aleksandr Kurbasov,Amateur Juniors 20-23,1995,Russia,72.7,,,,,100,110,112.5,112.5,,,,,,,112.5,75,M,Александр Курбасов,B
Yes,Raw,2,Aleksandr Pismenskiy,Amateur Juniors 20-23,1998,Russia,69.6,,,,,95,-105,105,105,,,,,,,105,75,M,Александр Писменский,B
Yes,Raw,1,Renat Izmaylov,Amateur Open,1993,Russia,74.7,,,,,130,135,137.5,137.5,,,,,,,137.5,75,M,Ренат Измайлов,B
Yes,Raw,2,Sergey Radushko,Amateur Open,1989,Russia,73.7,,,,,135,-145,-145,135,,,,,,,135,75,M,Сергей Радушко,B
Yes,Raw,3,Dmitriy Chesnokov,Amateur Open,1988,Russia,74.9,,,,,-130,135,-140,135,,,,,,,135,75,M,Дмитрий Чесноков,B
Yes,Raw,4,Sergey Chistyakov,Amateur Open,1988,Russia,71.5,,,,,110,117.5,-120,117.5,,,,,,,117.5,75,M,Сергей Чистяков,B
Yes,Raw,5,Maksim Putintsev,Amateur Open,1985,Russia,72.5,,,,,-117.5,117.5,,117.5,,,,,,,117.5,75,M,Максим Путинцев,B
Yes,Raw,6,Aleksandr Pronkin,Amateur Open,1987,Russia,72.6,,,,,110,117.5,,117.5,,,,,,,117.5,75,M,Александр Пронкин,B
Yes,Raw,7,Dmitriy Kozlov,Amateur Open,1990,Russia,73.5,,,,,117.5,-135,-135,117.5,,,,,,,117.5,75,M,Дмитрий Козлов,B
Yes,Raw,8,Denis Avdonin,Amateur Open,1990,Russia,74.3,,,,,112.5,117.5,-122.5,117.5,,,,,,,117.5,75,M,Денис Авдонин,B
Yes,Raw,DQ,Oleg Chernikov,Amateur Open,1992,Russia,72.3,,,,,-100,-105,-105,,,,,,,,,75,M,Олег Черников,B
Yes,Raw,1,Maksim Afonin,Amateur Masters 40-44,1975,Russia,74.5,,,,,105,117.5,-120,117.5,,,,,,,117.5,75,M,Максим Афонин,B
Yes,Raw,2,Valeriy Devaykin,Amateur Masters 40-44,1974,Russia,74.4,,,,,90,95,-100,95,,,,,,,95,75,M,Валерий Девайкин,B
Yes,Raw,1,Mihails Rapoports,Amateur Teen 18-19,1999,Latvia,79.3,,,,,145,150,152.5,152.5,,,,,,,152.5,82.5,M,,B
Yes,Raw,1,Timofey Chernyavskiy,Amateur Open,1985,Russia,80.3,,,,,165,170,175,175,,,,,,,175,82.5,M,Тимофей Чернявский,B
Yes,Raw,2,Aleksey Avdyunin,Amateur Open,1987,Russia,80.5,,,,,122.5,127.5,130,130,,,,,,,130,82.5,M,Алексей Авдюнин,B
Yes,Raw,3,Sergey Vorobyev,Amateur Open,1980,Russia,80.8,,,,,120,125,-127.5,125,,,,,,,125,82.5,M,Сергей Воробьев,B
Yes,Raw,4,Dmitriy Nikulin,Amateur Open,1980,Russia,82.5,,,,,-102.5,102.5,105,105,,,,,,,105,82.5,M,Дмитрий Никулин,B
Yes,Raw,1,Ruslan Izmaylov,Amateur Juniors 20-23,1997,Russia,88.9,,,,,145,-152.5,-152.5,145,,,,,,,145,90,M,Руслан Измайлов,B
Yes,Raw,1,Jeries Sayej,Amateur Open,1987,Russia,86.8,,,,,-152.5,155,165,165,,,,,,,165,90,M,Джериес Сайедж,B
Yes,Raw,2,Evgeniy Trishin,Amateur Open,1986,Russia,89.8,,,,,127.5,132.5,-135,132.5,,,,,,,132.5,90,M,Евгений Тришин,B
Yes,Raw,3,Dmitriy Sverdlov,Amateur Open,1990,Russia,86.1,,,,,110,120,-130,120,,,,,,,120,90,M,Дмитрий Свердлов,B
Yes,Raw,4,Rustam Musin,Amateur Open,1991,Russia,86.8,,,,,120,-132.5,-132.5,120,,,,,,,120,90,M,Рустам Мусин,B
Yes,Raw,DQ,Nikolay Lude,Amateur Open,1987,Russia,84.1,,,,,-152.5,-152.5,-152.5,,,,,,,,,90,M,Николай Луде,B
Yes,Raw,DQ,Dmitriy Tereschenko,Amateur Open,1989,Russia,88.6,,,,,-167.5,-175,-175,,,,,,,,,90,M,Дмитрий Терещенко,B
Yes,Raw,DQ,Maksim Bashkevich,Amateur Masters 40-44,1975,Russia,88.5,,,,,-145,-145,-145,,,,,,,,,90,M,Максим Башкевич,B
Yes,Raw,1,Vyacheslav Volkov,Amateur Masters 45-49,1971,Russia,89.3,,,,,160,170,-175,170,,,,,,,170,90,M,Вячеслав Волков,B
Yes,Raw,1,Igor Schetinin,Amateur Juniors 20-23,1994,Russia,99.5,,,,,165,175,-185,175,,,,,,,175,100,M,Игорь Щетинин,B
Yes,Raw,1,Vyacheslav Lysenko,Amateur Open,1990,Russia,99.7,,,,,155,160,-162.5,160,,,,,,,160,100,M,Вячеслав Лысенко,B
Yes,Raw,2,Mikhail Soluyanov,Amateur Open,1989,Russia,94.3,,,,,-150,150,-162.5,150,,,,,,,150,100,M,Михаил Солуянов,B
Yes,Raw,3,Dmitriy Chernyavskiy,Amateur Open,1985,Russia,96.9,,,,,140,-150,,140,,,,,,,140,100,M,Дмитрий Чернявский,B
Yes,Raw,1,Konstantin Yakushev,Amateur Masters 40-44,1975,Russia,94.1,,,,,120,130,-142.5,130,,,,,,,130,100,M,Константин Якушев,B
Yes,Raw,2,Aleksandr Serov,Amateur Masters 40-44,1974,Russia,95.9,,,,,120,130,-145,130,,,,,,,130,100,M,Александр Серов,B
Yes,Raw,1,Andrey Kulemin,Amateur Masters 50-54,1964,Russia,98.9,,,,,155,162.5,-170,162.5,,,,,,,162.5,100,M,Андрей Кулемин,B
Yes,Raw,2,Dmitriy Kalinovskiy,Amateur Masters 50-54,1967,Russia,98.6,,,,,110,115,-120,115,,,,,,,115,100,M,Дмитрий Калиновский,B
Yes,Raw,1,Viktor Smyshlyaev,Amateur Masters 55-59,1962,Russia,96.4,,,,,130,140,145,145,,,,,,,145,100,M,Виктор Смышляев,B
Yes,Raw,1,Maksim Polyakov,Amateur Open,1983,Russia,108.5,,,,,140,150,160,160,,,,,,,160,110,M,Максим Поляков,B
Yes,Raw,2,Aleksandr Gaydukov,Amateur Open,1992,Russia,108,,,,,150,-155,155,155,,,,,,,155,110,M,Александр Гайдуков,B
Yes,Raw,1,Viktor Gruntov,Amateur Masters 45-49,1972,Russia,108.5,,,,,180,-190,-195,180,,,,,,,180,110,M,Виктор Грунтов,B
Yes,Raw,2,Dmitriy Kireev,Amateur Masters 45-49,1969,Russia,108.5,,,,,-155,157.5,160,160,,,,,,,160,110,M,Дмитрий Киреев,B
Yes,Raw,3,Vladimir Efremov,Amateur Masters 65-69,1950,Russia,104.4,,,,,145,-155,-157.5,145,,,,,,,145,110,M,Владимир Ефремов,B
Yes,Raw,1,Sergey Merzhanovskiy,Amateur Masters 50-54,1967,Russia,102.8,,,,,165,175,-180,175,,,,,,,175,110,M,Сергей Мержановский,B
Yes,Raw,2,Yuriy Suvorov,Amateur Masters 50-54,1965,Russia,108.2,,,,,157.5,162.5,170,170,,,,,,,170,110,M,Юрий Суворов,B
Yes,Raw,3,Nikolay Agapov,Amateur Masters 50-54,1967,Russia,107.6,,,,,150,-165,167.5,167.5,,,,,,,167.5,110,M,Николай Агапов,B
Yes,Raw,1,Mikhail Nikolaev,Amateur Open,1961,Russia,121.5,,,,,180,190,195,195,-203,,,,,,195,125,M,Михаил Николаев,B
Yes,Raw,2,Firudin Niftullaev,Amateur Open,1988,Azerbaijan,110.6,,,,,185,-190,192.5,192.5,,,,,,,192.5,125,M,,B
Yes,Raw,1,Igor Bychkov,Amateur Masters 45-49,1970,Russia,114.8,,,,,170,172.5,-175,172.5,,,,,,,172.5,125,M,Игорь Бычков,B
Yes,Raw,1,Vladimir Chubarov,Amateur Masters 50-54,1964,Russia,122.1,,,,,172.5,-177.5,-177.5,172.5,,,,,,,172.5,125,M,Владимир Чубаров,B
Yes,Raw,1,Mikhail Nikolaev,Amateur Masters 55-59,1961,Russia,121.5,,,,,180,190,195,195,-203,,,,,,195,125,M,Михаил Николаев,B
Yes,Raw,1,Boris Trofimov,Amateur Masters 45-49,1972,Russia,152.2,,,,,230,242.5,,242.5,,,,,,,242.5,140+,M,Борис Трофимов,B
Yes,Single-ply,DQ,Stanislav Nevezhin,Amateur Open,1988,Russia,98,,,,,-187.5,-187.5,-187.5,,,,,,,,,100,M,Станислав Невежин,B
Yes,Unlimited,1,Viktor Smyshlyaev,Amateur Masters 55-59,1962,Russia,96.4,,,,,-190,-190,190,190,,,,,,,190,100,M,Виктор Смышляев,B
Yes,Raw,1,Elena Enina,Amateur Open,1980,Russia,51.9,,,,,,,,,,125,132.5,140,140,-143,140,52,F,Елена Енина,D
Yes,Raw,2,Tatyana Ataniyazova,Amateur Open,1983,Russia,51.2,,,,,,,,,,90,100,,100,,100,52,F,Татьяна Атаниязова,D
Yes,Raw,1,Lyudmila Omelchenko,Amateur Masters 40-44,1976,Russia,54.7,,,,,,,,,,-105,-105,105,105,,105,56,F,Людмила Омельченко,D
Yes,Raw,2,Lidiya Migaeva,Amateur Masters 40-44,1974,Russia,55.1,,,,,,,,,,90,100,105,105,,105,56,F,Лидия Мигаева,D
Yes,Raw,1,Aleksandra Bykova,Amateur Open,1989,Russia,59.1,,,,,,,,,,70,77.5,80,80,,80,60,F,Александра Быкова,D
Yes,Raw,1,Mariya Agulova,Amateur Teen 18-19,1999,Russia,64.5,,,,,,,,,,60,67.5,82.5,82.5,,82.5,67.5,F,Мария Агулова,D
Yes,Raw,1,Marina Kornienkova,Amateur Juniors 20-23,1996,Russia,65,,,,,,,,,,110,130,-140,130,,130,67.5,F,Марина Корниенкова,D
Yes,Raw,1,Elizaveta Polyakova,Amateur Teen 18-19,1998,Russia,69,,,,,,,,,,85,-95,-95,85,,85,75,F,Елизавета Полякова,D
Yes,Raw,1,Kseniya Platonova,Amateur Open,1984,Russia,74.4,,,,,,,,,,100,120,127.5,127.5,,127.5,75,F,Ксения Платонова,D
Yes,Raw,1,Marina Paliy,Amateur Open,1990,Russia,100,,,,,,,,,,110,120,130,130,,130,90+,F,Марина Палий,D
Yes,Raw,1,Aleksandr Rumyantsev,Amateur Masters 50-54,1966,Russia,67.2,,,,,,,,,,170,180,190,190,,190,67.5,M,Александр Румянцев,D
Yes,Raw,1,Dmitriy Trukhin,Amateur Teen 16-17,2001,Russia,73.7,,,,,,,,,,170,180,190,190,,190,75,M,Дмитрий Трухин,D
Yes,Raw,DQ,Roman Pichiuz,Amateur Juniors 20-23,1997,Russia,73.5,,,,,,,,,,-170,-170,,,,,75,M,Роман Пичиуз,D
Yes,Raw,1,Maksim Putintsev,Amateur Open,1985,Russia,72.7,,,,,,,,,,-180,180,202.5,202.5,,202.5,75,M,Максим Путинцев,D
Yes,Raw,2,Denis Avdonin,Amateur Open,1990,Russia,74.3,,,,,,,,,,170,180,190,190,,190,75,M,Денис Авдонин,D
Yes,Raw,1,Mikhail Buyakov,Amateur Masters 40-44,1974,Russia,74.3,,,,,,,,,,210,222.5,-232.5,222.5,,222.5,75,M,Михаил Буяков,D
Yes,Raw,1,Roman Yakovlev,Amateur Juniors 20-23,1996,Russia,77.4,,,,,,,,,,-185,185,192.5,192.5,,192.5,82.5,M,Роман Яковлев,D
Yes,Raw,1,Mikhail Myzenkov,Amateur Open,1985,Russia,82.4,,,,,,,,,,190,200,202.5,202.5,,202.5,82.5,M,Михаил Мызенков,D
Yes,Raw,2,Armen Nersisyan,Amateur Open,1994,Russia,81.5,,,,,,,,,,190,-200,200,200,,200,82.5,M,Армен Нерсисян,D
Yes,Raw,1,Ivan Kopyrin,Amateur Masters 50-54,1967,Russia,77.4,,,,,,,,,,170,180,-185,180,,180,82.5,M,Иван Копырин,D
Yes,Raw,1,Viktor Skokin,Amateur Masters 60-64,1957,Russia,78.4,,,,,,,,,,205,215,222.5,222.5,-227.5,222.5,82.5,M,Виктор Скокин,D
Yes,Raw,1,Ogannes Karapetyan,Amateur Open,1985,Russia,90,,,,,,,,,,250,270,285,285,,285,90,M,Оганнес Карапетян,D
Yes,Raw,2,Nikita Chirkov,Amateur Open,1987,Russia,88.9,,,,,,,,,,-210,210,222.5,222.5,,222.5,90,M,Никита Чирков,D
Yes,Raw,3,Sergey Kapkov,Amateur Open,1989,Russia,89,,,,,,,,,,165,170,-175,170,,170,90,M,Сергей Капков,D
Yes,Raw,1,Aleksandr Kornilenko,Amateur Masters 40-44,1975,Russia,88.3,,,,,,,,,,170,195,200,200,,200,90,M,Александр Корниленко,D
Yes,Raw,1,Andrey Zavizistup,Amateur Masters 45-49,1973,Russia,86.1,,,,,,,,,,195,210,222.5,222.5,,222.5,90,M,Андрей Завизиступ,D
Yes,Raw,1,Viktor Smyshlyaev,Amateur Masters 55-59,1962,Russia,96.4,,,,,,,,,,180,190,200,200,,200,100,M,Виктор Смышляев,D
Yes,Raw,1,Ruslan Mardonov,Amateur Open,1978,Russia,107.4,,,,,,,,,,240,-250,-250,240,,240,110,M,Руслан Мардонов,D
Yes,Raw,1,Aleksandr Smirnov,Amateur Masters 40-44,1974,Russia,109,,,,,,,,,,215,230,-232.5,230,,230,110,M,Александр Смирнов,D
Yes,Raw,1,Pavel Getsitskiy,Amateur Open,1991,Russia,131,,,,,,,,,,260,280,-308,280,,280,140,M,Павел Гецицкий,D
Yes,Single-ply,1,Aleksey Zinyagin,Amateur Open,1988,Russia,97.7,,,,,,,,,,220,242.5,250,250,,250,100,M,Алексей Зинягин,D
Yes,Multi-ply,1,Roman Pichiuz,Amateur Juniors 20-23,1997,Russia,73.5,,,,,,,,,,160,165,170,170,,170,75,M,Роман Пичиуз,D
No,Raw,1,Olga Bachmaga,Pro Open,1985,Russia,49.1,,,,,55,60,-65,60,,,,,,,60,52,F,Ольга Бачмага,B
No,Raw,1,Luchian Peledutse,Pro Teen 13-15,2004,Russia,54.8,,,,,47.5,52.5,-55,52.5,,,,,,,52.5,56,M,Лучиан Пэлэдуце,B
No,Raw,1,Dmitriy Engels,Pro Juniors 20-23,1997,Latvia,67,,,,,82.5,87.5,-92.5,87.5,,,,,,,87.5,67.5,M,,B
No,Raw,1,Georgi Chincharauli,Pro Open,1991,Russia,73.3,,,,,160,170,-182.5,170,,,,,,,170,75,M,Георги Чинчараули,B
No,Raw,1,Arvīds Sparbergs,Pro Masters 70-74,1945,Latvia,69.8,,,,,80,85,90,90,,,,,,,90,75,M,,B
No,Raw,1,Sergey Polyakov,Pro Open,1991,Russia,82.2,,,,,180,-185,190,190,,,,,,,190,82.5,M,Сергей Поляков,B
No,Raw,2,Andrey Rul,Pro Open,1982,Russia,80.5,,,,,120,,-140,120,,,,,,,120,82.5,M,Андрей Руль,B
No,Raw,1,Sergey Timchenko,Pro Open,1979,Russia,88.5,,,,,210,-217.5,-217.5,210,,,,,,,210,90,M,Сергей Тимченко,B
No,Raw,2,Pavel Akinshin,Pro Open,1986,Russia,87,,,,,200,-210,-210,200,,,,,,,200,90,M,Павел Акиньшин,B
No,Raw,3,Aleksey Armashov,Pro Open,1988,Russia,87.7,,,,,-147.5,-147.5,147.5,147.5,,,,,,,147.5,90,M,Алексей Армашов,B
No,Raw,DQ,Svyatoslav Dyagilev,Pro Open,1991,Russia,86.3,,,,,-160,-160,-160,,,,,,,,,90,M,Святослав Дягилев,B
No,Raw,1,Igor Samsonov,Pro Masters 45-49,1969,Russia,89,,,,,130,140,150,150,,,,,,,150,90,M,Игорь Самсонов,B
No,Raw,2,Eduards Saveļjevs,Pro Masters 45-49,1971,Latvia,86.5,,,,,-55,60,,60,,,,,,,60,90,M,,B
No,Raw,1,Denis Lazarev,Pro Teen 13-15,2003,Russia,92.2,,,,,65,-70,70,70,,,,,,,70,100,M,Денис Лазарев,B
No,Raw,1,Pavel Molotievskiy,Pro Teen 18-19,1998,Russia,94.1,,,,,140,-145,-147.5,140,,,,,,,140,100,M,Павел Молотиевский,B
No,Raw,1,Nofar Dzhafarov,Pro Open,1989,Russia,98.5,,,,,215,220,-225,220,,,,,,,220,100,M,Нофар Джафаров,B
No,Raw,2,Anton Belov,Pro Open,1985,Russia,97.8,,,,,210,-215,-215,210,,,,,,,210,100,M,Антон Белов,B
No,Raw,3,Ilya Snezhkov,Pro Open,1989,Russia,94.3,,,,,195,-200,-200,195,,,,,,,195,100,M,Илья Снежков,B
No,Raw,4,Aysa Toksharov,Pro Open,1980,Russia,95,,,,,137.5,145,-150,145,,,,,,,145,100,M,Айса Токшаров,B
No,Raw,1,Denis Yablokov,Pro Masters 40-44,1976,Russia,93.1,,,,,110,135,-142.5,135,,,,,,,135,100,M,Денис Яблоков,B
No,Raw,1,Alexander Petrov,Pro Masters 55-59,1960,Russia,94.5,,,,,170,-180,182.5,182.5,,,,,,,182.5,100,M,Александр Петров,B
No,Raw,1,Aleksandr Kiryanov,Pro Open,1975,Russia,105.3,,,,,230,235,,235,,,,,,,235,110,M,Александр Кирьянов,B
No,Raw,DQ,Vladimir Uvetov,Pro Open,1979,Russia,104.3,,,,,-227.5,-227.5,-227.5,,,,,,,,,110,M,Владимир Уветов,B
No,Raw,DQ,Daniil Krasilnikov,Pro Open,1991,Russia,107.3,,,,,-227.5,-227.5,-227.5,,,,,,,,,110,M,Даниил Красильников,B
No,Raw,DQ,Viktor Klimov,Pro Open,1975,Russia,118.3,,,,,-202.5,-202.5,-202.5,,,,,,,,,125,M,Виктор Климов,B
No,Raw,DQ,Viktor Klimov,Pro Masters 40-44,1975,Russia,118.3,,,,,-202.5,-202.5,-202.5,,,,,,,,,125,M,Виктор Климов,B
No,Raw,1,Georgiy Darchiev,Pro Open,1977,Russia,137.3,,,,,-220,230,-240,230,,,,,,,230,140,M,Георгий Дарчиев,B
No,Single-ply,DQ,Mikhail Efimischev,Pro Juniors 20-23,1994,Russia,73.8,,,,,-192.5,-192.5,-192.5,,,,,,,,,75,M,Михаил Ефимищев,B
No,Multi-ply,1,Aysa Toksharov,Pro Open,1980,Russia,95,,,,,137.5,145,-150,145,,,,,,,145,100,M,Айса Токшаров,B
No,Unlimited,1,Aleksandr Tsvetkov,Pro Masters 60-64,1957,Russia,99.8,,,,,160,175,-180,175,,,,,,,175,100,M,Александр Цветков,B
No,Unlimited,1,Aleksandr Kanaev,Pro Open,1988,Russia,117.1,,,,,320,-340,-340,320,,,,,,,320,125,M,Александр Канаев,B
No,Unlimited,1,Yuriy Demyanchuk,Pro Open,1978,Russia,131.2,,,,,280,300,,300,,,,,,,300,140,M,Юрий Демьянчук,B
No,Raw,1,Siranush Papikyan,Pro Open,1994,Russia,62.3,,,,,,,,,,150,-160,-160,150,,150,67.5,F,Сирануш Папикян,D
No,Raw,1,Vladimir Berdnikov,Pro Open,1987,Russia,75,,,,,,,,,,195,205,210,210,,210,75,M,Владимир Бердников,D
No,Raw,1,Aleksey Armashov,Pro Open,1988,Russia,87.7,,,,,,,,,,-225,225,235,235,,235,90,M,Алексей Армашов,D
No,Raw,2,Valery Poryadin,Pro Open,1966,Russia,89.6,,,,,,,,,,215,,,215,,215,90,M,Валерий Порядин,D
No,Raw,1,Valery Poryadin,Pro Masters 50-54,1966,Russia,89.6,,,,,,,,,,215,,,215,,215,90,M,Валерий Порядин,D
No,Raw,DQ,Evgeniy Kravchenko,Pro Open,1986,Russia,97,,,,,,,,,,-350,-350,-350,,,,100,M,Евгений Кравченко,D
No,Raw,1,Denis Yablokov,Pro Masters 40-44,1976,Russia,93.1,,,,,,,,,,170,-190,195,195,,195,100,M,Денис Яблоков,D
No,Raw,1,Aleksandr Ivanov,Pro Masters 50-54,1968,Russia,92.4,,,,,,,,,,-205,205,-212.5,205,,205,100,M,Александр Иванов,D
No,Raw,1,Sergey Nefedov,Pro Open,1980,Russia,103.9,,,,,,,,,,180,200,220,220,,220,110,M,Сергей Нефедов,D
No,Raw,1,Viktor Klimov,Pro Open,1975,Russia,118,,,,,,,,,,295,305,,305,,305,125,M,Виктор Климов,D
No,Raw,1,Viktor Klimov,Pro Masters 40-44,1975,Russia,118.3,,,,,,,,,,295,305,,305,,305,125,M,Виктор Климов,D
No,Raw,1,Yuriy Demyanchuk,Pro Open,1978,Russia,131.2,,,,,,,,,,280,300,-310,300,,300,140,M,Юрий Демьянчук,D
No,Single-ply,1,Valery Poryadin,Pro Open,1966,Russia,89.6,,,,,,,,,,232.5,,,232.5,,232.5,90,M,Валерий Порядин,D
No,Single-ply,1,Valery Poryadin,Pro Masters 50-54,1966,Russia,89.6,,,,,,,,,,232.5,,,232.5,,232.5,90,M,Валерий Порядин,D
