Place,Sex,Name,CyrillicName,BodyweightKg,Squat1Kg,Squat2Kg,Squat3Kg,Best3SquatKg,Squat4Kg,Bench1Kg,Bench2Kg,Bench3Kg,Best3BenchKg,Bench4Kg,Deadlift1Kg,Deadlift2Kg,Deadlift3Kg,Best3DeadliftKg,Deadlift4Kg,TotalKg,WeightClassKg,Event,Equipment,Tested,Division,Age,BirthDate
1,F,Oksana Bochkova,Оксана Бочкова,46.8,80,85,-90,85,,-50,52.5,-55,52.5,,90,95,-97.5,95,,232.5,48,SBD,Raw,Yes,Open,28,1991-08-15
1,F,Natalya Sidorova,Наталья Сидорова,52,75,80,85,85,,45,50,52.5,52.5,,110,117.5,122.5,122.5,,260,52,SBD,Raw,Yes,Open,21,1998-03-31
1,F,Elena Sycheva,Елена Сычева,56,97.5,102.5,105,105,,60,62.5,65,65,,125,130,132.5,132.5,,302.5,56,SBD,Raw,Yes,Open,34,1985-07-22
2,F,Evgeniya Naydenova,Евгения Найденова,55.7,77.5,82.5,-85,82.5,,37.5,40,-42.5,40,,85,90,95,95,,217.5,56,SBD,Raw,Yes,Open,34,1985-12-07
1,F,Tatyana Knutova,Татьяна Кнутова,64.6,95,100,-107.5,100,,-62.5,65,-67.5,65,,-140,145,-150,145,,310,67.5,SBD,Raw,Yes,Open,47,1972-06-16
2,F,Yuliya Trofimova,Юлия Трофимова,67.5,-90,-90,90,90,,50,-55,-55,50,,90,95,100,100,,240,67.5,SBD,Raw,Yes,Open,26,1993-04-30
DQ,F,Irina Talamagina,Ирина Таламагина,61.4,-60,-60,-60,,,,,,,,,,,,,,67.5,SBD,Raw,Yes,Masters 50-54,50,1969-04-16
1,M,Artur Valeev,Артур Валеев,55.3,85,90,95,95,,55,60,65,65,,100,105,110,110,,270,56,SBD,Raw,Yes,Teen 16-17,16,2002-12-26
1,M,Daniil Gordeev,Даниил Гордеев,65.8,100,110,-130,110,,67.5,72.5,77.5,77.5,,125,135,142.5,142.5,,330,67.5,SBD,Raw,Yes,Teen 16-17,16,2003-05-29
2,M,Igor Akhmetzyanov,Игорь Ахметзянов,64.3,100,105,110,110,,60,65,72.5,72.5,,120,130,135,135,,317.5,67.5,SBD,Raw,Yes,Teen 13-15,14,2005-09-11
1,M,Aleksandr Orlov,Александр Орлов,73.9,177.5,187.5,-195,187.5,,97.5,102.5,107.5,107.5,,165,177.5,185,185,,480,75,SBD,Raw,Yes,Teen 16-17,17,2002-08-20
2,M,Sergey Keller,Сергей Келлер,69.7,145,150,155,155,,-90,90,97.5,97.5,,150,155,162.5,162.5,,415,75,SBD,Raw,Yes,Teen 18-19,18,2001-04-19
3,M,Yuriy Antonov #5,Юрий Антонов,73.8,120,130,-137.5,130,,97.5,102.5,107.5,107.5,,155,162.5,170,170,,407.5,75,SBD,Raw,Yes,Teen 18-19,19,2000-11-25
1,M,Valeriy Shustrov,Валерий Шустров,75,160,170,-177.5,170,,110,120,-125,120,,200,210,-220,210,,500,75,SBD,Raw,Yes,Open,25,1994-03-03
1,M,Stanislav Talamagin,Станислав Таламагин,78.3,80,85,-90,85,,-95,95,-100,95,,100,110,120,120,,300,82.5,SBD,Raw,Yes,Masters 50-54,51,1968-11-27
1,M,Roman Kalyuzhnyy,Роман Калюжный,90,150,-165,165,165,,100,110,-120,110,,200,215,230,230,,505,90,SBD,Raw,Yes,Teen 16-17,17,2002-05-17
2,M,Daniil Sundukov,Даниил Сундуков,89.5,-125,125,132.5,132.5,,-90,90,-97.5,90,,125,135,140,140,,362.5,90,SBD,Raw,Yes,Teen 13-15,15,2004-01-23
1,M,Vladimir Zaytsev,Владимир Зайцев,106.1,115,125,-135,125,,115,125,-130,125,,155,165,175,175,,425,110,SBD,Raw,Yes,Masters 70-74,70,1949-11-02
1,M,Konstantin Fomin,Константин Фомин,80.5,210,215,,215,,140,145,150,150,,210,215,,215,,580,82.5,SBD,Raw,No,Open,29,1989-12-31
2,M,Sergey Lucheninov,Сергей Лученинов,82.4,200,215,,215,,135,145,147.5,147.5,,200,-210,-210,200,,562.5,82.5,SBD,Raw,No,Open,27,1992-02-10
1,M,Valeriy Fomin,Валерий Фомин,80.8,130,-135,135,135,,85,90,-92.5,90,,145,150,155,155,,380,82.5,SBD,Raw,No,Masters 60-64,60,1959-10-04
1,M,Aleksandr Zarin,Александр Зарин,84.3,187.5,197.5,210,210,,122.5,130,135,135,,220,227.5,240,240,,585,90,SBD,Raw,No,Open,25,1994-06-27
1,M,Sergey Prikazchikov,Сергей Приказчиков,99.6,230,240,245,245,,160,172.5,-175,172.5,,260,-265,,260,,677.5,100,SBD,Raw,No,Open,36,1983-12-01
1,M,Nikolay Altunin,Николай Алтунин,74.5,210,-225,-225,210,,130,135,-137.5,135,,220,230,,230,,575,75,SBD,Wraps,Yes,Open,42,1977-07-24
1,M,Nikita Kuzmin,Никита Кузьмин,80.1,175,185,-195,185,,-107.5,112.5,-117.5,112.5,,160,172.5,180,180,,477.5,82.5,SBD,Wraps,Yes,Teen 18-19,18,2001-02-15
1,M,Aleksey Ignatev,Алексей Игнатьев,98,185,197.5,-210,197.5,,110,115,-117.5,115,,220,240,-260,240,,552.5,100,SBD,Wraps,Yes,Teen 18-19,18,2001-02-19
1,M,Andrey Gusev,Андрей Гусев,98.3,-180,180,190,190,,130,137.5,-145,137.5,,195,210,215,215,,542.5,100,SBD,Wraps,Yes,Masters 40-44,42,1977-08-29
1,M,Evgeniy Orlov,Евгений Орлов,104.9,210,-220,225,225,,130,140,-145,140,,225,235,-245,235,,600,110,SBD,Wraps,Yes,Masters 45-49,45,1974-09-29
1,M,Viktor Sorokin,Виктор Сорокин,65.1,130,140,150,150,,-90,90,-100,90,,150,170,190,190,,430,67.5,SBD,Wraps,No,Juniors 20-23,20,1999-05-29
1,M,Andrey Sharapov,Андрей Шарапов,96,282.5,-300,305,305,,170,180,-185,180,,270,290,-305,290,,775,100,SBD,Wraps,No,Open,41,1978-11-25
2,M,Aleksandr Fochkin,Александр Фочкин,98.9,205,220,-230,220,,120,130,135,135,,220,230,-240,230,,585,100,SBD,Wraps,No,Open,30,1989-11-07
1,M,Denis Teplov,Денис Теплов,107.7,250,270,-280,270,,-160,160,-165,160,,250,270,-290,270,,700,110,SBD,Wraps,No,Open,25,1993-12-21
1,F,Tatyana Knutova,Татьяна Кнутова,64.6,,,,,,-62.5,65,-67.5,65,,-140,145,-150,145,,210,67.5,BD,Raw,Yes,Open,47,1972-06-16
1,F,Irina Talamagina,Ирина Таламагина,61.4,,,,,,40,45,-47.5,45,,60,65,70,70,,115,67.5,BD,Raw,Yes,Masters 50-54,50,1969-04-16
1,F,Mariya Savinova,Мария Савинова,83.3,,,,,,42.5,47.5,-50,47.5,,90,100,105,105,,152.5,90,BD,Raw,Yes,Juniors 20-23,21,1998-05-26
1,F,Evelina Nuriakhmetova,Эвелина Нуриахметова,79.5,,,,,,90,-100,100,100,,170,180,190,190,,290,82.5,BD,Raw,No,Open,32,1987-09-10
1,F,Olga Gavrilova,Ольга Гаврилова,52.9,60,-70,-70,60,,,,,,,,,,,,60,56,S,Raw,Yes,Open,34,1985-11-30
1,F,Nadezhda Smorodina,Надежда Смородина,57.7,60,72.5,82.5,82.5,,,,,,,,,,,,82.5,60,S,Raw,Yes,Teen 16-17,17,2001-12-20
1,M,Isamidin Kaziev,Исамидин Казиев,106,-120,-120,120,120,,,,,,,,,,,,120,110,S,Raw,Yes,Masters 45-49,48,1971-11-30
1,F,Oksana Bochkova,Оксана Бочкова,46.8,,,,,,-50,52.5,-55,52.5,,,,,,,52.5,48,B,Raw,Yes,Open,28,1991-08-15
1,F,Lyudmila Panina,Людмила Панина,51,,,,,,-52.5,52.5,-55,52.5,,,,,,,52.5,52,B,Raw,Yes,Open,32,1987-06-24
1,F,Anna Vetelkina,Анна Ветелкина,55.3,,,,,,35,-37.5,-37.5,35,,,,,,,35,56,B,Raw,Yes,Juniors 20-23,23,1996-08-10
1,F,Elena Sycheva,Елена Сычева,56,,,,,,60,62.5,65,65,,,,,,,65,56,B,Raw,Yes,Open,34,1985-07-22
2,F,Olga Gavrilova,Ольга Гаврилова,52.9,,,,,,50,55,-57.5,55,,,,,,,55,56,B,Raw,Yes,Open,34,1985-11-30
1,F,Irina Talamagina,Ирина Таламагина,61.4,,,,,,40,45,-47.5,45,,,,,,,45,67.5,B,Raw,Yes,Masters 50-54,50,1969-04-16
1,F,Oksana Elyutina,Оксана Елютина,76.2,,,,,,55,57.5,-60,57.5,,,,,,,57.5,82.5,B,Raw,Yes,Teen 18-19,19,2000-12-09
1,F,Yuliya Milushkina,Юлия Милушкина,94.9,,,,,,40,-45,45,45,,,,,,,45,90+,B,Raw,Yes,Open,25,1994-11-23
1,M,Ilya Sachkov,Илья Сачков,55.4,,,,,,-85,-92.5,92.5,92.5,,,,,,,92.5,56,B,Raw,Yes,Teen 16-17,17,2002-11-04
1,M,Ivan Golovin,Иван Головин,63.5,,,,,,82.5,87.5,90,90,,,,,,,90,67.5,B,Raw,Yes,Teen 13-15,15,2003-12-28
1,M,Vladimir Skripachev,Владимир Скрипачев,66.5,,,,,,125,130,-135,130,,,,,,,130,67.5,B,Raw,Yes,Open,25,1994-02-03
1,M,Kirill Tselogorodtsev,Кирилл Целогородцев,73.7,,,,,,90,100,-105,100,,,,,,,100,75,B,Raw,Yes,Teen 18-19,18,2001-05-11
1,M,Ivan Starkov,Иван Старков,72.3,,,,,,-87.5,92.5,-97.5,92.5,,,,,,,92.5,75,B,Raw,Yes,Juniors 20-23,21,1998-12-13
1,M,Aleksandr Gugnyakov,Александр Гугняков,72.5,,,,,,145,155,157.5,157.5,,,,,,,157.5,75,B,Raw,Yes,Open,45,1974-09-17
2,M,Oleg Podgornov,Олег Подгорнов,74.2,,,,,,115,120,-127.5,120,,,,,,,120,75,B,Raw,Yes,Open,32,1987-12-02
1,M,Azat Zayniev,Азат Зайниев,73.3,,,,,,100,-105,105,105,,,,,,,105,75,B,Raw,Yes,Masters 40-44,40,1979-09-09
1,M,Aleksandr Eremin #1,Александр Ерёмин,76.6,,,,,,97.5,102.5,107.5,107.5,,,,,,,107.5,82.5,B,Raw,Yes,Teen 16-17,17,2002-11-17
2,M,Mikhail Eremin,Михаил Еремин,77.3,,,,,,87.5,92.5,97.5,97.5,,,,,,,97.5,82.5,B,Raw,Yes,Teen 16-17,17,2002-11-17
1,M,Vladimir Plotnikov,Владимир Плотников,82,,,,,,150,162.5,,162.5,,,,,,,162.5,82.5,B,Raw,Yes,Open,38,1981-06-24
2,M,Andrey Knyazev,Андрей Князев,78.8,,,,,,132.5,-142.5,,132.5,,,,,,,132.5,82.5,B,Raw,Yes,Open,37,1982-03-10
3,M,Aleksandr Boyko,Александр Бойко,81.8,,,,,,-127.5,127.5,-142.5,127.5,,,,,,,127.5,82.5,B,Raw,Yes,Open,24,1995-10-19
4,M,Vladimir Medvedev,Владимир Медведев,81.5,,,,,,-112.5,112.5,120,120,,,,,,,120,82.5,B,Raw,Yes,Open,37,1982-01-03
DQ,M,Pavel Shchepalin,Павел Щепалин,79.7,,,,,,-90,-90,-95,,,,,,,,,82.5,B,Raw,Yes,Open,35,1984-04-12
1,M,Stanislav Talamagin,Станислав Таламагин,78.3,,,,,,-95,95,-100,95,,,,,,,95,82.5,B,Raw,Yes,Masters 50-54,51,1968-11-27
1,M,Andrey Semenov,Андрей Семенов,81.1,,,,,,105,115,-120,115,,,,,,,115,82.5,B,Raw,Yes,Masters 55-59,56,1963-09-07
1,M,Georgiy Abisalov,Георгий Абисалов,85.6,,,,,,125,132.5,-135,132.5,,,,,,,132.5,90,B,Raw,Yes,Teen 18-19,18,2000-12-15
1,M,Evgeniy Degtyarev,Евгений Дегтярев,88.3,,,,,,-170,175,-180,175,,,,,,,175,90,B,Raw,Yes,Open,32,1987-01-15
2,M,Vyacheslav Pozdnyakov,Вячеслав Поздняков,84.2,,,,,,152.5,160,165,165,,,,,,,165,90,B,Raw,Yes,Open,48,1971-09-28
3,M,Andrey Presnyakov,Андрей Пресняков,83.7,,,,,,127.5,132.5,135,135,,,,,,,135,90,B,Raw,Yes,Open,32,1987-01-19
1,M,Vyacheslav Pozdnyakov,Вячеслав Поздняков,84.2,,,,,,152.5,160,165,165,,,,,,,165,90,B,Raw,Yes,Masters 45-49,48,1971-09-28
2,M,Aleksandr Krupenko,Александр Крупенко,88.4,,,,,,142.5,147.5,-152.5,147.5,,,,,,,147.5,90,B,Raw,Yes,Masters 45-49,45,1974-07-20
1,M,Rafail Zaripov,Рафаиль Зарипов,96.7,,,,,,125,137.5,-142.5,137.5,,,,,,,137.5,100,B,Raw,Yes,Teen 18-19,18,2001-04-16
2,M,Sergey Nenashev,Сергей Ненашев,91.2,,,,,,65,72.5,-77.5,72.5,,,,,,,72.5,100,B,Raw,Yes,Teen 13-15,15,2004-03-04
1,M,Leonid Klyuchnikov,Леонид Ключников,98.3,,,,,,140,145,-147.5,145,,,,,,,145,100,B,Raw,Yes,Open,34,1985-08-11
1,M,Yuriy Shilov,Юрий Шилов,107.2,,,,,,175,185,195,195,,,,,,,195,110,B,Raw,Yes,Open,22,1997-08-21
1,M,Aleksey Bogdanov,Алексей Богданов,118.4,,,,,,152.5,160,165,165,,,,,,,165,125,B,Raw,Yes,Open,38,1981-07-25
1,F,Natalya Zamyatina,Наталья Замятина,65.2,,,,,,65,67.5,72.5,72.5,,,,,,,72.5,67.5,B,Raw,No,Open,39,1980-04-14
1,M,Artavazd Aleksanyan,Артавазд Алексанян,65.9,,,,,,65,70,75,75,,,,,,,75,67.5,B,Raw,No,Teen 18-19,19,2000-01-26
1,M,Aleksey Titov,Алексей Титов,74,,,,,,-125,125,127.5,127.5,,,,,,,127.5,75,B,Raw,No,Open,36,1983-01-28
1,M,Vladimir Plotnikov,Владимир Плотников,82,,,,,,150,162.5,,162.5,,,,,,,162.5,82.5,B,Raw,No,Open,38,1981-06-24
2,M,Marat Ilyasov,Марат Ильясов,78.2,,,,,,120,125,-130,125,,,,,,,125,82.5,B,Raw,No,Open,27,1992-06-03
1,M,Sargis Igityan,Саргис Игитян,88.2,,,,,,152.5,,,152.5,,,,,,,152.5,90,B,Raw,No,Open,27,1992-05-20
2,M,Anton Kuleshov,Антон Кулешов,87.8,,,,,,120,130,-140,130,,,,,,,130,90,B,Raw,No,Open,26,1993-12-06
1,M,Mikhail Smorodin,Михаил Смородин,92.6,,,,,,195,202.5,-207.5,202.5,,,,,,,202.5,100,B,Raw,No,Open,39,1980-07-13
2,M,Aleksey Kutukov,Алексей Кутуков,99.1,,,,,,170,180,-185,180,,,,,,,180,100,B,Raw,No,Open,37,1982-08-01
3,M,Vitaliy Razdolskiy,Виталий Раздольский,99.3,,,,,,155,160,175,175,,,,,,,175,100,B,Raw,No,Open,26,1993-02-03
4,M,Yuriy Popkov,Юрий Попков,98.1,,,,,,170,-175,-175,170,,,,,,,170,100,B,Raw,No,Open,38,1981-05-08
1,M,Denis Potapov,Денис Потапов,106.5,,,,,,187.5,-192.5,-192.5,187.5,,,,,,,187.5,110,B,Raw,No,Open,29,1990-02-05
2,M,Mikhail Nefedov,Михаил Нефедов,103.5,,,,,,170,177.5,-182.5,177.5,,,,,,,177.5,110,B,Raw,No,Open,47,1972-05-07
3,M,Mikhail Krasnov,Михаил Краснов,106.7,,,,,,150,-160,167.5,167.5,,,,,,,167.5,110,B,Raw,No,Open,25,1994-03-03
1,M,Mikhail Nefedov,Михаил Нефедов,103.5,,,,,,170,177.5,-182.5,177.5,,,,,,,177.5,110,B,Raw,No,Masters 45-49,47,1972-05-07
1,M,Vitaliy Khomyakov,Виталий Хомяков,117.4,,,,,,170,180,185,185,,,,,,,185,125,B,Raw,No,Juniors 20-23,23,1996-05-19
1,M,Andrey Kulagin,Андрей Кулагин,114.8,,,,,,225,232.5,235,235,,,,,,,235,125,B,Raw,No,Open,41,1978-09-16
2,M,Dmitriy Fedoseev,Дмитрий Федосеев,114.8,,,,,,-185,185,-190,185,,,,,,,185,125,B,Raw,No,Open,41,1978-06-06
1,M,Andrey Kulagin,Андрей Кулагин,114.8,,,,,,225,232.5,235,235,,,,,,,235,125,B,Raw,No,Masters 40-44,41,1978-09-16
2,M,Dmitriy Fedoseev,Дмитрий Федосеев,114.8,,,,,,-185,185,-190,185,,,,,,,185,125,B,Raw,No,Masters 40-44,41,1978-06-06
1,M,Oleg Pozhidaev,Олег Пожидаев,127,,,,,,230,240,245,245,,,,,,,245,140,B,Raw,No,Open,27,1992-06-25
1,M,Vladimir Plotnikov,Владимир Плотников,81,,,,,,202.5,,,202.5,,,,,,,202.5,82.5,B,Multi-ply,Yes,Open,38,1981-06-24
1,M,Albert Khasanshin,Альберт Хасаншин,99.2,,,,,,187.5,200,202.5,202.5,,,,,,,202.5,100,B,Multi-ply,Yes,Open,42,1977-05-16
1,F,Natalya Zamyatina,Наталья Замятина,65.2,,,,,,90,100,105,105,,,,,,,105,67.5,B,Multi-ply,No,Open,39,1980-04-14
1,M,Vladimir Plotnikov,Владимир Плотников,81,,,,,,202.5,,,202.5,,,,,,,202.5,82.5,B,Multi-ply,No,Open,38,1981-06-24
1,M,Vitaliy Khomyakov,Виталий Хомяков,117.4,,,,,,220,230,240,240,,,,,,,240,125,B,Multi-ply,No,Juniors 20-23,23,1996-05-19
1,M,Andrey Kulagin,Андрей Кулагин,114.8,,,,,,290,300,307.5,307.5,,,,,,,307.5,125,B,Multi-ply,No,Masters 40-44,41,1978-09-16
1,M,Vladimir Plotnikov,Владимир Плотников,81,,,,,,202.5,,,202.5,,,,,,,202.5,82.5,B,Multi-ply,Yes,Open,38,1981-06-24
1,M,Vladimir Plotnikov,Владимир Плотников,81,,,,,,202.5,,,202.5,,,,,,,202.5,82.5,B,Multi-ply,No,Open,38,1981-06-24
1,F,Natalya Sidorova,Наталья Сидорова,52,,,,,,,,,,,110,117.5,122.5,122.5,,122.5,52,D,Raw,Yes,Juniors 20-23,21,1998-03-31
1,F,Elena Sycheva,Елена Сычева,56,,,,,,,,,,,125,130,132.5,132.5,,132.5,56,D,Raw,Yes,Open,34,1985-07-22
2,F,Olga Gavrilova,Ольга Гаврилова,52.9,,,,,,,,,,,-90,90,-100,90,,90,56,D,Raw,Yes,Open,34,1985-11-30
1,F,Nadezhda Smorodina,Надежда Смородина,57.7,,,,,,,,,,,-102.5,102.5,-115,102.5,,102.5,60,D,Raw,Yes,Teen 16-17,17,2001-12-20
1,F,Kseniya Bryzhinskaya,Ксения Брыжинская,58.8,,,,,,,,,,,97.5,102.5,-107.5,102.5,,102.5,60,D,Raw,Yes,Open,31,1988-08-25
1,F,Tatyana Knutova,Татьяна Кнутова,64.6,,,,,,,,,,,-140,145,-150,145,,145,67.5,D,Raw,Yes,Open,47,1972-06-16
2,F,Mariya Bateyshchikova,Мария Батейщикова,66.2,,,,,,,,,,,110,115,-122.5,115,,115,67.5,D,Raw,Yes,Open,32,1987-03-04
3,F,Tatyana Shvaleva,Татьяна Швалева,65.6,,,,,,,,,,,90,100,110,110,,110,67.5,D,Raw,Yes,Open,40,1979-04-09
1,F,Tatyana Potapova,Татьяна Потапова,75,,,,,,,,,,,90,97.5,105,105,,105,75,D,Raw,Yes,Masters 45-49,45,1974-06-22
1,M,Ivan Starkov,Иван Старков,72.3,,,,,,,,,,,170,-177.5,-177.5,170,,170,75,D,Raw,Yes,Juniors 20-23,21,1998-12-13
1,M,Semyon Grigorev,Семён Григорьев,73.5,,,,,,,,,,,210,-220,,210,,210,75,D,Raw,Yes,Open,30,1989-12-07
1,M,Rafail Zaripov,Рафаиль Зарипов,96.7,,,,,,,,,,,150,160,170,170,,170,100,D,Raw,Yes,Teen 18-19,18,2001-04-16
1,M,Aleksandr Andreev,Александр Андреев,107.4,,,,,,,,,,,235,247.5,252.5,252.5,,252.5,110,D,Raw,Yes,Open,35,1984-07-03
1,M,Vladimir Konopatskiy,Владимир Конопацкий,110.9,,,,,,,,,,,267.5,-282.5,292.5,292.5,,292.5,125,D,Raw,Yes,Masters 45-49,46,1973-08-06
1,M,Aleksandr Denisov,Александр Денисов,75,,,,,,,,,,,185,195,205,205,,205,75,D,Raw,No,Open,32,1987-07-01
1,M,Nikolay Khoroshchenko,Николай Хорощенко,96.9,,,,,,,,,,,250,260,-270,260,,260,100,D,Raw,No,Open,33,1986-06-28
2,M,Aleksandr Emelyanov,Александр Емельянов,96.2,,,,,,,,,,,240,-250,-250,240,,240,100,D,Raw,No,Open,38,1981-08-21
1,M,Viktor Novlyanskiy,Виктор Новлянский,106.5,,,,,,,,,,,195,210,215,215,,215,110,D,Raw,No,Masters 50-54,54,1965-11-01
1,M,Maksim Grednev,Максим Греднев,114.2,,,,,,,,,,,295,305,-315,305,,305,125,D,Raw,No,Open,25,1994-08-30
2,M,Anton Reva,Антон Рева,119.2,,,,,,,,,,,250,290,-300,290,,290,125,D,Raw,No,Open,31,1988-03-15
1,M,Vladimir Akhtyrskiy,Владимир Ахтырский,99.5,,,,,,,,,,,265,275,285,285,,285,100,D,Single-ply,No,Open,26,1993-01-06
1,M,Vladimir Zhivotov,Владимир Животов,119.4,,,,,,,,,,,240,260,-270,260,,260,125,D,Single-ply,No,Masters 45-49,49,1970-07-27
