Place,Sex,Name,CyrillicName,BodyweightKg,Squat1Kg,Squat2Kg,Squat3Kg,Best3SquatKg,Squat4Kg,Bench1Kg,Bench2Kg,Bench3Kg,Best3BenchKg,Bench4Kg,Deadlift1Kg,Deadlift2Kg,Deadlift3Kg,Best3DeadliftKg,Deadlift4Kg,TotalKg,WeightClassKg,Event,Equipment,Tested,Division,Age,BirthDate
1,F,Yana Kholodkovskaya,Яна Холодковская,55.6,77.5,90,92.5,92.5,,45,50,-55,50,,85,100,102.5,102.5,,245,56,SBD,Raw,Yes,Open,30,1989-05-13
2,F,Tatyana Devyatkina,Татьяна Девяткина,54.7,75,80,87.5,87.5,,-45,45,-50,45,,95,-110,-110,95,,227.5,56,SBD,Raw,Yes,Open,37,1982-07-25
1,F,Natalya Zamyatina,Наталья Замятина,58.9,100,-105,-110,100,,57.5,60,-62.5,60,,130,-140,-140,130,,290,60,SBD,Raw,Yes,Open,39,1980-04-14
2,F,Elena Sycheva,Елена Сычева,56.9,95,100,102.5,102.5,,57.5,60,-62.5,60,,120,125,-132.5,125,,287.5,60,SBD,Raw,Yes,Open,34,1985-07-22
1,F,Tatyana Knutova,Татьяна Кнутова,62.9,90,100,105,105,,60,-62.5,-62.5,60,,137.5,145,-150,145,,310,67.5,SBD,Raw,Yes,Open,47,1972-06-16
1,F,Valentina Yakimova,Валентина Якимова,65,80,85,-90,85,,-42.5,42.5,-45,42.5,,90,95,100,100,,227.5,67.5,SBD,Raw,Yes,Masters 40-44,40,1979-05-08
1,F,Mariya Kashirskaya,Мария Каширская,78,95,105,115,115,,-65,65,-70,65,,-125,130,140,140,,320,82.5,SBD,Raw,Yes,Open,32,1987-03-31
1,M,Nikita Kuzmin,Никита Кузьмин,74.7,165,175,-182.5,175,,105,-110,-115,105,,160,-170,170,170,,450,75,SBD,Raw,Yes,Teen 18-19,18,2001-02-15
1,M,Valeriy Shustrov,Валерий Шустров,73.4,155,165,-172.5,165,,-110,115,-122.5,115,,200,207.5,220,220,,500,75,SBD,Raw,Yes,Open,25,1994-03-03
1,M,Konstantin Fomin,Константин Фомин,77.6,190,195,-200,195,,130,137.5,-142.5,137.5,,190,195,200,200,,532.5,82.5,SBD,Raw,Yes,Open,29,1989-12-31
1,M,Valeriy Fomin,Валерий Фомин,81.3,115,125,132.5,132.5,,80,87.5,92.5,92.5,,135,145,155,155,,380,82.5,SBD,Raw,Yes,Masters 55-59,59,1959-10-04
1,M,Daniil Sundukov,Даниил Сундуков,86.8,95,100,105,105,,77.5,85,-87.5,85,,100,110,115,115,,305,90,SBD,Raw,Yes,Teen 13-15,15,2004-01-23
1,M,Viktor Treskov,Виктор Тресков,96,180,195,210,210,,130,140,-145,140,,190,-210,210,210,,560,100,SBD,Raw,Yes,Open,48,1971-01-06
2,M,Aleksey Lukyanchenko,Алексей Лукьянченко,99.9,180,190,-200,190,,130,145,155,155,,190,-210,,190,,535,100,SBD,Raw,Yes,Open,33,1986-08-10
1,M,Aleksey Ignatev,Алексей Игнатьев,104.8,170,180,190,190,,105,-107.5,-112.5,105,,210,225,247.5,247.5,,542.5,110,SBD,Raw,Yes,Teen 18-19,18,2001-02-19
1,M,Nikolay Krytskov,Николай Крыцков,120.6,-200,200,-215,200,,177.5,185,-190,185,,225,240,-255,240,,625,125,SBD,Raw,Yes,Open,37,1982-06-19
1,M,Pavel Kuznetsov,Павел Кузнецов,81.9,160,170,177.5,177.5,,120,-125,127.5,127.5,,185,200,210,210,,515,82.5,SBD,Raw,No,Open,30,1989-01-11
1,M,Denis Ilichev,Денис Ильичев,86.9,210,220,230,230,,165,172.5,177.5,177.5,,230,240,250,250,,657.5,90,SBD,Raw,No,Open,31,1987-12-01
2,M,Sergey Kravtsev,Сергей Кравцев,87.2,-185,190,195,195,,130,135,140,140,,185,195,200,200,,535,90,SBD,Raw,No,Open,28,1991-03-20
1,M,Aleksey Dubov,Алексей Дубов,88.9,-140,150,155,155,,77.5,85,-90,85,,155,170,177.5,177.5,,417.5,90,SBD,Raw,No,Masters 55-59,56,1963-04-18
1,M,Shamil Mustafin,Шамиль Мустафин,97.8,100,130,150,150,,80,100,-115,100,,-170,170,190,190,,440,100,SBD,Raw,No,Masters 60-64,62,1957-01-19
1,M,Vladimir Zaytsev,Владимир Зайцев,105.1,115,-125,130,130,,115,120,125,125,,155,165,170,170,,425,110,SBD,Raw,No,Masters 65-69,69,1949-11-02
DQ,F,Natalya Sidorova,Наталья Сидорова,52,85,92.5,-97.5,92.5,,-55,-55,-55,,,,,,,,,52,SBD,Wraps,Yes,Juniors 20-23,21,1998-03-31
1,F,Oksana Elyutina,Оксана Елютина,73.3,95,100,105,105,,47.5,50,-52.5,50,,115,-122.5,-122.5,115,,270,75,SBD,Wraps,Yes,Open,18,2000-12-09
1,M,Sergey Karpunin,Сергей Карпунин,88.7,200,210,-217.5,210,,137.5,-142.5,-142.5,137.5,,205,220,230,230,,577.5,90,SBD,Wraps,Yes,Open,31,1987-10-18
1,M,Sergey Ovinov,Сергей Овинов,98.2,180,190,-200,190,,140,145,-147.5,145,,190,200,-205,200,,535,100,SBD,Wraps,Yes,Masters 40-44,42,1976-09-17
1,M,Andrey Karpyukov,Андрей Карпюков,89.3,220,232.5,240,240,,120,127.5,-130,127.5,,235,-242.5,-242.5,235,,602.5,90,SBD,Wraps,No,Open,24,1994-09-23
1,M,Aleksey Bastrygin,Алексей Бастрыгин,99.5,200,215,240,240,,145,155,160,160,,190,200,220,220,,620,100,SBD,Wraps,No,Open,31,1988-06-04
1,M,Andrey Elyutin,Андрей Елютин,110,215,230,240,240,,150,-160,-160,150,,260,285,-300,285,,675,110,SBD,Wraps,No,Open,33,1986-02-13
2,M,Dmitriy Kolychin,Дмитрий Колычин,104.5,245,257.5,-270,257.5,,130,140,150,150,,-245,245,-255,245,,652.5,110,SBD,Wraps,No,Open,37,1981-11-26
1,M,Vladimir Akhtyrskiy,Владимир Ахтырский,99.2,300,-307.5,,300,,-197.5,197.5,-205,197.5,,260,275,-290,275,,772.5,100,SBD,Single-ply,No,Open,26,1993-01-06
1,F,Natalya Zamyatina,Наталья Замятина,58.9,,,,,,57.5,60,-62.5,60,,130,-140,-140,130,,190,60,BD,Raw,Yes,Open,39,1980-04-14
1,F,Olga Egorova #1,Ольга Егорова,59,,,,,,65,-67.5,-67.5,65,,110,120,127.5,127.5,,192.5,60,BD,Raw,Yes,Masters 40-44,44,1975-03-14
1,F,Tatyana Knutova,Татьяна Кнутова,62.9,,,,,,60,-62.5,-62.5,60,,137.5,145,-150,145,,205,67.5,BD,Raw,Yes,Open,47,1972-06-16
1,M,Evgeniy Orlov,Евгений Орлов,105.4,,,,,,125,132.5,140,140,,210,230,237.5,237.5,,377.5,110,BD,Raw,Yes,Masters 40-44,44,1974-09-29
1,M,Vladimir Kistanov,Владимир Кистанов,89.4,,,,,,170,180,185,185,,280,-300,300,300,,485,90,BD,Raw,No,Open,28,1991-04-15
2,M,Sergey Kravtsev,Сергей Кравцев,87.2,,,,,,130,135,140,140,,185,195,200,200,,340,90,BD,Raw,No,Open,28,1991-03-20
DQ,M,Igor Guseynov,Игорь Гусейнов,90,,,,,,-210,-210,-210,,,,,,,,,90,BD,Raw,No,Open,31,1988-05-06
1,F,Yana Kholodkovskaya,Яна Холодковская,55.6,77.5,90,92.5,92.5,,,,,,,,,,,,92.5,56,S,Raw,Yes,Open,30,1989-05-13
1,F,Valentina Yakimova,Валентина Якимова,65,80,85,-90,85,,,,,,,,,,,,85,67.5,S,Raw,Yes,Masters 40-44,40,1979-05-08
2,F,Natalya Sugak,Наталья Сугак,67.5,70,75,80,80,,,,,,,,,,,,80,67.5,S,Raw,Yes,Masters 40-44,41,1978-05-07
1,F,Nyawa Astrid,,69.1,40,50,-65,50,,,,,,,,,,,,50,75,S,Raw,Yes,Juniors 20-23,22,1996-09-24
1,M,Konstantin Fomin,Константин Фомин,77.6,190,195,-200,195,,,,,,,,,,,,195,82.5,S,Raw,Yes,Open,29,1989-12-31
1,M,Sergey Kravtsev,Сергей Кравцев,87.2,-185,190,195,195,,,,,,,,,,,,195,90,S,Raw,No,Open,28,1991-03-20
1,M,Aleksey Dubov,Алексей Дубов,88.9,-140,150,155,155,,,,,,,,,,,,155,90,S,Raw,No,Masters 55-59,56,1963-04-18
1,F,Irina Kozhukhovskaya,Ирина Кожуховская,50,,,,,,52.5,55,-57.5,55,,,,,,,55,52,B,Raw,Yes,Open,33,1986-07-05
2,F,Lyudmila Panina,Людмила Панина,50.6,,,,,,47.5,-52.5,52.5,52.5,,,,,,,52.5,52,B,Raw,Yes,Open,32,1987-06-24
1,F,Olga Gavrilova,Ольга Гаврилова,54,,,,,,55,-60,-60,55,,,,,,,55,56,B,Raw,Yes,Open,33,1985-11-30
2,F,Yana Kholodkovskaya,Яна Холодковская,55.6,,,,,,45,50,-55,50,,,,,,,50,56,B,Raw,Yes,Open,30,1989-05-13
3,F,Elena Efremova,Елена Ефремова,53.3,,,,,,42.5,45,-47.5,45,,,,,,,45,56,B,Raw,Yes,Open,32,1987-04-01
1,F,Kristina Lyamaeva,Кристина Лямаева,58.1,,,,,,55,60,-65,60,,,,,,,60,60,B,Raw,Yes,Open,23,1996-03-06
1,F,Olga Egorova #1,Ольга Егорова,59,,,,,,62.5,-67.5,-67.5,62.5,,,,,,,62.5,60,B,Raw,Yes,Masters 40-44,44,1975-03-14
1,F,Elena Bashmakova,Елена Башмакова,66.3,,,,,,47.5,50,-52.5,50,,,,,,,50,67.5,B,Raw,Yes,Open,20,1999-04-11
1,F,Natalya Sugak,Наталья Сугак,67.5,,,,,,45,-50,-50,45,,,,,,,45,67.5,B,Raw,Yes,Masters 40-44,41,1978-05-07
1,M,Kirill Musifullin,Кирилл Мусифуллин,59.8,,,,,,85,90,-95,90,,,,,,,90,60,B,Raw,Yes,Teen 18-19,18,2001-08-02
2,M,Ivan Golovin,Иван Головин,58.4,,,,,,70,75,80,80,,,,,,,80,60,B,Raw,Yes,Teen 13-15,15,2003-12-28
1,M,Evgeniy Krasneev,Евгений Краснеев,63.7,,,,,,80,-85,-90,80,,,,,,,80,67.5,B,Raw,Yes,Teen 13-15,15,2004-03-14
2,M,Mikhail Eremin,Михаил Еремин,64.7,,,,,,70,72.5,77.5,77.5,,,,,,,77.5,67.5,B,Raw,Yes,Teen 16-17,16,2002-11-17
1,M,Igor Kuchin,Игорь Кучин,65.5,,,,,,140,145,150,150,,,,,,,150,67.5,B,Raw,Yes,Open,52,1967-06-11
2,M,Vladimir Skripachev,Владимир Скрипачев,67.4,,,,,,122.5,-127.5,127.5,127.5,,,,,,,127.5,67.5,B,Raw,Yes,Open,25,1994-02-03
3,M,Mikhail Lukyanov,Михаил Лукьянов,66.2,,,,,,110,-112.5,-115,110,,,,,,,110,67.5,B,Raw,Yes,Open,28,1991-03-12
1,M,Aleksandr Eremin #1,Александр Ерёмин,73.5,,,,,,92.5,97.5,-102.5,97.5,,,,,,,97.5,75,B,Raw,Yes,Teen 16-17,16,2002-11-17
1,M,Ivan Starkov,Иван Старков,70.2,,,,,,75,80,85,85,,,,,,,85,75,B,Raw,Yes,Juniors 20-23,20,1998-12-13
1,M,Aleksandr Gugnyakov,Александр Гугняков,73.8,,,,,,150,160,-165,160,,,,,,,160,75,B,Raw,Yes,Open,44,1974-09-17
2,M,Vadim Makhonin,Вадим Махонин,71.7,,,,,,120,130,135,135,,,,,,,135,75,B,Raw,Yes,Open,27,1991-10-04
3,M,Ruslan Abzibarov,Руслан Абзибаров,74.7,,,,,,125,-130,,125,,,,,,,125,75,B,Raw,Yes,Open,38,1981-06-30
4,M,Oleg Podgornov,Олег Подгорнов,73.1,,,,,,112.5,117.5,,117.5,,,,,,,117.5,75,B,Raw,Yes,Open,31,1987-12-02
5,M,Evgeniy Spitsyn,Евгений Спицын,69.5,,,,,,107.5,112.5,115,115,,,,,,,115,75,B,Raw,Yes,Open,24,1995-01-06
DQ,M,Anton Talamagin,Антон Таламагин,74.6,,,,,,-130,-130,,,,,,,,,,75,B,Raw,Yes,Open,29,1990-05-22
DQ,M,Stanislav Talamagin,Станислав Таламагин,74.3,,,,,,-110,-110,,,,,,,,,,75,B,Raw,Yes,Masters 50-54,50,1968-11-27
1,M,Oleg Makarov,Олег Макаров,79.8,,,,,,130,132.5,-137.5,132.5,,,,,,,132.5,82.5,B,Raw,Yes,Juniors 20-23,21,1998-03-27
2,M,Zakhar Syrovatko,Захар Сыроватко,78.5,,,,,,105,-110,-110,105,,,,,,,105,82.5,B,Raw,Yes,Juniors 20-23,20,1999-07-20
1,M,Evgeniy Sevryukov,Евгений Севрюков,79.7,,,,,,192.5,-197.5,197.5,197.5,,,,,,,197.5,82.5,B,Raw,Yes,Open,28,1991-07-08
2,M,Vladimir Plotnikov,Владимир Плотников,81.1,,,,,,150,,,150,,,,,,,150,82.5,B,Raw,Yes,Open,38,1981-06-24
3,M,Sergey Lucheninov,Сергей Лученинов,82.3,,,,,,140,-145,,140,,,,,,,140,82.5,B,Raw,Yes,Open,27,1992-02-10
4,M,Sergey Nekrasov,Сергей Некрасов,79.1,,,,,,-127.5,127.5,-145,127.5,,,,,,,127.5,82.5,B,Raw,Yes,Open,31,1988-07-12
DQ,M,Andrey Knyazev,Андрей Князев,78.6,,,,,,-137.5,-137.5,-137.5,,,,,,,,,82.5,B,Raw,Yes,Open,37,1982-03-10
DQ,M,Pavel Shchepalin,Павел Щепалин,80.7,,,,,,-95,-95,-95,,,,,,,,,82.5,B,Raw,Yes,Open,35,1984-04-12
1,M,Rafail Zaripov,Рафаиль Зарипов,88.7,,,,,,127.5,135,-142.5,135,,,,,,,135,90,B,Raw,Yes,Teen 18-19,18,2001-04-16
1,M,Vladislav Antipov,Владислав Антипов,88.3,,,,,,140,147.5,-150,147.5,,,,,,,147.5,90,B,Raw,Yes,Juniors 20-23,23,1996-03-28
2,M,Aleksey Krasnoslobodtsev,Алексей Краснослободцев,83.9,,,,,,132.5,137.5,142.5,142.5,,,,,,,142.5,90,B,Raw,Yes,Juniors 20-23,22,1997-09-03
1,M,Pavel Karpukhin,Павел Карпухин,88.3,,,,,,167.5,175,-180,175,,,,,,,175,90,B,Raw,Yes,Open,31,1987-10-16
DQ,M,Dmitriy Dyakun,Дмитрий Дякун,87.6,,,,,,-120,-120,-132.5,,,,,,,,,90,B,Raw,Yes,Open,37,1982-04-12
DQ,M,Dmitriy Sidorov,Дмитрий Сидоров,89.7,,,,,,-145,-145,-145,,,,,,,,,90,B,Raw,Yes,Open,31,1988-03-29
1,M,Nikita Mustakimov,Никита Мустакимов,97,,,,,,125,132.5,-137.5,132.5,,,,,,,132.5,100,B,Raw,Yes,Teen 16-17,17,2002-02-13
2,M,Dmitriy Nesterov,Дмитрий Нестеров,94.4,,,,,,-90,95,107.5,107.5,,,,,,,107.5,100,B,Raw,Yes,Teen 16-17,16,2003-05-30
1,M,Denis Pogonyaev,Денис Погоняев,97.1,,,,,,115,120,125,125,,,,,,,125,100,B,Raw,Yes,Juniors 20-23,21,1997-10-23
1,M,German Plotnikov,Герман Плотников,97.7,,,,,,170,175,-177.5,175,,,,,,,175,100,B,Raw,Yes,Open,43,1976-05-08
1,M,German Plotnikov,Герман Плотников,97.7,,,,,,170,175,-177.5,175,,,,,,,175,100,B,Raw,Yes,Masters 40-44,43,1976-05-08
1,M,Viktor Treskov,Виктор Тресков,96,,,,,,130,140,-145,140,,,,,,,140,100,B,Raw,Yes,Masters 45-49,48,1971-01-06
1,M,Dmitriy Nosanov,Дмитрий Носанов,124.3,,,,,,145,152.5,-155,152.5,,,,,,,152.5,125,B,Raw,Yes,Teen 18-19,18,2000-11-19
1,M,Aleksey Bogdanov,Алексей Богданов,117.3,,,,,,145,152.5,-157.5,152.5,,,,,,,152.5,125,B,Raw,Yes,Open,38,1981-07-25
1,M,Alexey Sorokin,Алексей Сорокин,58.2,,,,,,60,65,-70,65,,,,,,,65,60,B,Raw,No,Open,25,1994-06-20
1,M,Ruslan Zaynullin,Руслан Зайнуллин,79.4,,,,,,160,-170,-170,160,,,,,,,160,82.5,B,Raw,No,Open,25,1993-11-19
2,M,Vladimir Plotnikov,Владимир Плотников,81.1,,,,,,150,,,150,,,,,,,150,82.5,B,Raw,No,Open,38,1981-06-24
1,M,Aleksandr Gubanov,Александр Губанов,80.3,,,,,,80,87.5,90,90,,,,,,,90,82.5,B,Raw,No,Masters 65-69,68,1951-02-06
1,M,Anatoliy Kovalev,Анатолий Ковалев,80.7,,,,,,90,-95,-95,90,,,,,,,90,82.5,B,Raw,No,Masters 80+,83,1936-08-11
1,M,Mikhail Smorodin,Михаил Смородин,89.8,,,,,,190,195,200,200,,,,,,,200,90,B,Raw,No,Open,39,1980-07-13
DQ,M,Igor Guseynov,Игорь Гусейнов,90,,,,,,-210,-210,-210,,,,,,,,,90,B,Raw,No,Open,31,1988-05-06
1,M,Viktor Maksimov,Виктор Максимов,89.2,,,,,,165,-175,-175,165,,,,,,,165,90,B,Raw,No,Masters 40-44,44,1975-03-25
1,M,Yuriy Stetsko,Юрий Стецко,107.1,,,,,,195,205,210,210,,,,,,,210,110,B,Raw,No,Open,33,1986-04-02
2,M,Denis Potapov,Денис Потапов,104.9,,,,,,-185,185,195,195,,,,,,,195,110,B,Raw,No,Open,29,1990-02-05
3,M,Denis Zheleznikov,Денис Железников,107.7,,,,,,-175,175,185,185,,,,,,,185,110,B,Raw,No,Open,36,1983-08-30
1,M,Vitaliy Khomyakov,Виталий Хомяков,121.6,,,,,,170,175,-182.5,175,,,,,,,175,125,B,Raw,No,Juniors 20-23,23,1996-05-19
1,M,Andrey Kulagin,Андрей Кулагин,113.4,,,,,,225,230,232.5,232.5,,,,,,,232.5,125,B,Raw,No,Open,40,1978-09-16
2,M,Oleg Pozhidaev,Олег Пожидаев,121.2,,,,,,215,222.5,-227.5,222.5,,,,,,,222.5,125,B,Raw,No,Open,27,1992-06-25
3,M,Dmitriy Kazakov,Дмитрий Казаков,116.2,,,,,,175,182.5,187.5,187.5,,,,,,,187.5,125,B,Raw,No,Open,34,1985-01-04
4,M,Vitaliy Khomyakov,Виталий Хомяков,121.6,,,,,,170,175,-182.5,175,,,,,,,175,125,B,Raw,No,Open,23,1996-05-19
1,M,Andrey Kulagin,Андрей Кулагин,113.4,,,,,,225,230,232.5,232.5,,,,,,,232.5,125,B,Raw,No,Masters 40-44,40,1978-09-16
1,M,Igor Kuchin,Игорь Кучин,65.5,,,,,,180,-190,-190,180,,,,,,,180,67.5,B,Single-ply,Yes,Open,52,1967-06-11
1,M,Maksim Yakovlev,Максим Яковлев,85.4,,,,,,175,185,192.5,192.5,,,,,,,192.5,90,B,Single-ply,No,Open,37,1982-06-17
1,F,Diana Alkova,Диана Алькова,52,,,,,,87.5,-92.5,-92.5,87.5,,,,,,,87.5,52,B,Multi-ply,Yes,Teen 18-19,18,2001-08-25
1,F,Diana Alkova,Диана Алькова,52,,,,,,87.5,-92.5,-92.5,87.5,,,,,,,87.5,52,B,Multi-ply,Yes,Open,18,2001-08-25
DQ,F,Natalya Zamyatina,Наталья Замятина,58.9,,,,,,-80,-80,-82.5,,,,,,,,,60,B,Multi-ply,Yes,Open,39,1980-04-14
1,F,Vasilina Podyacheva,Василина Подъячева,66,,,,,,80,85,-92.5,85,,,,,,,85,67.5,B,Multi-ply,Yes,Open,32,1987-05-30
1,M,Vitaliy Karlov,Виталий Карлов,74.5,,,,,,-170,170,-185,170,,,,,,,170,75,B,Multi-ply,Yes,Open,32,1987-07-15
1,M,Vladimir Plotnikov,Владимир Плотников,81.1,,,,,,180,,,180,,,,,,,180,82.5,B,Multi-ply,Yes,Open,38,1981-06-24
1,M,Pavel Karpukhin,Павел Карпухин,88.3,,,,,,235,-247.5,-247.5,235,,,,,,,235,90,B,Multi-ply,Yes,Open,31,1987-10-16
1,M,Ruslan Sukhomberliev,Руслан Сухомберлиев,105.6,,,,,,230,-250,250,250,,,,,,,250,110,B,Multi-ply,Yes,Open,27,1991-11-16
1,M,Vladimir Plotnikov,Владимир Плотников,81.1,,,,,,180,,,180,,,,,,,180,82.5,B,Multi-ply,No,Open,38,1981-06-24
1,M,Andrey Utkin,Андрей Уткин,99,,,,,,300,-312.5,-312.5,300,,,,,,,300,100,B,Multi-ply,No,Open,42,1976-12-21
1,M,Vitaliy Khomyakov,Виталий Хомяков,121.6,,,,,,220,230,-240,230,,,,,,,230,125,B,Multi-ply,No,Juniors 20-23,23,1996-05-19
1,M,Vitaliy Khomyakov,Виталий Хомяков,121.6,,,,,,220,230,-240,230,,,,,,,230,125,B,Multi-ply,No,Open,23,1996-05-19
1,M,Oleg Shkavro,Олег Шкавро,74,,,,,,-250,250,-260,250,,,,,,,250,75,B,Multi-ply,Yes,Open,30,1989-07-08
1,M,Vladimir Plotnikov,Владимир Плотников,81.1,,,,,,180,,,180,,,,,,,180,82.5,B,Multi-ply,Yes,Open,38,1981-06-24
1,M,Elvin Guliev,Элвин Гулиев,90,,,,,,330,345,360,360,-380,,,,,,360,90,B,Multi-ply,Yes,Open,27,1992-05-28
1,M,Aleksandr Chadaev,Александр Чадаев,93.1,,,,,,-220,220,-230,220,,,,,,,220,100,B,Multi-ply,Yes,Open,29,1989-11-18
1,M,Vladimir Plotnikov,Владимир Плотников,81.1,,,,,,180,,,180,,,,,,,180,82.5,B,Multi-ply,No,Open,38,1981-06-24
1,M,Sergey Talalaev,Сергей Талалаев,97.7,,,,,,245,255,265,265,,,,,,,265,100,B,Multi-ply,No,Masters 50-54,51,1968-09-07
1,M,Andrey Kulagin,Андрей Кулагин,113.4,,,,,,280,285,290,290,,,,,,,290,125,B,Multi-ply,No,Open,40,1978-09-16
1,M,Andrey Kulagin,Андрей Кулагин,113.4,,,,,,280,285,290,290,,,,,,,290,125,B,Multi-ply,No,Masters 40-44,40,1978-09-16
1,M,Yuriy Demyanchuk,Юрий Демьянчук,136.2,,,,,,270,-305,310,310,,,,,,,310,140,B,Multi-ply,No,Open,40,1978-10-03
1,F,Natalya Sidorova,Наталья Сидорова,52,,,,,,,,,,,105,110,115,115,,115,52,D,Raw,Yes,Juniors 20-23,21,1998-03-31
1,F,Olga Gavrilova,Ольга Гаврилова,54,,,,,,,,,,,80,90,100,100,,100,56,D,Raw,Yes,Open,33,1985-11-30
1,F,Natalya Zamyatina,Наталья Замятина,58.9,,,,,,,,,,,130,-140,-140,130,,130,60,D,Raw,Yes,Open,39,1980-04-14
2,F,Elena Sycheva,Елена Сычева,56.9,,,,,,,,,,,120,125,-132.5,125,,125,60,D,Raw,Yes,Open,34,1985-07-22
3,F,Kseniya Bryzhinskaya,Ксения Брыжинская,57.1,,,,,,,,,,,-87.5,87.5,92.5,92.5,,92.5,60,D,Raw,Yes,Open,31,1988-08-25
1,F,Tatyana Knutova,Татьяна Кнутова,62.9,,,,,,,,,,,137.5,145,-150,145,,145,67.5,D,Raw,Yes,Open,47,1972-06-16
2,F,Mariya Bateyshchikova,Мария Батейщикова,64.7,,,,,,,,,,,85,87.5,92.5,92.5,,92.5,67.5,D,Raw,Yes,Open,32,1987-03-04
1,F,Oksana Elyutina,Оксана Елютина,73.3,,,,,,,,,,,115,-122.5,-122.5,115,,115,75,D,Raw,Yes,Open,18,2000-12-09
1,F,Yuliya Milushkina,Юлия Милушкина,94.5,,,,,,,,,,,125,132.5,135,135,,135,90+,D,Raw,Yes,Open,24,1994-11-23
1,M,Gleb Pakshaev,Глеб Пакшаев,57.5,,,,,,,,,,,117.5,122.5,125,125,,125,60,D,Raw,Yes,Teen 13-15,15,2003-11-15
DQ,M,Viktor Sorokin,Виктор Сорокин,62.5,,,,,,,,,,,-175,-175,-175,,,,67.5,D,Raw,Yes,Open,20,1999-05-29
1,M,Ivan Starkov,Иван Старков,70.2,,,,,,,,,,,150,157.5,165,165,,165,75,D,Raw,Yes,Juniors 20-23,20,1998-12-13
2,M,Mong Chijioke,,70.3,,,,,,,,,,,-50,85,100,100,,100,75,D,Raw,Yes,Juniors 20-23,20,1999-01-01
1,M,Valeriy Shustrov,Валерий Шустров,73.4,,,,,,,,,,,200,207.5,220,220,,220,75,D,Raw,Yes,Open,25,1994-03-03
2,M,Evgeniy Spitsyn,Евгений Спицын,69.5,,,,,,,,,,,130,135,145,145,,145,75,D,Raw,Yes,Open,24,1995-01-06
1,M,Oleg Telyatnikov,Олег Телятников,83.4,,,,,,,,,,,235,245,252.5,252.5,,252.5,90,D,Raw,Yes,Teen 18-19,19,1999-11-05
1,M,Oleg Telyatnikov,Олег Телятников,83.4,,,,,,,,,,,235,245,252.5,252.5,,252.5,90,D,Raw,Yes,Open,19,1999-11-05
2,M,Sergey Karpunin,Сергей Карпунин,88.7,,,,,,,,,,,205,220,230,230,,230,90,D,Raw,Yes,Open,31,1987-10-18
1,M,Denis Pogonyaev,Денис Погоняев,97.1,,,,,,,,,,,170,180,190,190,,190,100,D,Raw,Yes,Juniors 20-23,21,1997-10-23
1,M,Aleksey Ignatev,Алексей Игнатьев,104.8,,,,,,,,,,,210,225,247.5,247.5,,247.5,110,D,Raw,Yes,Teen 18-19,18,2001-02-19
1,M,Dmitriy Nosanov,Дмитрий Носанов,124.3,,,,,,,,,,,200,215,,215,,215,125,D,Raw,Yes,Teen 18-19,18,2000-11-19
1,M,Aleksandr Denisov,Александр Денисов,76.2,,,,,,,,,,,180,190,202.5,202.5,,202.5,82.5,D,Raw,No,Open,32,1987-07-01
1,M,Aleksandr Gubanov,Александр Губанов,80.3,,,,,,,,,,,-115,115,117.5,117.5,,117.5,82.5,D,Raw,No,Masters 65-69,68,1951-02-06
1,M,Maksim Bochkovskiy,Максим Бочковский,87.4,,,,,,,,,,,170,180,190,190,,190,90,D,Raw,No,Teen 18-19,18,2001-04-18
1,M,Aleksey Dubov,Алексей Дубов,88.9,,,,,,,,,,,155,170,177.5,177.5,,177.5,90,D,Raw,No,Masters 55-59,56,1963-04-18
1,M,Nikolay Khoroshchenko,Николай Хорощенко,98.1,,,,,,,,,,,240,250,260,260,,260,100,D,Raw,No,Open,33,1986-06-28
1,M,Vladimir Konopatskiy,Владимир Конопацкий,109.4,,,,,,,,,,,270,292.5,310,310,,310,110,D,Multi-ply,Yes,Open,46,1973-08-06
